<?xml version="1.0" encoding="iso-8859-1"?>
<!-- Generator: Adobe Illustrator 22.0.0, SVG Export Plug-In . SVG Version: 6.00 Build 0)  -->
<svg fill="#0f729f" version="1.1" id="Capa_1" xmlns="http://www.w3.org/2000/svg" xmlns:xlink="http://www.w3.org/1999/xlink" x="0px" y="0px"
	 viewBox="-49 141 512 512" style="enable-background:new -49 141 512 512;" xml:space="preserve">
<path d="M449.791,302.127c-17.545-17.546-46.094-17.545-63.645,0.004c-5.398,5.403-39.863,39.896-45.128,45.166V228.426
	c0-12.02-4.681-23.32-13.181-31.819l-42.425-42.427c-8.499-8.5-19.8-13.18-31.82-13.18H-3.982c-24.813,0-45,20.187-45,45v422
	c0,24.813,20.187,45,45,45h300c24.813,0,45-20.187,45-45V474.631L449.79,365.767C467.377,348.181,467.381,319.715,449.791,302.127z
	 M298.591,474.64l-8.103,8.103l-31.819,10.606l10.606-31.82l8.103-8.102L298.591,474.64z M319.8,453.422l-21.213-21.213
	c11.296-11.305,61.465-61.517,72.105-72.166l21.213,21.213L319.8,453.422z M264.199,175.393l42.426,42.427
	c4.76,4.761,4.394,9.978,4.394,13.18h-60v-60C253.853,171,259.314,170.509,264.199,175.393z M296.018,623h-300
	c-8.271,0-15-6.729-15-15V186c0-8.271,6.729-15,15-15h225v75c0,8.284,6.716,15,15,15h75v116.323c0,0-44.254,44.292-44.256,44.293
	l-21.203,21.204c-1.646,1.646-2.888,3.654-3.624,5.863l-21.214,63.64c-1.797,5.39-0.394,11.333,3.624,15.35
	c4.023,4.023,9.968,5.419,15.35,3.624l63.64-21.213c2.209-0.736,4.217-1.977,5.863-3.624l1.82-1.82V608
	C311.018,616.271,304.29,623,296.018,623z M428.573,344.558l-15.463,15.476l-21.213-21.213l15.468-15.481
	c5.852-5.849,15.366-5.848,21.214,0C434.426,329.19,434.457,338.673,428.573,344.558z"/>
<path d="M26.018,321h210c8.284,0,15-6.716,15-15s-6.716-15-15-15h-210c-8.284,0-15,6.716-15,15S17.734,321,26.018,321z"/>
<path d="M26.018,381h150c8.284,0,15-6.716,15-15s-6.716-15-15-15h-150c-8.284,0-15,6.716-15,15S17.734,381,26.018,381z"/>
<path d="M26.018,441h150c8.284,0,15-6.716,15-15s-6.716-15-15-15h-150c-8.284,0-15,6.716-15,15S17.734,441,26.018,441z"/>
<path d="M191.018,486c0-8.284-6.716-15-15-15h-150c-8.284,0-15,6.716-15,15s6.716,15,15,15h150
	C184.302,501,191.018,494.284,191.018,486z"/>
<path d="M236.018,563h-90c-8.284,0-15,6.716-15,15s6.716,15,15,15h90c8.284,0,15-6.716,15-15S244.302,563,236.018,563z"/>
</svg>
