<?xml version="1.0" encoding="iso-8859-1"?>
<!-- Generator: Adobe Illustrator 22.0.0, SVG Export Plug-In . SVG Version: 6.00 Build 0)  -->
<svg fill="#0f729f" version="1.1" id="Capa_1" xmlns="http://www.w3.org/2000/svg" xmlns:xlink="http://www.w3.org/1999/xlink" x="0px" y="0px"
	 viewBox="-49 141 512 512" style="enable-background:new -49 141 512 512;" xml:space="preserve">
<path d="M431,301H329.752c7.264-4.96,13.504-9.888,17.856-14.304c25.792-25.952,25.792-68.192,0-94.144
	c-25.056-25.216-68.768-25.248-93.856,0c-13.856,13.92-50.688,70.592-45.6,108.448h-2.304c5.056-37.856-31.744-94.528-45.6-108.448
	c-25.088-25.248-68.8-25.216-93.856,0C40.6,218.504,40.6,260.744,66.36,286.696c4.384,4.416,10.624,9.344,17.888,14.304H-17
	c-17.632,0-32,14.368-32,32v80c0,8.832,7.168,16,16,16h16v192c0,17.632,14.368,32,32,32h384c17.632,0,32-14.368,32-32V429h16
	c8.832,0,16-7.168,16-16v-80C463,315.368,448.632,301,431,301z M240.856,299.944c-7.424-7.712,14.016-63.136,35.584-84.832
	c12.992-13.024,35.52-12.992,48.48,0c13.408,13.504,13.408,35.52,0,49.024c-13.792,13.888-56,36.864-78.112,36.864
	C242.232,301,240.888,299.976,240.856,299.944z M89.08,264.136c-13.408-13.504-13.408-35.52,0-49.024
	C95.576,208.584,104.184,205,113.336,205c9.12,0,17.728,3.584,24.224,10.112c21.568,21.696,43.008,77.12,35.552,84.832
	c0,0-1.344,1.056-5.92,1.056C145.08,301,102.872,278.024,89.08,264.136z M-17,333h184.192H191v64H-17V333z M15,429h176v192H15V429z
	 M399,621H223V429h176V621z M431,397H223v-64h23.808H431V397z"/>
</svg>
