<!-- Generated by IcoMoon.io -->
<svg version="1.1" xmlns="http://www.w3.org/2000/svg" width="1024" height="1024" viewBox="0 0 1024 1024">
<title></title>
<g id="icomoon-ignore">
</g>
<path d="M224 320h-64v64h64v-64zM480 256h-64v64h64v-64zM608 256h-64v64h64v-64zM736 256h-64v64h64v-64zM480 128h-64v64h64v-64zM608 128h-64v64h64v-64zM736 128h-64v64h64v-64zM480 512h-64v64h64v-64zM608 512h-64v64h64v-64zM736 512h-64v64h64v-64zM480 640h-64v64h64v-64zM736 640h-64v64h64v-64zM480 768h-64v64h64v-64zM736 768h-64v64h64v-64zM480 384h-64v64h64v-64zM608 384h-64v64h64v-64zM736 384h-64v64h64v-64zM224 448h-64v64h64v-64zM224 576h-64v64h64v-64zM224 704h-64v64h64v-64zM224 832h-64v64h64v-64zM608 640h-64v64h64v-64zM928 448h-64v-384c0-35.376-28.624-64-64-64h-448c-35.376 0-64 28.624-64 64v128h-192c-35.376 0-64 28.624-64 64v704c0 35.376 28.624 64 64 64h832c35.376 0 64-28.624 64-64v-448c0-35.376-28.624-64-64-64zM288 960h-192v-704h192v704zM800 960h-192v-192h-64v192h-192v-896h448v896zM928 960h-64v-64h64v64zM928 832h-64v-64h64v64zM928 704h-64v-64h64v64zM928 576h-64v-64h64v64z"></path>
</svg>
