<?xml version="1.0" encoding="iso-8859-1"?>
<!-- Generator: Adobe Illustrator 22.0.0, SVG Export Plug-In . SVG Version: 6.00 Build 0)  -->
<svg version="1.1" id="&#x421;&#x43B;&#x43E;&#x439;_1"
	 xmlns="http://www.w3.org/2000/svg" xmlns:xlink="http://www.w3.org/1999/xlink" x="0px" y="0px" viewBox="0 0 125.145 108.457"
	 style="enable-background:new 0 0 125.145 108.457;" xml:space="preserve">
<g>
	<g>
		<path d="M122.078,3.063C120.035,1.024,117.582,0,114.715,0H10.43C7.562,0,5.105,1.024,3.062,3.063C1.02,5.106,0,7.563,0,10.43
			v70.914c0,2.867,1.02,5.324,3.062,7.363c2.043,2.043,4.5,3.067,7.368,3.067h35.457c0,1.648-0.348,3.344-1.043,5.082
			c-0.696,1.738-1.391,3.258-2.086,4.562c-0.696,1.305-1.043,2.258-1.043,2.868c0,1.128,0.414,2.109,1.238,2.933
			c0.824,0.824,1.805,1.238,2.934,1.238h33.371c1.129,0,2.109-0.414,2.933-1.238c0.825-0.824,1.239-1.805,1.239-2.933
			c0-0.563-0.348-1.512-1.043-2.836c-0.696-1.325-1.391-2.868-2.086-4.625c-0.696-1.762-1.043-3.446-1.043-5.051h35.457
			c2.867,0,5.32-1.024,7.363-3.067c2.043-2.039,3.067-4.496,3.067-7.363V10.43C125.145,7.563,124.121,5.106,122.078,3.063
			L122.078,3.063z M116.801,64.657c0,0.566-0.207,1.054-0.621,1.468c-0.41,0.411-0.903,0.618-1.465,0.618H10.43
			c-0.567,0-1.055-0.207-1.469-0.618c-0.41-0.414-0.617-0.902-0.617-1.468V10.43c0-0.566,0.203-1.055,0.617-1.469
			c0.414-0.41,0.902-0.617,1.469-0.617h104.285c0.566,0,1.055,0.207,1.465,0.617c0.414,0.414,0.621,0.903,0.621,1.469V64.657z
			 M116.801,64.657"/>
	</g>
	<path d="M64.382,29.717l16.5,16.5c1.049,1.052,1.049,2.754,0,3.803c-1.049,1.047-2.751,1.047-3.8,0l-14.6-14.6L47.884,50.017
		c-1.049,1.049-2.751,1.049-3.8,0c-1.052-1.049-1.052-2.751,0-3.8l16.5-16.5c0.524-0.525,1.21-0.786,1.897-0.786
		C63.169,28.931,63.86,29.192,64.382,29.717L64.382,29.717z M64.382,29.717"/>
</g>
</svg>
