<?xml version="1.0" encoding="iso-8859-1"?>
<!-- Generator: Adobe Illustrator 22.0.0, SVG Export Plug-In . SVG Version: 6.00 Build 0)  -->
<svg version="1.1" id="&#x421;&#x43B;&#x43E;&#x439;_1"
	 xmlns="http://www.w3.org/2000/svg" xmlns:xlink="http://www.w3.org/1999/xlink" x="0px" y="0px" viewBox="0 0 45 42.629"
	 style="enable-background:new 0 0 45 42.629;" xml:space="preserve">
<g>
	<path  d="M28.316,41.443c-0.78-0.574-0.863-1.435-0.863-1.435l-0.292-1.87H17.84l-0.295,1.867
		c0,0-0.081,0.863-0.861,1.437c-0.78,0.573-1.395,1.065-0.78,1.149c0.593,0.079,6.184,0.006,6.596,0
		c0.413,0.006,6.003,0.079,6.594,0C29.709,42.509,29.094,42.016,28.316,41.443L28.316,41.443z M28.316,41.443"/>
	<path  d="M11.999,26.506c2.492-0.02,2.801-0.62,3.612-3.118c1.496-3.946,8.24,1.033,4.061,2.76
		C15.495,27.877,9.51,26.526,11.999,26.506L11.999,26.506z M11.999,26.506"/>
	<path  d="M37.534,0.503c-1.209-0.973-3.21-0.492-4.472,1.073L20.287,19.727
		c-1.261,1.564-1.254,1.266-0.048,2.239c1.209,0.973,0.919,1.043,2.18-0.523L37.439,5.102C38.698,3.536,38.742,1.477,37.534,0.503
		L37.534,0.503z M34.249,2.677c0,0-0.187-0.218-0.809-0.714c0.934-1.525,2.766-1.246,2.766-1.246
		C34.468,1.745,34.249,2.677,34.249,2.677L34.249,2.677z M34.249,2.677"/>
	<path  d="M43.201,6.638h-5.619l-2.481,2.7h7.198v21.599H2.701V9.338h23.036l1.901-2.7H1.799
		C0.807,6.638,0,7.445,0,8.438v26.099c0,0.996,0.807,1.802,1.799,1.802h41.401c0.993,0,1.799-0.806,1.799-1.802V8.438
		C45,7.445,44.193,6.638,43.201,6.638L43.201,6.638z M43.201,6.638"/>
</g>
</svg>
