<?xml version="1.0" encoding="iso-8859-1"?>
<!-- Generator: Adobe Illustrator 22.0.0, SVG Export Plug-In . SVG Version: 6.00 Build 0)  -->
<svg version="1.1" id="Capa_1" xmlns="http://www.w3.org/2000/svg" xmlns:xlink="http://www.w3.org/1999/xlink" x="0px" y="0px"
	 viewBox="194.205 374.5 25.591 45" style="enable-background:new 194.205 374.5 25.591 45;" xml:space="preserve">
<g>
	<path d="M194.205,416.863c0,1.456,1.18,2.637,2.637,2.637h20.317c1.456,0,2.637-1.18,2.637-2.637v-4.709
		h-25.591V416.863z M206.152,414.452h1.696c0.728,0,1.318,0.59,1.318,1.318s-0.59,1.318-1.318,1.318h-1.696
		c-0.728,0-1.318-0.59-1.318-1.318S205.424,414.452,206.152,414.452z"/>
	<path d="M219.795,382.724h-25.591v26.794h25.591V382.724L219.795,382.724z M213.727,406.6h-13.453
		c-0.728,0-1.318-0.59-1.318-1.318s0.59-1.318,1.318-1.318h13.453c0.728,0,1.318,0.59,1.318,1.318S214.455,406.6,213.727,406.6z
		 M213.727,401.554h-13.453c-0.728,0-1.318-0.59-1.318-1.318s0.59-1.318,1.318-1.318h13.453c0.728,0,1.318,0.59,1.318,1.318
		S214.455,401.554,213.727,401.554z M213.287,396.509h-12.574c-0.969,0-1.758-0.789-1.758-1.758v-7.367
		c0-0.969,0.789-1.758,1.758-1.758h12.574c0.969,0,1.758,0.789,1.758,1.758v7.367C215.045,395.721,214.256,396.509,213.287,396.509z
		"/>
	<path d="M219.795,377.137c0-1.456-1.18-2.637-2.637-2.637h-20.317c-1.456,0-2.637,1.18-2.637,2.637v2.951
		h25.591V377.137z"/>
</g>
</svg>
