<!-- Generated by IcoMoon.io -->
<svg version="1.1" xmlns="http://www.w3.org/2000/svg" width="1024" height="1024" viewBox="0 0 1024 1024">
<title></title>
<g id="icomoon-ignore">
</g>
<path d="M617.94 229.029c47.347 29.686 80.548 79.921 86.592 138.233 19.309 9.022 40.74 14.211 63.462 14.211 82.95 0 150.182-67.232 150.182-150.169 0-82.95-67.232-150.182-150.182-150.182-82.158 0.026-148.801 66.056-150.054 147.907zM519.553 536.523c82.95 0 150.182-67.244 150.182-150.182s-67.244-150.169-150.182-150.169c-82.937 0-150.207 67.244-150.207 150.182s67.27 150.169 150.207 150.169zM583.257 546.76h-127.435c-106.029 0-192.289 86.273-192.289 192.302v155.843l0.396 2.441 10.735 3.361c101.186 31.616 189.094 42.159 261.45 42.159 141.326 0 223.24-40.293 228.288-42.862l10.032-5.073h1.073v-155.868c0.038-106.029-86.221-192.302-192.251-192.302zM831.724 391.722h-126.451c-1.367 50.593-22.964 96.151-57.123 128.917 94.247 28.025 163.204 115.422 163.204 218.653v48.024c124.853-4.575 196.8-39.961 201.541-42.338l10.032-5.086h1.073v-155.894c0-106.017-86.26-192.276-192.276-192.276zM256.032 381.498c29.379 0 56.714-8.575 79.87-23.182 7.361-48.012 33.098-89.966 69.864-118.54 0.153-2.811 0.422-5.597 0.422-8.434 0-82.95-67.244-150.182-150.156-150.182-82.963 0-150.182 67.232-150.182 150.182 0 82.912 67.219 150.156 150.182 150.156zM390.904 520.639c-33.993-32.6-55.513-77.915-57.085-128.201-4.69-0.345-9.329-0.716-14.108-0.716h-127.422c-106.029 0-192.289 86.26-192.289 192.276v155.868l0.396 2.402 10.735 3.386c81.174 25.341 153.619 37.021 216.544 40.702v-47.066c0.026-103.231 68.957-190.602 163.229-218.653z"></path>
</svg>
