<?xml version="1.0" encoding="iso-8859-1"?>
<!-- Generator: Adobe Illustrator 22.0.0, SVG Export Plug-In . SVG Version: 6.00 Build 0)  -->
<svg version="1.1"
	 xmlns="http://www.w3.org/2000/svg" xmlns:xlink="http://www.w3.org/1999/xlink" x="0px" y="0px" viewBox="0 0 45 45"
	 style="enable-background:new 0 0 45 45;" xml:space="preserve">
<g>
	<path d="M22.5,0C9.998,0,0,9.998,0,22.5C0,35.002,9.998,45,22.5,45c2.003,0,3.747-1.744,3.747-3.747
		c0-1-0.244-1.744-1-2.503c-0.488-0.744-0.988-1.488-0.988-2.488c0-2.003,1.744-3.763,3.747-3.763h4.491
		c7.01,0,12.502-5.491,12.502-12.502C45,8.998,35.002,0,22.5,0L22.5,0z M8.754,22.5c-2.003,0-3.747-1.744-3.747-3.747
		s1.744-3.747,3.747-3.747c2,0,3.747,1.744,3.747,3.747S10.755,22.5,8.754,22.5L8.754,22.5z M16.249,12.502
		c-2,0-3.747-1.747-3.747-3.747c0-2.003,1.747-3.747,3.747-3.747c2.003,0,3.747,1.744,3.747,3.747
		C19.996,10.755,18.253,12.502,16.249,12.502L16.249,12.502z M28.751,12.502c-2,0-3.747-1.747-3.747-3.747
		c0-2.003,1.747-3.747,3.747-3.747c2.003,0,3.747,1.744,3.747,3.747C32.498,10.755,30.754,12.502,28.751,12.502L28.751,12.502z
		 M36.261,22.5c-2.003,0-3.763-1.744-3.763-3.747s1.76-3.747,3.763-3.747c1.988,0,3.747,1.744,3.747,3.747S38.249,22.5,36.261,22.5
		L36.261,22.5z M36.261,22.5"/>
</g>
</svg>
