<!-- Generated by IcoMoon.io -->
<svg version="1.1" xmlns="http://www.w3.org/2000/svg" width="1024" height="1024" viewBox="0 0 1024 1024">
<title></title>
<g id="icomoon-ignore">
</g>
<path d="M342.447 233.118v180.18c0 3.318 2.685 6.003 6.003 6.003h40.020c3.318 0 6.003-2.685 6.003-6.003v-180.18l85.558-224.982c0.7-1.845 0.452-3.918-0.668-5.543-1.121-1.621-2.965-2.593-4.942-2.593h-42.813c-2.489 0-4.726 1.541-5.611 3.87l-57.536 151.29-57.536-151.29c-0.884-2.329-3.118-3.87-5.607-3.87h-42.817c-1.973 0-3.822 0.972-4.942 2.593-1.121 1.625-1.369 3.698-0.668 5.543l85.558 224.982z"></path>
<path d="M438.226 228.708v120.191c0 43.765 35.605 79.371 79.371 79.371s79.375-35.605 79.375-79.371v-120.191c0-43.765-35.605-79.371-79.375-79.371-43.765 0-79.371 35.605-79.371 79.371zM544.946 348.898c0 15.079-12.266 27.345-27.349 27.345-15.079 0-27.345-12.266-27.345-27.345v-120.191c0-15.079 12.266-27.345 27.345-27.345s27.349 12.266 27.349 27.345v120.191z"></path>
<path d="M697.957 412.966c9.621 0 18.805-1.809 27.349-4.958v5.291c0 3.318 2.685 6.003 6.003 6.003h40.020c3.318 0 6.003-2.685 6.003-6.003v-243.915c0-3.318-2.685-6.003-6.003-6.003h-40.020c-3.318 0-6.003 2.685-6.003 6.003v164.212c0 15.079-12.266 27.345-27.349 27.345-15.079 0-27.345-12.266-27.345-27.345v-164.212c0-3.318-2.685-6.003-6.003-6.003h-40.020c-3.318 0-6.003 2.685-6.003 6.003v164.212c-0.004 43.765 35.605 79.371 79.371 79.371z"></path>
<path d="M601.594 717.722c-15.079 0-27.345 12.266-27.345 27.345v100.181c0 15.079 12.266 27.345 27.345 27.345s27.349-12.266 27.349-27.345v-100.181c0-15.079-12.27-27.345-27.349-27.345z"></path>
<path d="M774.778 715.721c-15.079 0-27.345 12.266-27.345 27.345v18.277h54.695v-18.277c-0.004-15.079-12.27-27.345-27.349-27.345z"></path>
<path d="M792.139 463.726h-560.274c-117.285 0-212.704 95.419-212.704 212.7v134.866c0 117.285 95.419 212.704 212.704 212.704h560.274c117.285 0 212.704-95.419 212.704-212.704v-134.866c0-117.281-95.419-212.7-212.704-212.7zM306.918 898.939c0 3.318-2.685 6.003-6.003 6.003h-40.020c-3.318 0-6.003-2.685-6.003-6.003v-284.139h-59.029c-3.318 0-6.003-2.685-6.003-6.003v-40.020c0-3.318 2.685-6.003 6.003-6.003h170.083c3.318 0 6.003 2.685 6.003 6.003v40.020c0 3.318-2.685 6.003-6.003 6.003h-59.029v284.139zM498.679 800.891v119.418c0 3.318-2.685 6.003-6.003 6.003h-40.020c-3.318 0-6.003-2.685-6.003-6.003v-4.054c-8.54 3.15-17.725 4.958-27.349 4.958-43.765 0-79.371-30.195-79.371-79.371v-133.661c0-3.318 2.685-6.003 6.003-6.003h40.020c3.318 0 6.003 2.685 6.003 6.003v133.661c0 15.079 12.266 27.345 27.345 27.345s27.349-12.266 27.349-27.345v-133.665c0-3.318 2.685-6.003 6.003-6.003h40.020c3.318 0 6.003 2.685 6.003 6.003v92.713zM680.969 845.249c0 43.765-35.605 79.371-79.371 79.371-9.621 0-18.805-1.809-27.345-4.958v4.386c0 3.318-2.685 6.003-6.003 6.003h-40.020c-3.318 0-6.003-2.685-6.003-6.003v-347.266c0-3.318 2.685-6.003 6.003-6.003h40.020c3.318 0 6.003 2.685 6.003 6.003v93.87c8.54-3.15 17.725-4.958 27.345-4.958 43.765 0 79.371 35.605 79.371 79.371v100.185zM854.149 807.366c0 3.318-2.685 6.003-6.003 6.003h-100.717v31.88c0 15.079 12.266 27.345 27.345 27.345s27.349-12.266 27.349-27.345c0-3.318 2.685-6.003 6.003-6.003h40.020c3.318 0 6.003 2.685 6.003 6.003 0 43.765-35.609 79.371-79.375 79.371s-79.371-35.605-79.371-79.371v-102.182c0-43.765 35.609-79.371 79.371-79.371 43.765 0 79.375 35.605 79.375 79.371v64.299z"></path>
</svg>
