<?xml version="1.0" standalone="no"?>
<!DOCTYPE svg PUBLIC "-//W3C//DTD SVG 1.1//EN" "http://www.w3.org/Graphics/SVG/1.1/DTD/svg11.dtd" >
<svg xmlns="http://www.w3.org/2000/svg">
<defs>
  <font id="Icons" horiz-adv-x="792">
    <font-face font-family="Icons"
      units-per-em="1001" ascent="1001"
      descent="0" />
    <missing-glyph horiz-adv-x="0" />
    <glyph glyph-name="contract"
      unicode="&#xE001;"
      horiz-adv-x="1001" d="M761.5288304731772 830.08316015625C761.5288304731772 853.5675585937499 752.3634242231773 875.67558203125 735.7530804731772 892.2859257812501L652.8147562544272 975.22425C636.4351117231772 991.605849609375 613.1833675825523 1001 590.0430628950522 1001H585.0028714888023V825.04296875H761.5307855513023L761.5288304731772 830.08316015625L761.5288304731772 830.08316015625zM535.5687210981773 395.8309824218751C541.1817503950523 412.871443359375 550.9766918013022 428.7369023437501 563.7492171919273 441.5954511718751L762.3108617231773 639.3574687500002V766.390625H556.2456273481773C540.0360746138023 766.390625 527.8715785200524 779.5072441406251 527.8715785200524 795.716796875V1001H87.9790003950523C39.4656918013023 1001 0.0004847700523 961.53479296875 0.0004847700523 913.021484375V87.978515625C0.0004847700523 39.46520703125 39.4656918013023 0 87.9790003950523 0H673.5503148481772C722.0636234419272 0 762.3108617231771 39.46520703125 762.3108617231771 87.978515625V306.851466796875L730.0833539106771 275.4059902343751C717.0253871138023 262.4614179687501 701.7327660200523 253.0398964843751 684.4909320356772 247.2821914062501L591.2434808638022 216.151482421875L577.0378832075522 215.377271484375C553.5534847700521 215.377271484375 531.3301117231772 226.8047031250001 517.5272601606772 245.935142578125C503.8378031294271 264.97955859375 500.1153343794271 289.6663300781251 507.5602718794271 311.9757265625L535.5687210981773 395.8309824218751zM146.6313441450523 473.12890625H438.9409398481773C455.1504925825523 473.12890625 468.2671117231773 460.0122871093749 468.2671117231773 443.802734375C468.2671117231773 427.5931816406251 455.1504925825523 414.4765625 438.9409398481773 414.4765625H146.6313441450523C130.4217914106773 414.4765625 117.3051722700523 427.5931816406251 117.3051722700523 443.802734375C117.3051722700523 460.0122871093749 130.4217914106773 473.12890625 146.6313441450523 473.12890625zM117.3051722700523 561.107421875C117.3051722700523 577.3169746093749 130.4217914106773 590.43359375 146.6313441450523 590.43359375H438.9409398481773C455.1504925825523 590.43359375 468.2671117231773 577.3169746093749 468.2671117231773 561.107421875S455.1504925825523 531.78125 438.9409398481773 531.78125H146.6313441450523C130.4217914106773 531.78125 117.3051722700523 544.8978691406251 117.3051722700523 561.107421875zM117.3051722700523 326.498046875C117.3051722700523 342.707599609375 130.4217914106773 355.82421875 146.6313441450523 355.82421875H438.9409398481773C455.1504925825523 355.82421875 468.2671117231773 342.707599609375 468.2671117231773 326.498046875C468.2671117231773 310.2884941406251 455.1504925825523 297.171875 438.9409398481773 297.171875H146.6313441450523C130.4217914106773 297.171875 117.3051722700523 310.2884941406251 117.3051722700523 326.498046875zM556.2456273481772 179.8671875C572.4551800825521 179.8671875 585.5717992231772 166.750568359375 585.5717992231772 150.541015625C585.5717992231772 134.3314628906251 572.4571351606771 121.21484375 556.2456273481772 121.21484375H380.2885960981772C364.0790433638022 121.21484375 350.9624242231772 134.3314628906251 350.9624242231772 150.541015625C350.9624242231772 166.750568359375 364.0790433638022 179.8671875 380.2885960981772 179.8671875H556.2456273481772zM146.6313441450523 649.0859375C130.4217914106773 649.0859375 117.3051722700523 662.2025566406251 117.3051722700523 678.412109375S130.4217914106773 707.73828125 146.6313441450523 707.73828125H556.2456273481773C572.4551800825523 707.73828125 585.5717992231773 694.6216621093749 585.5717992231773 678.412109375S572.4551800825523 649.0859375 556.2456273481773 649.0859375H146.6313441450523zM588.6960140669272 369.885140625L563.1822445356772 293.341876953125C559.3581117231772 281.87534375 570.2694027388022 270.967962890625 581.7359359419272 274.7979609375L658.2342328169271 300.3469218749999L588.6960140669272 369.885140625zM816.4587054731772 611.3392441406249L623.3184925825523 418.19903125L706.6145960981772 334.902927734375C750.2675804731772 378.563732421875 835.2059496138022 463.51383203125 899.7450335981773 528.052916015625L816.4587054731772 611.3392441406249zM983.7664710981772 695.4525703125C973.4573441450522 705.820349609375 958.2781175825525 711.748146484375 942.1819593794274 711.748146484375C926.0858011763024 711.748146484375 910.9085296919274 705.820349609375 900.5407503950523 695.423244140625L857.9259125044273 652.8084062500001L941.2083304731772 569.5259882812501C964.5382777388024 592.8578906250001 980.6637621138022 608.983375 983.8270785200522 612.1447363281251C1006.7347289106772 635.0875781249999 1006.7327738325524 672.45694140625 983.7664710981772 695.4525703125zM983.8251234419272 612.1427812500001C983.8270785200522 612.1427812500001 983.8270785200522 612.144736328125 983.8290335981771 612.14669140625C983.9033265669271 612.2209843750001 983.9365628950522 612.254220703125 983.9971703169272 612.3148281250001C983.9365628950522 612.2522656250001 983.9033265669271 612.2190292968751 983.8251234419272 612.1427812500001zM983.9971703169272 612.3148281250001C984.0910140669274 612.408671875 984.2004984419272 612.5181562500001 984.2571957075522 612.574853515625C984.1985433638022 612.516201171875 984.0910140669274 612.408671875 983.9971703169272 612.3148281250001zM984.2571957075522 612.5748535156249C984.4468382856772 612.76449609375 984.4507484419274 612.76840625 984.2571957075522 612.5748535156249L984.2571957075522 612.5748535156249z" />
    <glyph glyph-name="dislike"
      unicode="&#xE002;"
      horiz-adv-x="1001" d="M7.5081978241536 924.10318V335.8580225000001C7.5081978241536 317.8225050000001 22.1578328241536 303.1803775000001 40.1933503241536 303.1803775000001H170.9114378241536C188.9469553241535 303.1803775000001 203.5940878241536 317.8225050000001 203.5940878241536 335.8580225000001V924.10318C203.5940878241536 942.146205 188.8843928241536 956.7833275 170.9114378241536 956.7833275H40.1933503241536C22.2203953241536 956.7833275 7.5081978241536 942.146205 7.5081978241536 924.10318zM948.8160653241534 497.7047075C973.8085328241536 542.6345925 958.6308703241536 600.8202200000001 915.2250078241536 628.1950675C940.2224803241534 673.127455 925.0398128241536 731.3130825000001 881.6364528241534 758.6854275000001C917.4397203241534 823.0447225 868.7035328241534 904.78388 795.2126153241534 904.2308275L250.5535003241535 900.4445450000001L254.1871303241535 377.5696925000001C254.1871303241535 377.5696925000001 412.7930778241535 235.910675 463.8741078241534 186.7790925000001C493.1708753241534 158.59844 512.2274128241534 120.9182975000001 520.0427203241534 81.20112C523.1232978241534 65.5429775 522.3775528241533 49.0314824999999 530.8259928241533 34.949915C538.1733328241534 22.70268 550.4180653241534 13.6136 564.3044378241533 10.2202100000001C588.5161253241533 4.3043000000001 618.4560353241534 10.2727625000001 639.8348928241534 21.8843625000001C705.4879803241533 57.5474899999999 720.1751528241533 156.6840275 695.9759778241535 221.3761550000001L660.9009378241534 315.039725C660.9009378241534 315.039725 907.3346253241534 315.8605449999999 912.5898753241534 316.7889725C999.5967953241536 332.1242925 1023.7008753241536 450.475025 948.8160653241534 497.7047075z" />
    <glyph glyph-name="envelope"
      unicode="&#xE003;"
      horiz-adv-x="1001.0000000000001" d="M878.8002458377023 881.3895096213532H122.4062876336882C54.8859069177767 881.3895096213532 -0.0002921304335 826.5033105731429 -0.0002921304335 758.9829298572315V242.0170701427685C-0.0002921304335 174.496689426857 54.8859069177767 119.6104903786468 122.4062876336882 119.6104903786468H878.593128105445C946.1135088213564 119.6104903786468 1000.9997078695666 174.496689426857 1000.9997078695666 242.0170701427685V758.7758121249742C1001.206825601824 826.2961928408856 946.3206265536136 881.3895096213532 878.8002458377023 881.3895096213532zM945.2850378923268 242.0170701427685C945.2850378923268 205.3572315332092 915.4600844472616 175.5322780881439 878.8002458377023 175.5322780881439H122.4062876336882C85.7464490241289 175.5322780881439 55.9214955790637 205.3572315332091 55.9214955790637 242.0170701427685V758.7758121249742C55.9214955790637 795.4356507345334 85.7464490241289 825.2606041795987 122.4062876336882 825.2606041795987H878.593128105445C915.2529667150042 825.2606041795987 945.0779201600694 795.4356507345334 945.0779201600694 758.7758121249742V242.0170701427685H945.2850378923268zM631.2945557901128 506.9206496999793L876.1077153183562 726.4654458928202C887.4991905925131 736.82133250569 888.5347792538 754.4263397475688 878.1788926409301 766.024932753983C867.8230060280603 777.4164080281398 850.2179987861814 778.4519966894268 838.6194057797672 768.0961100765569L501.01750220021 465.0828677839851L435.1540633423577 523.9043037450858C434.9469456101004 524.1114214773432 434.7398278778429 524.3185392096007 434.7398278778429 524.5256569418581C433.2900037520412 525.9754810676598 431.8401796262394 527.2181874612043 430.1832377681802 528.4608938547486L162.1728922271084 768.3032278088144C150.5742992206942 778.6591144216843 132.9692919788155 777.6235257603973 122.6134053659456 766.0249327539831C112.2575187530757 754.4263397475688 113.2931074143627 736.8213325056901 124.891700420777 726.4654458928203L372.6045082006238 505.0565901096627L125.9272890820639 274.120318642665C114.7429315401645 263.5573142975377 114.1215783433923 245.952307055659 124.6845826885196 234.5608317815021C130.2767614594693 228.761535278295 137.7329998207356 225.654769294434 145.1892381820019 225.654769294434C152.024123346496 225.654769294434 158.85900851099 228.1401820815228 164.2440695496824 233.1110076557004L414.6494078488755 467.3611628388165L482.5840240293017 406.6756672873992C487.969085067994 401.911959445479 494.5968525002307 399.6336643906477 501.2246199324674 399.6336643906477C507.8523873647041 399.6336643906477 514.6872725291983 402.1190771777365 519.8652158356331 406.8827850196566L589.663891606376 469.4323401613905L838.6194057797672 232.903889923443C844.0044668184596 227.7259466170082 851.0464697152111 225.2405338299194 857.8813548797052 225.2405338299194C865.3375932409715 225.2405338299194 872.5867138699805 228.1401820815229 878.1788926409301 233.9394785847301C888.7418969860573 245.1238361266294 888.3276615215425 262.9359611007657 877.1433039796432 273.498965445893L631.2945557901128 506.9206496999793z" />
    <glyph glyph-name="eye"
      unicode="&#xE004;"
      horiz-adv-x="1001.0000000000001" d="M500.5000000000001 798.8444819474277C309.2482867955406 798.8444819474277 135.8112406668713 694.208908663189 7.8323105247009 524.2528894343868C-2.6107701749002 510.3287818349187 -2.6107701749002 490.8759844533088 7.8323105247009 476.9518768538406C135.8112406668713 306.791091336811 309.2482867955406 202.1555180525724 500.5000000000001 202.1555180525724S865.1887593331288 306.791091336811 993.1676894752992 476.7471105656132C1003.6107701749002 490.6712181650814 1003.6107701749002 510.1240155466913 993.1676894752992 524.0481231461594C865.1887593331288 694.208908663189 691.7517132044594 798.8444819474277 500.5000000000001 798.8444819474277zM514.2193413112407 290.4097882786131C387.2642426102077 282.4239030377418 282.4239030377417 387.0594763219802 290.4097882786131 514.2193413112407C296.9623095018922 619.0596808837067 381.9403191162933 704.0376904981078 486.7806586887593 710.590211721387C613.7357573897924 718.5760969622584 718.5760969622584 613.9405236780199 710.5902117213869 486.7806586887594C703.8329242098804 382.1450854045208 618.8549145954793 297.1670757901196 514.2193413112407 290.4097882786131zM507.871586376189 387.4690088984351C439.4796461082132 383.1689168456582 382.9641505574308 439.4796461082131 387.4690088984352 507.871586376189C390.9500357983022 564.3870819269714 436.8176843612561 610.0499642016979 493.3331799120385 613.7357573897923C561.7251201800143 618.0358494425693 618.2406157307968 561.7251201800143 613.7357573897924 493.3331799120384C610.0499642016979 436.6129180730285 564.182315638744 390.9500357983021 507.871586376189 387.4690088984351z" />
    <glyph glyph-name="facebook"
      unicode="&#xE005;"
      horiz-adv-x="1001" d="M1001 834.1555444444444C1001 921.8209 921.8542666666666 1001 834.1666666666666 1001H166.8333333333333C79.1457333333333 1001 0 921.8209 0 834.1555444444444V166.8444555555557C0 79.1791000000001 79.1457333333333 0 166.8444555555556 0H500.5V378.1555555555556H378.1555555555556V544.9888888888888H500.5V609.9871555555555C500.5 722.0880333333333 584.6729777777778 823.0444444444445 688.1875 823.0444444444445H823.0444444444444V656.2111111111111H688.1875C673.4283111111112 656.2111111111111 656.2111111111111 638.2932111111111 656.2111111111111 611.4552888888888V544.9888888888888H823.0444444444444V378.1555555555556H656.2111111111111V0H834.1666666666666C921.8542666666666 0 1001 79.1791000000001 1001 166.8444555555557V834.1555444444444z" />
    <glyph glyph-name="instagram"
      unicode="&#xE006;"
      horiz-adv-x="1001" d="M730.037960729605 1001H270.9620392703951C121.5515833310156 1001 0.0009384357404 879.4493551047248 0.0009384357404 730.0388991653454V270.9553411852977C0.0009384357404 121.5525217667561 121.5515833310156 0.0018768714808 270.9620392703951 0.0018768714808H730.0455972504427C879.4484166689844 0.0018768714808 1000.9990615642596 121.5525217667561 1000.9990615642596 270.9553411852977V730.0388991653452C1000.9990615642596 879.4493551047248 879.4484166689844 1001 730.037960729605 1001zM942.3162797487724 270.9553411852978C942.3162797487724 153.9105309802544 847.090407455486 58.6846586869681 730.037960729605 58.6846586869681H270.9620392703951C153.909592544514 58.6846586869681 58.6837202512276 153.9105309802544 58.6837202512276 270.9553411852977V730.0388991653452C58.6837202512276 847.0913458912264 153.909592544514 942.3172181845129 270.9620392703951 942.3172181845129H730.0455972504427C847.0904074554861 942.3172181845129 942.3162797487724 847.0913458912264 942.3162797487724 730.0388991653452zM942.3162797487724 270.9553411852978M500.5 774.2037262078571C349.5774171360929 774.2037262078571 226.7972122278833 651.4235212996475 226.7972122278833 500.5009384357404S349.5774171360929 226.7981506636238 500.5 226.7981506636238S774.2027877721166 349.5783555718334 774.2027877721166 500.5009384357405S651.422582863907 774.2037262078571 500.4999999999999 774.2037262078571zM500.5 285.480932479111C381.943062870429 285.480932479111 285.4799940433706 381.9363647853317 285.4799940433706 500.5009384357405C285.4799940433706 619.0578755653114 381.943062870429 715.52094439237 500.5 715.52094439237C619.0645736504089 715.52094439237 715.5200059566295 619.0578755653114 715.5200059566295 500.5009384357405C715.5200059566295 381.9363647853317 619.0645736504088 285.480932479111 500.4999999999999 285.480932479111zM500.5 285.480932479111M780.7477045160228 871.4075844779666C736.1475684147155 871.4075844779666 699.8717718068341 835.1241513492474 699.8717718068341 790.5316517687779C699.8717718068341 745.9315156674706 736.1475684147155 709.6480825387514 780.7477045160228 709.6480825387514S861.6312737460491 745.9315156674706 861.6312737460491 790.5316517687779S825.3478406173301 871.4075844779666 780.7477045160228 871.4075844779666zM780.7477045160228 768.3385028301509C768.5132161041261 768.3385028301509 758.5545555773958 778.2971633568811 758.5545555773958 790.5316517687779C758.5545555773958 802.7737786565868 768.5132161041261 812.7248026624793 780.7477045160228 812.7248026624793C792.9898314038318 812.7248026624793 802.948491930562 802.7737786565868 802.948491930562 790.5316517687779C802.948491930562 778.2971633568811 792.9898314038317 768.3385028301509 780.7477045160228 768.3385028301509zM780.7477045160228 768.3385028301509" />
    <glyph glyph-name="left-arrow"
      unicode="&#xE007;"
      horiz-adv-x="1001" d="M687.5085271317828 59.7496124031009C693.7162790697673 53.5418604651164 701.475968992248 50.437984496124 710.0116279069766 50.437984496124S726.3069767441859 53.5418604651164 732.5147286821705 59.7496124031009C744.9302325581396 72.1651162790698 744.9302325581396 92.3403100775195 732.5147286821705 104.7558139534884L336.7705426356589 500.5L732.5147286821705 896.2441860465117C744.9302325581396 908.6596899224807 744.9302325581396 928.8348837209302 732.5147286821705 941.2503875968991S699.9240310077519 953.6658914728682 687.508527131783 941.2503875968991L268.4852713178295 523.0031007751938C256.0697674418605 510.5875968992248 256.0697674418605 490.4124031007752 268.4852713178295 477.9968992248062L687.508527131783 59.7496124031007z" />
    <glyph glyph-name="like"
      unicode="&#xE008;"
      horiz-adv-x="1001" d="M163.4011038584487 674.0008144547157H32.6804149508532C14.7093017260227 674.0008144547157 -0.0007348170175 659.3650710255295 -0.0007348170175 641.3216197687887V53.0746095207218C-0.0007348170175 35.038978591755 14.6447840218865 20.3993249986817 32.6804149508532 20.3993249986817H163.4011038584487C181.4367347874153 20.3993249986817 196.0822536263194 35.0409336736985 196.0822536263194 53.0746095207218V641.3216197687887C196.0822536263193 659.3650710255295 181.3702620013357 674.0008144547157 163.4011038584487 674.0008144547157zM919.4078304340866 674.0008144547157C914.1447498421322 674.8923318209606 667.7125361073398 674.0008144547157 667.7125361073398 674.0008144547157L702.1337088049428 767.9073103658405C725.8840442548168 832.7651987601538 710.5073247690365 931.795964445243 644.6073776988273 967.0030800841408C623.1503533687016 978.4676806009388 593.1711268467749 984.2253969246034 569.0004487790443 978.1411819163708C555.1389177994917 974.6533157291321 542.956802209422 965.476161086252 535.6956278711909 953.1806507434586C527.3454728904194 939.0395430459824 528.2076640275116 922.532786196848 525.2339843914185 906.8530290098222C517.693233335264 867.0827521147502 498.9009856941554 829.2695122451411 469.7995909648689 800.8875876710697C419.0613043666529 751.4025085986495 261.4445531620607 608.6424250828615 261.4445531620607 608.6424250828615V85.7557592885924H806.1166970529667C879.6121374737488 85.7127474858349 927.7775362342932 167.7870874747803 891.5283619194997 231.8961794847255C934.7376279532224 259.5703643952428 949.5160923642858 317.8611325412744 924.2095116873704 362.616868392321C967.4207328030366 390.2910533028383 982.1972421321564 448.58182144887 956.890661455241 493.3375572999164C1031.4457562894104 541.0865236064915 1006.5204165914814 659.2673169283535 919.4078304340866 674.0008144547157z" />
    <glyph glyph-name="linkedin"
      unicode="&#xE009;"
      horiz-adv-x="1000.9999999999999" d="M1000.9999999999998 392.3178437494915V22.2417551503429H786.4532882913254V367.5323783993659C786.4532882913254 454.2721980298385 755.4214202182196 513.4687329261574 677.7626227282343 513.4687329261574C618.479978703469 513.4687329261574 583.2008360515858 473.5746064442932 567.6802474675495 434.9837532578346C562.0203177275021 421.1876745164689 560.5634443651378 401.9853388729115 560.5634443651378 382.6736213634897V22.2417551503429H345.9445871704676C345.9445871704676 22.2417551503429 348.835061157778 607.0507373575097 345.9445871704676 667.6413092251644H560.5424989014616V576.1585057089118C560.1072987117458 575.4742872288239 559.5417711924894 574.7365414526746 559.1321710139334 574.0732684362628H560.5424989014616V576.1585057089118C589.0539295122024 620.0718339428574 639.9723517089535 682.8034976529641 753.9436013921793 682.8034976529641C895.146281128158 682.805824926706 1000.9999999999998 590.5596756231445 1000.9999999999998 392.3178437494915zM121.4441256681322 978.7559175759154C48.0232936619571 978.7559175759154 0 930.5976420369342 0 867.2678689751858C0 805.3181692423225 46.633911238105 755.6983657934934 118.5955426081741 755.6983657934934H120.0291432331203C194.8719394955326 755.6983657934934 241.4174143314494 805.3088601473553 241.4174143314494 867.2678689751858C240.0070864439211 930.5976420369342 194.8719394955326 978.7559175759154 121.4441256681322 978.7559175759154zM12.7464782838158 22.2417551503429H227.2838808975232V667.6413092251644H12.7464782838158V22.2417551503429z" />
    <glyph glyph-name="mobile-phone"
      unicode="&#xE00A;"
      horiz-adv-x="1001" d="M659.5048055555555 0C659.5048055555555 0 750.364513888889 0 750.364513888889 90.9962083333334V910.0037916666666C750.3632499999999 1001 659.5048055555555 1001 659.5048055555555 1001H341.4951944444445C341.4951944444445 1001 250.6354861111111 1001 250.6354861111111 910.0037916666666V90.9962083333335C250.63675 0 341.4951944444445 0 341.4951944444445 0H659.5048055555555zM500.5 37.8888611111111C475.4231805555555 37.8888611111111 455.0707777777777 58.2425277777778 455.0707777777777 83.3180833333332C455.0707777777777 108.3961666666666 475.4231805555555 128.7473055555554 500.5 128.7473055555554C525.5780833333333 128.7473055555554 545.9292222222223 108.3949027777777 545.9292222222223 83.3180833333332C545.9292222222223 58.241263888889 525.5780833333333 37.8888611111111 500.5 37.8888611111111zM432.3549027777778 945.5304444444444C432.3549027777778 951.1635972222222 435.0356111111111 955.5707777777778 438.3962916666666 955.5707777777778H562.6011805555555C565.917625 955.5707777777778 568.6438333333333 951.0725972222222 568.6438333333333 945.5304444444444V942.8497361111112C568.6438333333333 937.2165833333333 565.917625 932.8094027777778 562.6011805555555 932.8094027777778H438.3962916666666C435.0798472222222 932.8094027777778 432.3549027777778 937.3075833333334 432.3549027777778 942.8497361111112V945.5304444444444zM296.0659722222222 887.4256805555556H704.9340277777777V160.5492777777779H296.0659722222222V887.4256805555556z" />
    <glyph glyph-name="pin"
      unicode="&#xE00B;"
      horiz-adv-x="1001" d="M500.5000000000001 1001C313.1782673084044 1001 160.7787856349501 848.6025546094039 160.7787856349501 661.2808219178082C160.7787856349501 586.0055534987041 205.0964457608294 471.5257312106628 300.2499074416883 301.0094409477971C365.180858941133 184.6603109959275 429.8124768604221 86.3852276934468 432.5390596075528 82.2454646427249L479.2534246575343 11.437800814513C483.9633469085524 4.2965568308033 491.9435394298409 -1e-13 500.5000000000001 -1e-13S517.0366530914478 4.2965568308033 521.7465753424658 11.437800814513L568.4589041095892 82.2413920770084C571.1590151795633 86.3343206219918 635.320251758608 183.7602739726027 700.7500925583117 301.0094409477971C795.9035542391707 471.5175860792299 840.22121436505 585.9974083672714 840.22121436505 661.2808219178082C840.22121436505 848.6025546094039 687.8217326915958 1001 500.5000000000001 1001zM656.2980377637914 325.8174750092558C591.7784154017031 210.2075157349129 528.6312476860423 114.3108108108107 525.9698259903741 110.2810070344316L500.5000000000001 71.6751203258052L475.038319141059 110.2708256201406C472.3626434653833 114.333209922251 408.7308404294708 211.0892262125138 344.701962236209 325.8174750092558C256.4392817475011 483.9877823028507 211.6858570899668 596.8548685671973 211.6858570899668 661.2808219178082C211.6858570899667 820.5323954091077 341.2463902258424 950.0929285449834 500.5000000000001 950.0929285449834S789.3141429100333 820.5323954091077 789.3141429100333 661.2808219178082C789.3141429100333 596.8467234357645 744.5607182524991 483.9837097371344 656.2980377637914 325.8174750092558zM500.5000000000001 851.7587930396149C396.6393928174751 851.7587930396149 312.1438356164384 767.26119955572 312.1438356164384 663.4026286560534S396.6393928174751 475.0464642724917 500.5000000000001 475.0464642724917S688.8561643835617 559.5440577563866 688.8561643835617 663.4026286560534S604.360607182525 851.7587930396149 500.5000000000001 851.7587930396149zM500.5000000000001 525.9535357275083C424.7095520177713 525.9535357275083 363.0509070714551 587.6121806738245 363.0509070714551 663.4026286560534S424.7095520177713 800.8517215845983 500.5000000000001 800.8517215845983C576.2924842650871 800.8517215845983 637.949092928545 739.193076638282 637.949092928545 663.4026286560534S576.2924842650871 525.9535357275083 500.5000000000001 525.9535357275083z" />
    <glyph glyph-name="telegram"
      unicode="&#xE00C;"
      horiz-adv-x="1000.9999999999999" d="M17.6812676388791 518.36785L248.3316876388792 432.28185L337.6075409722125 145.1716933333333C343.3199143055459 126.7833233333332 365.8057109722125 119.9865333333334 380.7306209722126 132.1887233333333L509.2990609722124 237.0000966666667C522.7758576388791 247.9810666666666 541.9717009722124 248.52828 556.0557709722124 238.3047333333333L787.9474309722125 69.9465433333332C803.9133809722125 58.3416166666666 826.5326443055458 67.0903566666666 830.5366443055458 86.3829633333332L1000.4096809722122 903.5026C1004.7807143055456 924.5769866666666 984.0733609722122 942.1578833333334 964.006647638879 934.3967966666665L17.4109976388791 569.22866C-5.9490056944542 560.21966 -5.7454690277875 527.14662 17.6812676388791 518.36785zM323.2198343055458 478.10763L773.996827638879 755.7416533333333C782.0982543055458 760.7166233333332 790.433247638879 749.7623466666666 783.4762976388791 743.3092333333333L411.4546476388791 397.4971000000001C398.3782509722125 385.3249400000001 389.9431576388792 369.0353333333334 387.5541043055458 351.3543366666667L374.8814443055458 257.4405166666667C373.2031009722125 244.9013233333333 355.5888376388792 243.6567466666667 352.1287143055459 255.7922033333333L303.3900243055458 427.04662C297.8077809722125 446.5794666666667 305.9425743055458 467.4436433333333 323.2198343055458 478.10763z" />
    <glyph glyph-name="vk"
      unicode="&#xE00D;"
      horiz-adv-x="1001" d="M995.6923166837144 270.2760970023233C994.480218018244 272.8883156623957 993.3502645936564 275.0551245719037 992.3006309601544 276.7911273292265C974.9333015877372 308.0702096075921 941.744798821296 346.4630697464065 892.7552026086031 391.9806604444541L891.72017257348 393.0229922787668L891.2017448310198 393.5341182220374L890.6778407391674 394.0580223138898H890.1521111975176C867.9181326652449 415.2533199114446 853.8384383779362 429.5046064797084 847.94223553235 436.8009293198968C837.1538272297447 450.6999040772633 834.7369316979937 464.7686456657876 840.6331345435798 479.0235831336462C844.7988109812355 489.7937369382774 860.4465666445066 512.5388414138208 887.5398925374452 547.289929206832C901.791179105709 565.7068922127514 913.0779352030032 580.4674792744886 921.4129389779092 591.5881194402197C981.5268262559284 671.5063115701785 1007.5887730133386 722.5750951021048 999.593302900748 744.8145499837697L996.4882127953788 750.0116055569536C994.401723676956 753.1404265096888 989.0166467746405 756.0027317920044 980.3402838876214 758.6131250022795C971.643841052831 761.2180418631623 960.5286772364922 761.6488480153475 946.9747124908332 759.9128452580247L796.8789283498159 758.8759897731043C794.4474292196855 759.7376020774748 790.97542370504 759.6572822863894 786.4519591070948 758.6131250022794C781.9339708585419 757.5689677181693 779.6740640093667 757.045063626317 779.6740640093667 757.045063626317L777.0618453492942 755.7398670211794L774.9881343794533 754.171805645217C773.2503061723332 753.1349501602965 771.3390602344605 751.3113258126988 769.2525711160379 748.7045835020185C767.1770346963996 746.1069684403253 765.4410319390768 743.0584672786754 764.0536900930565 739.5846363142325C747.7122635067752 697.5427020304252 729.1328354688876 658.4543455188032 708.280722433243 622.321392229164C695.4240795101891 600.7756082705092 683.6170702206373 582.1030822929544 672.8341382674244 566.2928615977152C662.0658099125905 550.4881172518681 653.0316588652819 538.8435729942845 645.7408123744858 531.3793087727358C638.4390131849053 523.9077427519976 631.8491394163088 517.922092866339 625.9310311731539 513.4004537181912C620.0220501789858 508.8769891202461 615.5113637296224 506.9657431823734 612.3880191262795 507.6648904547757C609.2573727237468 508.364037727178 606.3092713009537 509.0577086501882 603.5181585607365 509.7513795731983C598.6569857502733 512.8802005259336 594.7468722842528 517.1353240036617 591.7987708614597 522.5204009059773C588.8378912900848 527.905477808293 586.8445001113294 534.6833729060211 585.8021682770167 542.8486098497694C584.7653127920962 551.01932314291 584.1519616601714 558.0473048628813 583.9767184796216 563.9562858570494C583.8142534476534 569.8579650520278 583.8890968893465 578.2057469755158 584.2414087002438 588.975900780147C584.602847760128 599.7515309341704 584.7653127920961 607.0423774249666 584.7653127920961 610.864869300712C584.7653127920961 624.0701731350684 585.0227012135289 638.4017794944176 585.5393035061917 653.8633392783544C586.0650330478414 669.3248990622911 586.4903628506345 681.5754926526099 586.8463255611266 690.6005164509314C587.2004628218212 699.6346674982399 587.3647533035868 709.1927226374008 587.3647533035868 719.2692055190221S586.751402171662 737.2480605735666 585.5393035061917 742.9836238369821C584.3418084391004 748.7118853012081 582.5035804931235 754.2722053840737 580.0812086119802 759.6627586357815C577.6442331324578 765.0478355380972 574.0773042283477 769.2135119757529 569.3968509478265 772.170740647533C564.7072704183183 775.1243184197183 558.8767837654384 777.4681959595737 551.9382490855394 779.2096750662886C533.5212860796199 783.3771769537417 510.0697325324846 785.6316074535247 481.5726357453491 785.9820938146245C416.9498874677641 786.6757647376346 375.426380926417 782.5027865007894 357.0112433702949 773.4686354534808C349.7149205301066 769.6516199271277 343.1122686129284 764.4363098559697 337.2087639681525 757.8391342881837C330.9529475124794 750.1923250868956 330.0803825093245 746.0193468500503 334.59654530808 745.3329777262297C355.4468328939273 742.2096331228865 370.2074199556643 734.7380671021483 378.8947355414677 722.9255814632045L382.0253819440004 716.6661141079364C384.4605319737255 712.149951309181 386.8920311038558 704.1544811965903 389.3253556837835 692.6906564689489C391.7550293641164 681.2268317413074 393.3230907400789 668.5454319988035 394.0131107634943 654.6537590406265C395.7472880710196 629.2854832062263 395.7472880710196 607.5699324164138 394.0131107634943 589.5052812213917C392.2734571065767 571.4333282271798 390.630552288921 557.3645866386555 389.0624909129587 547.2881037570344C387.4944295369962 537.2116208754132 385.1505519971409 529.0463839316648 382.0253819440004 522.7942183755865C378.8947355414678 516.5402273697108 376.81189732264 512.7177354939654 375.7677400385299 511.3303936479451C374.7254082042173 509.9430518019249 373.8564941006572 509.0686613489726 373.1664740772419 508.7254767870622C368.6503112784863 506.9949503791317 363.9534289497886 506.1132581269898 359.0922561393254 506.1132581269898C354.2237815296725 506.1132581269898 348.3202768848967 508.5484081567149 341.3726149560108 513.4150573165704C334.4267784769223 518.2817064764258 327.218077227009 524.9665036344867 319.7465112062707 533.4804014895377C312.2749451855324 541.996124794386 303.8486689207565 553.8962320236049 294.4640315123481 569.1825486269917C285.0866959031293 584.4688652303785 275.3570484830132 602.5353418751981 265.2805656013921 623.3819785614505L256.9437363766886 638.5003537834771C251.7320772051255 648.2263503039983 244.6128229952844 662.3881898321897 235.5786719479759 680.9730942194697C226.5390445512752 699.5653004059391 218.5490507880767 717.5496318098759 211.6032143089882 734.9224375316853C208.8267051671502 742.2187603718737 204.6555523801023 747.7736041053471 199.0970577470342 751.5960959810925L196.4884899865565 753.1641573570549C194.7543126790311 754.5514992030752 191.9705017380036 756.0246371895731 188.151660761853 757.5945240153328C184.3273434363102 759.1625853912954 180.3369101792044 760.2870624664906 176.1639319423591 760.9789079397035L33.3608197419353 759.942052454783C18.7681740615586 759.942052454783 8.8669343604874 756.6361628717004 3.6534497391269 750.0335109545223L1.5669606207043 746.9101663511792C0.5246287863918 745.1705126942618 -0.001100755258 742.3921781026263 -0.001100755258 738.5678607770835C-0.001100755258 734.7453689013382 1.0412310790546 730.0539629220327 3.1277201974773 724.4991191885592C23.9743568837297 675.504046626474 46.6446179175798 628.2522786209009 71.1385032990277 582.7365133726507C95.6323886804756 537.2207481244004 116.9171333181028 500.5565889437192 134.9799590633277 472.77689392696C153.0464357081473 444.9771189624296 171.4615732642694 418.7399290244694 190.225371731694 394.078102261661C208.9891701991185 369.4071482498659 221.409530620595 353.5969275546267 227.4864529961234 346.6510910755382C233.5706771708414 339.6924764478679 238.3497047404218 334.4899445252918 241.8235357048648 331.0161135608488L254.8554218084687 318.5099569988947C263.1940764829697 310.1694768745964 275.4391937238962 300.1806155832502 291.5962498806405 288.5433731248562C307.7569569369797 276.8988288672727 325.6481904012493 265.4350041396313 345.2790775224366 254.133644443958C364.9136155432186 242.8505392462587 387.7554688580239 233.6429704681975 413.8174156154342 226.5218908085592C439.8757114732498 219.3935093497313 465.2385109582577 216.5330295172131 489.909464970053 217.9130695640438H549.8462836177247C562.001953818579 218.9627031975459 571.2113480464374 222.7851950732913 577.4708154017052 229.3823706410774L579.5445263715461 231.9945893011499C580.9391700167561 234.0683002709908 582.2443666218935 237.2902191633931 583.4491634881743 241.6256624322066C584.6685639528343 245.9684075002097 585.2746132855694 250.7529114191823 585.2746132855694 255.9572687915558C584.9186505750774 270.8949244836401 586.0559057988546 284.3576167394292 588.6553463103452 296.3435201091258C591.2529613720385 308.3257725792274 594.2138409434134 317.3599236265359 597.5252068758881 323.4441478012539C600.8347473585656 329.5228956265796 604.5696176440359 334.65240955726 608.7261668327047 338.8107841957261C612.8918432703604 342.9782860831793 615.860024640925 345.5028831529767 617.6015037476399 346.3717972565368C619.3320301555705 347.246187709489 620.7138956521985 347.8394588936424 621.7562274865112 348.1954216041345C630.0948821610122 350.9737561957699 639.9085002718085 348.2830431944095 651.2116854172791 340.1105044514715C662.5057433137629 331.9452675077231 673.0988284880468 321.8633082767098 683.0073699883076 309.8810558066081C692.9104351391762 297.8878506377221 704.8087169185976 284.4324601811226 718.7040407763694 269.4948044890382C732.6084918831282 254.5516724475616 744.7659875337797 243.4438104304122 755.1856549773112 236.1365348914395L765.6053224208426 229.8825438855638C772.5639370485129 225.7095656487185 781.5980880958214 221.8870737729732 792.7187282615525 218.4132428085302C803.8192884795124 214.9412372938847 813.5452850000336 214.0723231903246 821.8967178231163 215.8083259476473L955.3133671653342 217.8893387166777C968.5095437507038 217.8893387166777 978.7776988610514 220.0744021241596 986.061243552658 224.4098453929731C993.3593918426438 228.7525904609762 997.6948351114575 233.5370943799487 999.093129656262 238.7414517523223C1000.4877733014717 243.951285474088 1000.5626167431648 249.8620919180534 999.3578198768842 256.4702201846239C998.1219903640474 263.0619194030177 996.9044153491848 267.6711801414404 995.6923166837144 270.2760970023233z" />
    <glyph glyph-name="youtube"
      unicode="&#xE00E;"
      horiz-adv-x="1001" d="M899.9055092870391 483.7474390522784C895.0709892167536 505.7248425122209 884.3532632171483 524.1551051840502 867.7875483506538 539.0460530816397C851.2081379598809 553.9370009792291 832.1263596330921 562.6903974966139 810.5206918321355 565.2984166199205C742.0039403706215 572.7448688204494 638.667296682935 576.4661384172455 500.4990217482658 576.4661384172455C362.3346598205333 576.4661384172455 259.1819274588714 572.742912316981 191.0310421459383 565.2984166199205C169.0653777068059 562.6903974966139 149.8877307100681 553.9370009792292 133.4961446522564 539.0460530816397C117.1084716013815 524.1492356736451 106.3085724561057 505.7170164983475 101.0925342094924 483.7474390522784C91.4117550481112 440.5419729607704 86.5694089639522 375.3747554370665 86.5694089639522 288.2320909568887C86.5694089639522 199.6044403442353 91.4117550481112 134.4313533101264 101.0925342094924 92.7186993649672C105.9407498040565 70.7569479327714 116.6486932863199 52.3110332331953 133.2202776632195 37.4259548460109C149.7918620401191 22.5291374380165 168.8775533738446 13.9655217570614 190.4734386574594 11.7292382927407C259.0019291397835 3.9090939297574 362.3463988413434 -0.0019565034683 500.5029347552025 -0.0019565034683C638.6496881517198 -0.0019565034683 742.0137228879632 3.9090939297575 810.5167788251989 11.7292382927407C832.1224466261555 13.9655217570613 851.1103127864636 22.5291374380164 867.5018988442753 37.4259548460109C883.8915283986186 52.3090767297271 894.6914275438943 70.7569479327714 899.9015962801025 92.7186993649672C909.5823754414836 135.9241654564752 914.4305910360478 201.0913829801791 914.4305910360478 288.2320909568887C914.4286345325792 376.8616980730102 909.5804189380154 442.0367416105875 899.9055092870391 483.7474390522784zM322.8758978709098 427.3179660182125H263.1066734163755V109.483977585233H207.2504558985354V427.3179660182125H148.5944819174906V479.8246495982424H322.8778543743781V427.3179660182125zM473.6929677284427 109.483977585233H423.978214597744V139.655217570613C403.8692719500729 116.9304297857619 384.8696667689547 105.5748836554756 366.9950510821359 105.5748836554756C349.8678197202258 105.5748836554756 339.0659640714817 112.4696018779306 334.603179660182 126.243386295094C331.6273378848262 135.1806941385033 330.1306127315406 148.7803497469837 330.1306127315406 167.02474458932V385.4311832643704H379.8453658622394V182.1035168198707C379.8453658622394 170.1923237045737 380.0331901952007 163.6712976445731 380.4088388611233 162.5521776606786C381.5260023415495 154.7320332976954 385.4331397678386 150.8229393679379 392.1400336573323 150.8229393679379C402.1925484776995 150.8229393679379 412.8124493038873 158.6430837309212 423.9801711012123 174.2833724568875V385.4311832643704H473.694924231911V109.483977585233zM663.6166289112966 192.1599446471746C663.6166289112966 164.9762854579606 661.9438184458598 146.3445029288917 658.6079800323281 136.2861185981194C652.2610827810103 115.8171793122725 639.050771362731 105.5748836554756 618.9437852185282 105.5748836554756C601.0672130282411 105.5748836554756 583.754113836838 115.8171793122725 566.9868791131038 136.2861185981194V109.478108074828H517.2799519962784V479.8246495982426H566.9868791131038V358.6094772168007C583.0086860153979 378.70863734713 600.3178721998643 388.7650651744339 618.9437852185282 388.7650651744339C639.0507713627309 388.7650651744339 652.2610827810103 378.3349451846757 658.6079800323281 357.4844877225011C661.9418619423915 347.80370856112 663.6166289112966 329.3714893858222 663.6166289112966 302.1858736931398V192.1599446471746zM852.4231266137243 237.9577778342426H752.4379733673163V189.36018818397C752.4379733673163 163.6634716306998 760.9957195378664 150.822939367938 778.1288204101816 150.822939367938C790.4137056879326 150.822939367938 797.8679839023349 157.5180942366217 800.472090018705 170.9357950225457C801.2077353228034 174.6570646193418 801.5892534991311 186.0126107496282 801.5892534991311 205.0024334134047H852.4211701102561V197.7438055458371C852.4211701102561 179.4915846896274 852.0396519339284 168.6975550547567 851.3020501263616 165.3382385996048C850.1927126598088 155.2955062965795 846.293401247393 145.2390784692755 839.5728118336209 135.1826506419716C826.166850068507 115.4434871498181 806.0402988896207 105.5748836554756 779.2322883663293 105.5748836554756C753.5492673373375 105.5748836554756 733.4364116827297 115.0737079943007 718.9074169267844 134.0576611476721C708.1133872919137 147.8373150752405 702.7173507262125 169.4371133657919 702.7173507262125 198.8570560193266V295.5005013417979C702.7173507262125 324.9184874918642 707.9255629589524 346.5182857824158 718.3439439279006 360.2979397099841C732.8748951873142 379.2858058702923 752.7979700054923 388.7807172021806 778.1288204101817 388.7807172021806C803.0840221489483 388.7807172021806 822.8349246619119 379.2858058702923 837.3384848727686 360.2979397099841C847.4066517208826 346.5182857824158 852.4231266137243 324.9184874918643 852.4231266137243 295.5005013417979V237.9577778342426L852.4231266137243 237.9577778342426zM592.1083836466801 343.5307049862497C583.5388984553199 343.5307049862497 575.1689766177312 339.4200911992526 566.9731835888255 331.2379936946252V163.1078246456892C575.1670201142629 154.9179011271884 583.5388984553199 150.822939367938 592.1083836466801 150.822939367938C606.6236828783468 150.822939367938 613.9038322840662 163.2897794682455 613.9038322840662 188.2508507174173V306.1027936367706C613.901875780598 331.0579953755373 606.6393349060936 343.5307049862497 592.1083836466801 343.5307049862497zM777.5731734251709 343.5307049862497C760.8157212187784 343.5307049862497 752.4379733673163 330.8623450287025 752.4379733673163 305.5549726656333V279.8582561123631H802.7064169795573V305.5549726656333C802.7064169795573 330.876040552981 794.3247561211585 343.5307049862497 777.5731734251709 343.5307049862497zM290.4918524628293 778.1209943963082V626.7365385329547H346.3480699806695V778.1209943963082L413.9276562808451 1001H356.9523187791105L318.9765864584941 854.0881110652878L279.3123916446942 1001H220.1046836855755C230.5328471718653 969.7155095411306 242.6357776270603 934.8995303218946 256.4154315546286 896.5403233214822C273.9202680859297 845.1527597253468 285.2719012092794 805.6724762375716 290.4918524628293 778.1209943963082zM488.7776094693985 622.825488099729C514.4743260226688 622.825488099729 534.2056635009488 632.3223559350856 547.9853174285172 651.3141351023305C558.4173939217436 665.0937890298987 563.6256061544835 687.0672794829045 563.6256061544835 717.2267804474744V814.9854327469035C563.6256061544835 844.7731980524875 558.4036983974653 866.564733682937 547.9853174285172 880.3443876105054C534.2056635009488 899.3361667777502 514.4743260226688 908.8330346131067 488.7776094693985 908.8330346131067C463.8204512271634 908.8330346131067 444.267155564503 899.3361667777502 430.1216354883537 880.3443876105054C419.699341512469 866.564733682937 414.4852597693241 844.7731980524875 414.4852597693241 814.9854327469035V717.2287369509427C414.4852597693241 687.4409716453588 419.693472002064 665.4655246888847 430.1216354883537 651.3160916057988C444.273025074908 632.3223559350855 463.8184947236951 622.825488099729 488.7776094693985 622.825488099729zM464.753703381565 825.0418605742074C464.753703381565 850.7385771274776 472.7616720775094 863.5869354041128 488.7776094693985 863.5869354041128S512.7936895433586 850.7385771274776 512.7936895433586 825.0418605742074V707.7396951294595C512.7936895433586 681.66341690333 504.7935468612874 668.6389733145436 488.7776094693984 668.6389733145436S464.7537033815649 681.6712429172034 464.7537033815649 707.7396951294595V825.0418605742074zM642.3787837623893 622.825488099729C661.0105662914583 622.825488099729 680.1940827986011 634.370815066445 699.9254202768813 657.4653820068136V626.7424080433598H750.7573368880062V905.47958766836H699.9254202768813V692.6570098919722C688.7498724656829 676.641072500083 678.1436671637736 668.640929818012 668.0755003156595 668.640929818012C661.3666499226975 668.640929818012 657.4555994894718 672.7358915772624 656.3443055194506 680.9277715992315C655.9706133569964 681.6731994206717 655.7827890240351 688.1961819841408 655.7827890240351 700.481067261892V905.47958766836H604.9508724129101V685.3885995070627C604.9508724129101 666.4007333467546 606.4515105731324 652.4410811000982 609.4234393415516 643.4979037462839C614.2696984326471 629.7182498187155 625.2515524004792 622.825488099729 642.3787837623893 622.825488099729z" />
  </font>
</defs>
</svg>
