<svg xmlns="http://www.w3.org/2000/svg" xmlns:xlink="http://www.w3.org/1999/xlink" version="1.1" id="Capa_1" x="0px" y="0px" viewBox="0 0 240.823 240.823" style="enable-background:new 0 0 240.823 240.823;" xml:space="preserve" width="512" height="512"><g transform="matrix(6.12323e-17 -1 1 6.12323e-17 -1.42109e-14 240.823)"><g>
	<path id="Chevron_Right" d="M57.633,129.007L165.93,237.268c4.752,4.74,12.451,4.74,17.215,0c4.752-4.74,4.752-12.439,0-17.179   l-99.707-99.671l99.695-99.671c4.752-4.74,4.752-12.439,0-17.191c-4.752-4.74-12.463-4.74-17.215,0L57.621,111.816   C52.942,116.507,52.942,124.327,57.633,129.007z" style="fill:#000000" data-original="#000000" class="active-path" data-old_color=" rgb(0, 0, 0)"></path>
	<g>
	</g>
	<g>
	</g>
	<g>
	</g>
	<g>
	</g>
	<g>
	</g>
	<g>
	</g>
</g></g> </svg>