<?xml version="1.0" encoding="iso-8859-1"?>
<!-- Generator: Adobe Illustrator 22.0.0, SVG Export Plug-In . SVG Version: 6.00 Build 0)  -->
<svg version="1.1" id="Layer_1" xmlns="http://www.w3.org/2000/svg" xmlns:xlink="http://www.w3.org/1999/xlink" x="0px" y="0px"
	 viewBox="184.558 374.437 45 44.977" style="enable-background:new 184.558 374.437 45 44.977;" xml:space="preserve">
<g>
	<path d="M192.059,394.523v-2.683c0-2.064-1.683-3.746-3.746-3.746s-3.755,1.683-3.755,3.746v2.683
		c0,2.064,1.683,3.746,3.746,3.746C190.368,398.269,192.059,396.596,192.059,394.523z M189.562,394.523
		c0,0.691-0.558,1.249-1.249,1.249c-0.691,0-1.249-0.558-1.249-1.249v-2.683c0-0.691,0.558-1.249,1.249-1.249
		c0.691,0,1.249,0.558,1.249,1.249V394.523z"/>
	<path d="M193.308,384.613c2.064,0,3.746-1.683,3.746-3.746v-2.683c0-2.064-1.683-3.746-3.746-3.746
		s-3.746,1.683-3.746,3.746v2.683C189.562,382.939,191.236,384.613,193.308,384.613z M192.059,378.183
		c0-0.691,0.558-1.249,1.249-1.249s1.249,0.558,1.249,1.249v2.683c0,0.691-0.558,1.249-1.249,1.249s-1.249-0.558-1.249-1.249
		V378.183z"/>
	<path d="M185.807,384.613c0.691,0,1.249-0.558,1.249-1.249v-7.678c0-0.691-0.558-1.249-1.249-1.249
		c-0.691,0-1.249,0.558-1.249,1.249v7.678C184.558,384.055,185.116,384.613,185.807,384.613z"/>
	<path d="M208.302,384.613c2.064,0,3.746-1.683,3.746-3.746v-2.683c0-2.064-1.683-3.746-3.746-3.746
		s-3.746,1.683-3.746,3.746v2.683C204.555,382.939,206.238,384.613,208.302,384.613z M207.053,378.183
		c0-0.691,0.558-1.249,1.249-1.249c0.691,0,1.249,0.558,1.249,1.249v2.683c0,0.691-0.558,1.249-1.249,1.249
		c-0.691,0-1.249-0.558-1.249-1.249V378.183z"/>
	<path d="M200.809,384.613c0.691,0,1.249-0.558,1.249-1.249v-7.678c0-0.691-0.558-1.249-1.249-1.249
		c-0.691,0-1.249,0.558-1.249,1.249v7.678C199.552,384.055,200.118,384.613,200.809,384.613z"/>
	<path d="M223.295,384.613c2.064,0,3.746-1.683,3.746-3.746v-2.683c0-2.064-1.683-3.746-3.746-3.746
		c-2.063,0-3.746,1.683-3.746,3.746v2.683C219.549,382.939,221.232,384.613,223.295,384.613z M222.046,378.183
		c0-0.691,0.558-1.249,1.249-1.249c0.691,0,1.249,0.558,1.249,1.249v2.683c0,0.691-0.558,1.249-1.249,1.249
		c-0.691,0-1.249-0.558-1.249-1.249V378.183z"/>
	<path d="M215.803,384.613c0.691,0,1.249-0.558,1.249-1.249v-7.678c0-0.691-0.558-1.249-1.249-1.249
		c-0.691,0-1.249,0.558-1.249,1.249v7.678C214.554,384.055,215.112,384.613,215.803,384.613z"/>
	<path d="M193.308,401.396c-2.064,0-3.746,1.683-3.746,3.746v2.683c0,2.063,1.683,3.746,3.746,3.746
		s3.746-1.683,3.746-3.746v-2.683C197.054,403.078,195.371,401.396,193.308,401.396z M194.557,407.825
		c0,0.691-0.558,1.249-1.249,1.249c-0.691,0-1.249-0.558-1.249-1.249v-2.683c0-0.691,0.558-1.249,1.249-1.249
		c0.691,0,1.249,0.558,1.249,1.249V407.825z"/>
	<path d="M185.807,401.396c-0.691,0-1.249,0.558-1.249,1.249v7.678c0,0.691,0.558,1.249,1.249,1.249
		c0.691,0,1.249-0.558,1.249-1.249v-7.678C187.055,401.954,186.497,401.396,185.807,401.396z"/>
	<path d="M222.888,398.261C222.888,398.261,222.888,398.269,222.888,398.261
		C222.923,398.269,222.95,398.269,222.888,398.261z"/>
	<path d="M222.968,401.413c0.115-1.036,0.08-2.09-0.08-3.153c-0.035,0-0.071-0.009,0-0.009
		c2.064,0,4.162-1.187,4.162-3.737v-2.683c0-2.064-1.683-3.746-3.746-3.746c-1.904,0-3.489,1.435-3.72,3.277
		c-2.338-2.515-5.668-4.092-9.361-4.092c-3.241,0-6.191,1.213-8.449,3.206c-0.549-1.399-1.904-2.391-3.489-2.391
		c-2.064,0-3.746,1.683-3.746,3.746v2.683c0,1.824,1.302,3.339,3.029,3.675c-0.089,0.62-0.159,1.249-0.159,1.895
		c0,7.067,5.748,12.815,12.815,12.815c2.17,0,4.216-0.549,6.013-1.506l6.917,6.917c1.373,1.444,3.897,1.497,5.305,0
		c1.514-1.506,1.417-3.888,0-5.305l-2.542-2.515c0.7-0.682,1.134-1.63,1.134-2.666v-2.683
		C226.944,403.255,225.66,401.316,222.968,401.413z M222.046,391.84c0-0.691,0.558-1.249,1.249-1.249
		c0.691,0,1.249,0.558,1.249,1.249v2.683c0,0.691-0.558,1.249-1.249,1.249c-0.691,0-1.249-0.558-1.249-1.249V391.84z
		 M223.295,403.893c0.691,0,1.249,0.558,1.249,1.249v2.683c0,0.354-0.151,0.673-0.39,0.903l-2.108-2.108v-1.479
		C222.153,404.389,222.551,403.955,223.295,403.893z M198.179,395.763h-0.009c-0.638-0.062-1.134-0.593-1.134-1.24v-2.683
		c0-0.691,0.558-1.249,1.249-1.249c0.691,0,1.249,0.558,1.249,1.249v1.196l0,0C198.976,393.886,198.524,394.798,198.179,395.763z
		 M210.223,410.411c-5.695,0-10.318-4.614-10.318-10.318c0-5.695,4.614-10.318,10.318-10.318c5.703,0,10.318,4.614,10.318,10.318
		C220.532,405.797,215.918,410.411,210.223,410.411z M226.678,416.558c-0.469,0.469-1.293,0.469-1.762,0l-6.562-6.562
		c0.646-0.531,1.24-1.125,1.762-1.762l6.562,6.562C227.13,415.273,227.192,416.053,226.678,416.558z"/>
	<path d="M210.223,393.15c-0.691,0-1.249,0.558-1.249,1.249v6.492c0,0.691,0.558,1.249,1.249,1.249
		c0.691,0,1.249-0.558,1.249-1.249v-6.492C211.472,393.717,210.914,393.15,210.223,393.15z"/>
	<path d="M210.223,403.822c-0.691,0-1.249,0.558-1.249,1.249v0.726c0,0.691,0.558,1.249,1.249,1.249
		c0.691,0,1.249-0.558,1.249-1.249v-0.726C211.472,404.38,210.914,403.822,210.223,403.822z"/>
</g>
</svg>
