<!-- Generated by IcoMoon.io -->
<svg version="1.1" xmlns="http://www.w3.org/2000/svg" width="1024" height="1024" viewBox="0 0 1024 1024">
<title></title>
<g id="icomoon-ignore">
</g>
<path d="M1024 170.678c0-89.68-80.964-170.678-170.667-170.678h-682.667c-89.702 0-170.667 80.998-170.667 170.678v682.644c0 89.68 80.964 170.678 170.678 170.678h341.322v-386.844h-125.156v-170.667h125.156v-66.492c0-114.677 86.107-217.953 192-217.953h137.956v170.667h-137.956c-15.098 0-32.711 18.33-32.711 45.784v67.994h170.667v170.667h-170.667v386.844h182.044c89.702 0 170.667-80.998 170.667-170.678v-682.644z"></path>
</svg>
