<?xml version="1.0" encoding="iso-8859-1"?>
<!-- Generator: Adobe Illustrator 22.0.0, SVG Export Plug-In . SVG Version: 6.00 Build 0)  -->
<svg version="1.1" id="&#x421;&#x43B;&#x43E;&#x439;_1"
	 xmlns="http://www.w3.org/2000/svg" xmlns:xlink="http://www.w3.org/1999/xlink" x="0px" y="0px" viewBox="0 0 39.375 45"
	 style="enable-background:new 0 0 39.375 45;" xml:space="preserve">
<g>
	<path d="M0,30.938c0,1.553,1.259,2.812,2.813,2.812h14.062v2.813h-2.813c-0.777,0-1.406,0.63-1.406,1.406
		H7.031c-1.553,0-2.813,1.259-2.813,2.812s1.26,2.813,2.813,2.813h5.625c0,0.776,0.63,1.406,1.406,1.406h11.25
		c0.777,0,1.406-0.63,1.406-1.406h5.625c1.554,0,2.813-1.26,2.813-2.813s-1.259-2.812-2.813-2.812h-5.625
		c0-0.777-0.63-1.406-1.406-1.406H22.5V33.75h14.062c1.553,0,2.812-1.259,2.812-2.812V14.062H0V30.938z M0,30.938"/>
	<path d="M36.562,5.625H21.094c-1.492,0-2.923-0.593-3.978-1.648l-2.33-2.33C13.732,0.593,12.3,0,10.809,0
		H2.813C1.259,0,0,1.259,0,2.813v8.437h39.375V8.438C39.375,6.884,38.116,5.625,36.562,5.625L36.562,5.625z M36.562,5.625"/>
</g>
</svg>
