<?xml version="1.0" encoding="iso-8859-1"?>
<!-- Generator: Adobe Illustrator 22.0.0, SVG Export Plug-In . SVG Version: 6.00 Build 0)  -->
<svg version="1.1" id="&#x421;&#x43B;&#x43E;&#x439;_1"
	 xmlns="http://www.w3.org/2000/svg" xmlns:xlink="http://www.w3.org/1999/xlink" x="0px" y="0px" viewBox="0 0 45 44.999"
	 style="enable-background:new 0 0 45 44.999;" xml:space="preserve">
<g>
	<path d="M44.058,0H0.942C0.422,0,0,0.422,0,0.942v8.084c0,0.52,0.422,0.942,0.942,0.942h2.695
		c0.966,0,1.753,0.786,1.753,1.753c0,0.966-0.786,1.753-1.753,1.753H0.942C0.422,13.474,0,13.895,0,14.416v16.169
		c0,0.52,0.422,0.942,0.942,0.942h2.695c0.966,0,1.753,0.786,1.753,1.753c0,0.966-0.786,1.753-1.753,1.753H0.942
		C0.422,35.031,0,35.453,0,35.974v8.084c0,0.52,0.422,0.942,0.942,0.942H22.5c0.52,0,0.942-0.421,0.942-0.942v-8.084
		c0-0.521-0.421-0.942-0.942-0.942h-2.695c-0.966,0-1.753-0.786-1.753-1.753c0-0.966,0.786-1.753,1.753-1.753H22.5
		c0.52,0,0.942-0.421,0.942-0.942v-7.142h6.201v1.753c0,2.005,1.631,3.637,3.637,3.637c2.005,0,3.636-1.632,3.636-3.637v-1.753
		h7.142c0.52,0,0.942-0.422,0.942-0.942V0.942C44.999,0.422,44.578,0,44.058,0L44.058,0z M21.558,29.642h-1.753
		c-2.005,0-3.637,1.631-3.637,3.636s1.632,3.637,3.637,3.637h1.753v6.2H1.884v-6.2h1.753c2.005,0,3.637-1.632,3.637-3.637
		s-1.632-3.636-3.637-3.636H1.884v-6.2h7.142c0.52,0,0.942-0.422,0.942-0.942v-2.695c0-0.966,0.786-1.753,1.753-1.753
		c0.966,0,1.753,0.786,1.753,1.753V22.5c0,0.52,0.422,0.942,0.942,0.942h7.143L21.558,29.642L21.558,29.642z M22.5,13.474
		c-0.52,0-0.942,0.422-0.942,0.942v7.142h-6.2v-1.753c0-2.005-1.631-3.636-3.636-3.636c-2.006,0-3.637,1.631-3.637,3.636v1.753
		H1.884v-6.2h1.753c2.005,0,3.637-1.631,3.637-3.636c0-2.005-1.632-3.637-3.637-3.637H1.884v-6.2h19.674v7.142
		c0,0.52,0.422,0.942,0.942,0.942h2.695c0.966,0,1.753,0.786,1.753,1.753c0,0.966-0.786,1.753-1.753,1.753H22.5z M43.116,21.558
		h-7.142c-0.52,0-0.942,0.422-0.942,0.942v2.695c0,0.966-0.786,1.753-1.753,1.753c-0.966,0-1.753-0.786-1.753-1.753V22.5
		c0-0.52-0.421-0.942-0.942-0.942h-7.142v-6.2h1.753c2.005,0,3.637-1.631,3.637-3.636c0-2.005-1.632-3.637-3.637-3.637h-1.753v-6.2
		h19.674V21.558z M43.116,21.558"/>
</g>
</svg>
