<!-- Generated by IcoMoon.io -->
<svg version="1.1" xmlns="http://www.w3.org/2000/svg" width="1024" height="1024" viewBox="0 0 1024 1024">
<title></title>
<g id="icomoon-ignore">
</g>
<path d="M979.48 677.71c-22.295-26.763-47.632-50.749-72.134-73.946-8.712-8.25-17.721-16.779-26.405-25.26-24.931-24.375-25.838-33.533-6.099-61.22 13.656-19.085 28.135-38.195 42.138-56.676 12.701-16.768 25.835-34.108 38.423-51.504l2.585-3.577c24.060-33.29 48.942-67.714 62.184-109.24 3.439-10.956 7.049-27.078-1.206-40.56-8.25-13.47-24.254-17.58-35.576-19.499-5.601-0.95-11.162-1.080-16.323-1.080l-158.865-0.124c-23.823 0-39.878 11.226-49.077 34.325-8.783 22.070-18.431 45.571-29.44 67.917-21.909 44.497-49.734 95.748-89.998 138.492l-1.702 1.818c-4.755 5.11-10.141 10.897-14.079 10.897-0.603 0-1.26-0.116-2.004-0.35-8.34-3.25-13.938-23.439-13.684-32.831 0.003-0.13 0.006-0.259 0.006-0.389l-0.11-182.11c0-0.631-0.045-1.257-0.127-1.883-4.008-29.604-12.887-48.032-46.434-54.602-0.891-0.178-1.801-0.265-2.709-0.265h-163.834c-26.692 0-41.4 10.849-55.225 27.087-3.732 4.341-11.5 13.377-7.65 24.339 3.907 11.125 16.587 13.504 20.717 14.276 20.497 3.901 32.050 16.438 35.323 38.344 5.713 38.040 6.415 78.642 2.21 127.778-1.173 13.656-3.492 24.203-7.314 33.214-0.888 2.103-4.036 8.966-7.247 8.969-1.020 0-3.971-0.4-9.346-4.104-12.709-8.707-22.008-21.131-32.848-36.478-36.879-52.119-67.83-109.534-94.634-175.565-9.941-24.308-28.507-37.916-52.302-38.316-26.145-0.397-49.85-0.589-72.458-0.589-24.702 0-47.603 0.228-69.966 0.693-19.144 0.338-32.386 6.077-39.353 17.069-6.979 11.001-6.525 25.452 1.35 42.944 63.041 140.149 120.199 242.050 185.337 330.419 45.642 61.834 91.421 104.635 144.056 134.684 55.453 31.723 117.598 47.147 189.979 47.147 8.205 0 16.689-0.2 25.243-0.6 42.059-2.049 57.663-17.272 59.636-58.224 0.939-20.928 3.227-42.877 13.515-61.595 6.494-11.793 12.548-11.793 14.538-11.793 3.833 0 8.585 1.764 13.69 5.071 9.155 5.975 17.005 13.98 23.439 20.973 6.057 6.643 12.047 13.355 18.042 20.068 12.937 14.49 26.314 29.471 40.289 43.68 30.587 31.12 64.284 44.807 102.986 41.836h144.459c0.307 0 0.617-0.011 0.925-0.031 14.395-0.95 26.861-8.935 34.204-21.906 9.096-16.069 8.912-36.569-0.49-54.85-10.668-20.672-24.508-38.333-36.633-52.874z"></path>
</svg>
