<?xml version="1.0" encoding="utf-8"?>
<!-- Generator: Adobe Illustrator 18.1.0, SVG Export Plug-In . SVG Version: 6.00 Build 0)  -->
<svg version="1.1" id="Layer_1" xmlns="http://www.w3.org/2000/svg" xmlns:xlink="http://www.w3.org/1999/xlink" x="0px" y="0px"
	 viewBox="0 0 1000 1000" enable-background="new 0 0 1000 1000" xml:space="preserve">
<g>
	<g id="XMLID_3834_" >
		<polygon id="XMLID_3846_" fill="rgba(0,0,0,0.1)" points="136.3,259.6 52.2,219.8 202.2,178.1 204.1,184.7 71.8,221.5 137,252.3 
			296.5,207.9 306.2,193.4 311.8,197.1 300.7,213.8 		"/>
		
			<rect id="XMLID_3845_" x="308.6" y="157.9" transform="matrix(-0.5535 0.8328 -0.8328 -0.5535 649.5405 -25.5354)" fill="rgba(0,0,0,0.1)" width="46.1" height="6.9"/>
		<path id="XMLID_3844_" fill="rgba(0,0,0,0.1)" stroke="#66C0B7" stroke-width="4" stroke-miterlimit="10" d="M203.2,181.4"/>
		<path id="XMLID_3841_" fill="rgba(0,0,0,0.1)" d="M59.7,224.8l-7.5-26.8l288.9-80.3l7.5,26.8L59.7,224.8z M60.6,202.9l3.7,13.6L340,139.8
			l-3.7-13.6L60.6,202.9z"/>
		<path id="XMLID_3838_" fill="rgba(0,0,0,0.1)" d="M209.6,254.4l-19.7-16.9l51-14.1l-8.1,24.7L209.6,254.4z M204.1,240.7l7.2,6.1l16-4.4
			l2.9-8.9L204.1,240.7z"/>
		<path id="XMLID_3835_" fill="rgba(0,0,0,0.1)" d="M143.6,241.2L99,221.9l213.5-59.4l-27.3,39.4L143.6,241.2z M119.5,223.4l24.5,10.5
			l136.8-38.1l15.1-21.6L119.5,223.4z"/>
	</g>
	<g id="XMLID_1_" >
		<polygon id="XMLID_21_" fill="rgba(0,0,0,0.1)" points="677.5,797.4 593.5,757.6 743.4,715.9 745.2,722.5 613.1,759.3 678.1,790.1 
			837.6,745.7 847.3,731.2 853,734.9 842,751.6 		"/>
		
			<rect id="XMLID_20_" x="849.7" y="695.7" transform="matrix(-0.5535 0.8328 -0.8328 -0.5535 1938.1139 359.3722)" fill="rgba(0,0,0,0.1)" width="46.1" height="6.9"/>
		<path id="XMLID_19_" fill="rgba(0,0,0,0.1)" stroke="#66C0B7" stroke-width="4" stroke-miterlimit="10" d="M744.3,719.2"/>
		<path id="XMLID_16_" fill="rgba(0,0,0,0.1)" d="M600.8,762.6l-7.5-26.8l288.9-80.3l7.5,26.8L600.8,762.6z M601.9,740.6l3.7,13.6
			l275.7-76.6l-3.7-13.6L601.9,740.6z"/>
		<path id="XMLID_5_" fill="rgba(0,0,0,0.1)" d="M750.7,792.2L731,775.3l51-14.1l-8.1,24.7L750.7,792.2z M745.2,778.5l7.2,6.1l16-4.4
			l2.9-8.9L745.2,778.5z"/>
		<path id="XMLID_2_" fill="rgba(0,0,0,0.1)" d="M684.7,779l-44.6-19.3l213.5-59.4l-27.3,39.3L684.7,779z M660.8,761.2l24.5,10.5l136.8-38
			l15.1-21.6L660.8,761.2z"/>
	</g>
	<g id="XMLID_3830_" >
		<path id="XMLID_3833_" fill="rgba(0,0,0,0.1)" d="M658.4,214.4c-2.9,0-5.7-0.8-8.3-2.3c-3.9-2.3-6.5-5.9-7.7-10.1l-7.7-29.3
			c-1.7-6.8-0.8-13.7,2.7-19.9c3.5-6,9.2-10.3,15.9-12.1c6.8-1.7,13.7-0.8,19.9,2.7c6,3.5,10.3,9.2,12.1,15.9l5.1,19.2l-6.7,1.7
			l-5.1-19.2c-1.3-4.9-4.5-9.2-8.9-11.7c-4.4-2.5-9.6-3.3-14.5-2s-9.2,4.5-11.7,8.9c-2.5,4.4-3.3,9.6-2,14.5l7.7,29.3
			c0.7,2.5,2.3,4.7,4.5,5.9c2.3,1.3,4.8,1.6,7.3,1.1l18.4-4.8c2.5-0.7,4.7-2.3,5.9-4.5c1.3-2.3,1.6-4.8,1.1-7.3l6.7-1.7
			c1.1,4.3,0.5,8.8-1.7,12.5c-2.3,3.7-5.9,6.5-10.1,7.7l-18.4,4.8C661.2,214.3,659.8,214.4,658.4,214.4z"/>
		<path id="XMLID_3832_" fill="rgba(0,0,0,0.1)" d="M656.4,166.5l-5.6-21.3l-2.5-10.8c-3.9-16.1,4.4-32.6,19.5-39.4
			c13.6-6.1,19.9-21.6,14.3-35.4l-9.3-23.3l6.4-2.5l9.3,23.3c6.9,17.2-0.9,36.6-17.9,44.2c-12,5.5-18.7,18.7-15.6,31.6l2.5,10.7
			l5.6,21.3L656.4,166.5z"/>
		<path id="XMLID_3831_" fill="rgba(0,0,0,0.1)" d="M640.6,183l-1.2-6.8l0.5,3.3l-0.7-3.3c1.3-0.3,26.8-7.1,43.7-11.5l1.7,6.7
			C665,176.6,641.3,182.9,640.6,183z"/>
	</g>
	<g id="XMLID_3788_" >
		<polygon id="XMLID_3829_" fill="rgba(0,0,0,0.1)" points="28.1,460.4 27.2,375.5 259.1,373.1 259.7,431.2 252.9,431.4 252.4,380.1 
			34.1,382.3 34.9,453.5 253,451.2 253,447.1 259.8,447.1 259.9,458 		"/>
		<g id="XMLID_3825_">
			<path id="XMLID_3826_" fill="rgba(0,0,0,0.1)" d="M40.6,407.5L40.4,387l59.4-0.7l0.3,20.5L40.6,407.5z M47.4,393.8l0.1,6.8l45.7-0.5
				l-0.1-6.8L47.4,393.8z"/>
		</g>
		<path id="XMLID_3822_" fill="rgba(0,0,0,0.1)" d="M105.1,407.3l-0.3-21.1l21.1-0.3l0.3,21.1L105.1,407.3z M111.9,393.1l0.1,7.2l7.2-0.1
			l-0.1-7.2L111.9,393.1z"/>
		<path id="XMLID_3819_" fill="rgba(0,0,0,0.1)" d="M129,407.1l-0.3-21.1l21.1-0.3l0.3,21.1L129,407.1z M135.8,392.9l0.1,7.2l7.2-0.1
			l-0.1-7.2L135.8,392.9z"/>
		<path id="XMLID_3816_" fill="rgba(0,0,0,0.1)" d="M152.8,406.9l-0.3-21.1l21.1-0.3l0.3,21.1L152.8,406.9z M159.6,392.6l0.1,7.2l7.2-0.1
			l-0.1-7.2L159.6,392.6z"/>
		<path id="XMLID_3813_" fill="rgba(0,0,0,0.1)" d="M176.7,406.6l-0.3-21.1l21.1-0.3l0.3,21.1L176.7,406.6z M183.3,392.3l0.1,7.2l7.2-0.1
			l-0.1-7.2L183.3,392.3z"/>
		<path id="XMLID_3810_" fill="rgba(0,0,0,0.1)" d="M200.5,406.3l-0.3-21.1l21.1-0.3l0.3,21.1L200.5,406.3z M207.2,392.1l0.1,7.2l7.2-0.1
			l-0.1-7.2L207.2,392.1z"/>
		<path id="XMLID_3807_" fill="rgba(0,0,0,0.1)" d="M105.4,433l-0.3-21.1l21.1-0.3l0.3,21.1L105.4,433z M112.2,418.8l0.1,7.2l7.2-0.1
			l-0.1-7.2L112.2,418.8z"/>
		<path id="XMLID_3804_" fill="rgba(0,0,0,0.1)" d="M129.2,432.7l-0.3-21.1l21.1-0.3l0.3,21.1L129.2,432.7z M136,418.6l0.1,7.2l7.2-0.1
			l-0.1-7.2L136,418.6z"/>
		<path id="XMLID_3801_" fill="rgba(0,0,0,0.1)" d="M48.2,433.6l-0.3-21.1l21.1-0.3l0.3,21.1L48.2,433.6z M55,419.4l0.1,7.2l7.2-0.1
			l-0.1-7.2L55,419.4z"/>
		<path id="XMLID_3798_" fill="rgba(0,0,0,0.1)" d="M72.1,433.4l-0.3-21.1l21.1-0.3l0.3,21.1L72.1,433.4z M78.9,419.1l0.1,7.2l7.2-0.1
			l-0.1-7.2L78.9,419.1z"/>
		<path id="XMLID_3795_" fill="rgba(0,0,0,0.1)" d="M153.1,432.4l-0.3-21.1l21.1-0.3l0.3,21.1L153.1,432.4z M159.9,418.3l0.1,7.2l7.2-0.1
			l-0.1-7.2L159.9,418.3z"/>
		<path id="XMLID_3792_" fill="rgba(0,0,0,0.1)" d="M176.9,432.2l-0.3-21.1l21.1-0.3l0.3,21.1L176.9,432.2z M183.6,418l0.1,7.2l7.2-0.1
			l-0.1-7.2L183.6,418z"/>
		<path id="XMLID_3789_" fill="rgba(0,0,0,0.1)" d="M200.8,432l-0.3-21.1l21.1-0.3l0.3,21.1L200.8,432z M207.4,417.8l0.1,7.2l7.2-0.1
			l-0.1-7.2L207.4,417.8z"/>
	</g>
	<path id="XMLID_3787_"  fill="rgba(0,0,0,0.1)" enable-background="new    " d="M138.6,379.3l-6.4-2.7
		c7.3-17.5,24.9-28.5,43.8-27.7l12.1,0.5c13.2,0.5,25.6-5.5,33.2-16.3l6.3-8.8l5.6,4l-6.3,8.8c-8.9,12.7-23.6,19.9-39,19.2
		l-12.1-0.5C159.7,355,144.8,364.5,138.6,379.3z"/>
	<g id="XMLID_3779_" >
		<polygon id="XMLID_3786_" fill="rgba(0,0,0,0.1)" points="461.4,552.2 414.2,445.4 429.7,405.1 463.1,390.3 465.9,396.6 435,410.2 
			421.7,445.2 464.9,543.2 553.2,504.1 499.3,381.8 484.1,388.6 481.3,382.3 502.7,372.7 562.3,507.7 		"/>
		<path id="XMLID_3783_" fill="rgba(0,0,0,0.1)" d="M411.6,451.9l20.7-53.2l16.3,36.9L411.6,451.9z M432.6,416.6l-8.7,22.3l15.5-6.8
			L432.6,416.6z"/>
		
			<rect id="XMLID_3782_" x="441.1" y="441.9" transform="matrix(-0.9148 0.4038 -0.4038 -0.9148 1089.342 660.9884)" fill="rgba(0,0,0,0.1)" width="67.7" height="6.9"/>
		
			<rect id="XMLID_3781_" x="452.7" y="468.1" transform="matrix(-0.9148 0.4038 -0.4038 -0.9148 1122.1321 706.5704)" fill="rgba(0,0,0,0.1)" width="67.7" height="6.9"/>
		
			<rect id="XMLID_3780_" x="464.3" y="494.4" transform="matrix(-0.9148 0.4038 -0.4038 -0.9148 1154.9224 752.1523)" fill="rgba(0,0,0,0.1)" width="67.7" height="6.9"/>
	</g>
	<g id="XMLID_26_" >
		<polygon id="XMLID_33_" fill="rgba(0,0,0,0.1)" points="834.6,604.7 876.9,495.9 916.3,478.3 950.4,491.5 947.9,497.9 916.5,485.6 
			882.2,500.9 843.6,600.7 933.7,635.6 981.9,511.1 966.3,505.1 968.8,498.5 990.8,507.1 937.5,644.6 		"/>
		<path id="XMLID_30_" fill="rgba(0,0,0,0.1)" d="M870.4,498.5l52.2-23.1l-14.5,37.6L870.4,498.5z M910.2,488.4l-21.9,9.6l15.7,6.1
			L910.2,488.4z"/>
		
			<rect id="XMLID_29_" x="916.4" y="504.7" transform="matrix(-0.3613 0.9324 -0.9324 -0.3613 1754.4547 -124.6007)" fill="rgba(0,0,0,0.1)" width="6.9" height="67.7"/>
		
			<rect id="XMLID_28_" x="906.1" y="531.5" transform="matrix(-0.3613 0.9324 -0.9324 -0.3613 1765.3317 -78.4745)" fill="rgba(0,0,0,0.1)" width="6.9" height="67.7"/>
		
			<rect id="XMLID_27_" x="895.7" y="558.3" transform="matrix(-0.3613 0.9324 -0.9324 -0.3613 1776.2078 -32.3483)" fill="rgba(0,0,0,0.1)" width="6.9" height="67.7"/>
	</g>
	<g id="XMLID_3773_" >
		<path id="XMLID_3776_" fill="rgba(0,0,0,0.1)" d="M541.4,355c-13.2,0-23.9-10.7-23.9-23.9c0-13.2,10.7-23.9,23.9-23.9s23.9,10.7,23.9,23.9
			C565.2,344.2,554.6,355,541.4,355z M541.4,314.1c-9.3,0-17.1,7.6-17.1,17.1c0,9.3,7.6,17.1,17.1,17.1c9.3,0,17.1-7.6,17.1-17.1
			C558.4,321.7,550.8,314.1,541.4,314.1z"/>
		<path id="XMLID_3775_" fill="rgba(0,0,0,0.1)" d="M555.9,331H549c0-4.3-3.5-7.6-7.6-7.6v-6.9C549.4,316.5,555.9,323,555.9,331z"/>
		<rect id="XMLID_3774_" x="561.9" y="327.7" fill="rgba(0,0,0,0.1)" width="15.7" height="6.9"/>
	</g>
	<g id="XMLID_100_" >
		<path id="XMLID_103_" fill="rgba(0,0,0,0.1)" d="M925.8,392.2c-13.2,0-23.9-10.7-23.9-23.9c0-13.2,10.7-23.9,23.9-23.9
			s23.9,10.7,23.9,23.9C949.6,381.5,939,392.2,925.8,392.2z M925.8,351.4c-9.3,0-17.1,7.6-17.1,17.1c0,9.3,7.6,17.1,17.1,17.1
			s17.1-7.6,17.1-17.1S935.2,351.4,925.8,351.4z"/>
		<path id="XMLID_102_" fill="rgba(0,0,0,0.1)" d="M940.3,368.3h-6.9c0-4.3-3.5-7.6-7.6-7.6v-6.9C933.8,353.8,940.3,360.4,940.3,368.3z"/>
		<rect id="XMLID_101_" x="946.3" y="364.9" fill="rgba(0,0,0,0.1)" width="15.7" height="6.9"/>
	</g>
	<g id="XMLID_124_" >
		<path id="XMLID_127_" fill="rgba(0,0,0,0.1)" d="M157.3,106c-13.2,0-23.9-10.7-23.9-23.9s10.7-23.9,23.9-23.9s23.9,10.7,23.9,23.9
			S170.5,106,157.3,106z M157.3,65.2c-9.3,0-17.1,7.6-17.1,17.1c0,9.3,7.6,17.1,17.1,17.1c9.3,0,17.1-7.6,17.1-17.1
			S166.7,65.2,157.3,65.2z"/>
		<path id="XMLID_126_" fill="rgba(0,0,0,0.1)" d="M171.9,82.1h-6.9c0-4.3-3.5-7.6-7.6-7.6v-6.9C165.3,67.6,171.9,74.1,171.9,82.1z"/>
		<rect id="XMLID_125_" x="177.7" y="78.7" fill="rgba(0,0,0,0.1)" width="15.7" height="6.9"/>
	</g>
	<g id="XMLID_3766_" >
		<g id="XMLID_3770_">
			
				<rect id="XMLID_3772_" x="49.8" y="313" transform="matrix(-0.7071 0.7071 -0.7071 -0.7071 323.7194 498.8622)" fill="rgba(0,0,0,0.1)" width="17.5" height="6.9"/>
			
				<rect id="XMLID_3771_" x="20.7" y="342.2" transform="matrix(-0.7071 0.7071 -0.7071 -0.7071 294.5952 569.3123)" fill="rgba(0,0,0,0.1)" width="17.5" height="6.9"/>
		</g>
		<g id="XMLID_3767_">
			
				<rect id="XMLID_3769_" x="26" y="307.8" transform="matrix(-0.7071 0.7071 -0.7071 -0.7071 274.0936 519.4587)" fill="rgba(0,0,0,0.1)" width="6.9" height="17.5"/>
			
				<rect id="XMLID_3768_" x="55" y="337" transform="matrix(-0.7071 0.7071 -0.7071 -0.7071 344.3184 548.7793)" fill="rgba(0,0,0,0.1)" width="6.9" height="17.5"/>
		</g>
	</g>
	<g id="XMLID_3759_" >
		<g id="XMLID_3763_">
			
				<rect id="XMLID_3765_" x="312.6" y="290.1" transform="matrix(-0.7071 0.7071 -0.7071 -0.7071 756.0935 273.8707)" fill="rgba(0,0,0,0.1)" width="17.5" height="6.9"/>
			
				<rect id="XMLID_3764_" x="283.4" y="319.3" transform="matrix(-0.7071 0.7071 -0.7071 -0.7071 726.9699 344.3204)" fill="rgba(0,0,0,0.1)" width="17.5" height="6.9"/>
		</g>
		<g id="XMLID_3760_">
			
				<rect id="XMLID_3762_" x="288.6" y="284.8" transform="matrix(-0.7071 0.7071 -0.7071 -0.7071 706.1464 294.6004)" fill="rgba(0,0,0,0.1)" width="6.9" height="17.5"/>
			
				<rect id="XMLID_3761_" x="317.8" y="314" transform="matrix(-0.7071 0.7071 -0.7071 -0.7071 776.5957 323.7239)" fill="rgba(0,0,0,0.1)" width="6.9" height="17.5"/>
		</g>
	</g>
	<path id="XMLID_3756_"  fill="rgba(0,0,0,0.1)" enable-background="new    " d="M171.1,534.4c-8.7,0-15.7-7.1-15.7-15.7
		c0-8.7,7.1-15.7,15.7-15.7c8.7,0,15.7,7.1,15.7,15.7C186.8,527.3,179.7,534.4,171.1,534.4z M171.1,509.7c-4.9,0-8.9,4-8.9,8.9
		s4,8.9,8.9,8.9s8.9-4,8.9-8.9C179.9,513.7,175.9,509.7,171.1,509.7z"/>
	<path id="XMLID_3753_"  fill="rgba(0,0,0,0.1)" enable-background="new    " d="M66.7,169.9l-20.4-20.4l20.4-20.4l20.4,20.4
		L66.7,169.9z M56.2,149.6l10.7,10.7l10.7-10.7l-10.7-10.7L56.2,149.6z"/>
	<path id="XMLID_3750_"  fill="rgba(0,0,0,0.1)" enable-background="new    " d="M387.7,551.3l-20.4-20.4l20.4-20.4l20.4,20.4
		L387.7,551.3z M377.1,530.9l10.7,10.7l10.7-10.7l-10.7-10.7L377.1,530.9z"/>
	<path id="XMLID_114_"  fill="rgba(0,0,0,0.1)" enable-background="new    " d="M454.2,89.7l-20.4-20.4L454.2,49l20.4,20.4
		L454.2,89.7z M443.6,69.3L454.2,80l10.7-10.7l-10.7-10.7L443.6,69.3z"/>
	<g id="XMLID_3742_" >
		<path id="XMLID_3747_" fill="rgba(0,0,0,0.1)" d="M368.3,425.2c-2.9,0-5.9-0.8-8.4-2.7c-3.3-2.3-5.5-5.6-6.3-9.6
			c-0.7-3.9,0.1-7.9,2.4-11.2l23.1-33.4l24.5,16.9l-23.1,33.4C377.7,423,373.1,425.2,368.3,425.2z M380.8,377.9l-19.2,27.8
			c-1.2,1.7-1.7,3.9-1.3,6s1.6,4,3.3,5.2c3.6,2.5,8.7,1.6,11.2-2l19.2-27.8L380.8,377.9z"/>
		
			<rect id="XMLID_3746_" x="367.3" y="395.2" transform="matrix(-0.5674 0.8234 -0.8234 -0.5674 915.9347 332.0427)" fill="rgba(0,0,0,0.1)" width="6.9" height="22.9"/>
		<path id="XMLID_3743_" fill="rgba(0,0,0,0.1)" d="M397.1,389.1l-19.2-13.3l10.9-16l19.2,13.3L397.1,389.1z M387.3,374.1l7.9,5.5l3.2-4.7
			l-7.9-5.5L387.3,374.1z"/>
	</g>
	<g id="XMLID_106_" >
		<path id="XMLID_111_" fill="rgba(0,0,0,0.1)" d="M64.9,630c-2.9,0-5.9-0.8-8.4-2.7c-3.3-2.3-5.5-5.6-6.3-9.6c-0.7-3.9,0.1-7.9,2.4-11.2
			l23.1-33.4l24.5,16.9l-23.1,33.4C74.3,627.9,69.7,630,64.9,630z M77.4,582.9l-19.2,27.8c-1.2,1.7-1.7,3.9-1.3,6s1.6,4,3.3,5.2
			c3.6,2.5,8.7,1.6,11.2-2l19.2-27.8L77.4,582.9z"/>
		
			<rect id="XMLID_110_" x="63.9" y="600.1" transform="matrix(-0.5674 0.8234 -0.8234 -0.5674 609.1636 903.0451)" fill="rgba(0,0,0,0.1)" width="6.9" height="22.9"/>
		<path id="XMLID_107_" fill="rgba(0,0,0,0.1)" d="M93.7,594.1l-19.2-13.3l10.9-16l19.2,13.3L93.7,594.1z M84.1,579l7.9,5.5l3.2-4.7
			l-7.9-5.5L84.1,579z"/>
	</g>
	<g id="XMLID_3729_" >
		<path id="XMLID_3739_" fill="rgba(0,0,0,0.1)" d="M487.7,235.5L442,197.3l16.3-19.5c5.7-6.8,15.9-7.7,22.8-2l20.9,17.5
			c6.8,5.7,7.7,15.9,2,22.8L487.7,235.5z M451.7,196.5l35.2,29.4l11.9-14.1c3.3-3.9,2.8-9.7-1.2-13.1l-20.9-17.5
			c-3.9-3.3-9.7-2.8-13.1,1.2L451.7,196.5z"/>
		<polygon id="XMLID_3738_" fill="rgba(0,0,0,0.1)" points="433,353.2 335.8,271.7 435.3,152.9 466.3,179 451.7,196.5 486.7,225.8 
			501.4,208.3 532.4,234.3 454.4,327.6 449.2,323.2 522.8,235.2 502.3,218 487.7,235.5 442,197.3 456.6,179.8 436.1,162.6 
			345.5,270.9 432.1,343.4 438.9,335.3 444.2,339.7 		"/>
		
			<rect id="XMLID_3737_" x="457.3" y="194.9" transform="matrix(-0.6421 0.7666 -0.7666 -0.6421 926.1231 10.0166)" fill="rgba(0,0,0,0.1)" width="6.9" height="52.6"/>
		
			<rect id="XMLID_3736_" x="445.1" y="209.3" transform="matrix(-0.6421 0.7666 -0.7666 -0.6421 917.2877 43.0425)" fill="rgba(0,0,0,0.1)" width="6.9" height="52.6"/>
		
			<rect id="XMLID_3735_" x="433.1" y="223.7" transform="matrix(-0.6421 0.7666 -0.7666 -0.6421 908.4919 75.8205)" fill="rgba(0,0,0,0.1)" width="6.9" height="52.6"/>
		<path id="XMLID_3732_" fill="rgba(0,0,0,0.1)" d="M418.8,314.6l-56.2-47l78.6-93.9l17.3,14.5l-6.8,8.1l35.2,29.4l6.8-8.1l19.9,16.7
			l-65,77.7L418.8,314.6z M372.3,266.7l48.8,40.8l24.1-2.1l58.8-70.2l-9.3-7.9l-6.8,8.1l-45.7-38.2l6.8-8.1l-6.8-5.7L372.3,266.7z"
			/>
		<polygon id="XMLID_3731_" fill="rgba(0,0,0,0.1)" points="422.5,313.3 417.3,308.9 431.7,291.6 449,306 444.6,311.3 432.6,301.3 		"/>
		
			<rect id="XMLID_3730_" x="463.3" y="182.5" transform="matrix(-0.6421 0.7667 -0.7667 -0.6421 919.6859 -29.7862)" fill="rgba(0,0,0,0.1)" width="6.9" height="34.5"/>
	</g>
	<g id="XMLID_3603_" >
		<g id="XMLID_3607_">
			<path id="XMLID_3610_" fill="rgba(0,0,0,0.1)" d="M299,760.6l-6.4-2.4c5.6-15.6,17.1-28,32-35c15.1-7.1,31.8-7.7,47.4-2.1l-2.4,6.4
				c-13.9-5.1-28.8-4.4-42.1,1.9C314.2,735.7,304.1,746.8,299,760.6z"/>
			<path id="XMLID_3609_" fill="rgba(0,0,0,0.1)" d="M311.4,765.2l-6.4-2.4c9.2-25.3,37.2-38.4,62.5-29.2l-2.4,6.4
				C343.4,732.1,319.4,743.4,311.4,765.2z"/>
			<path id="XMLID_3608_" fill="rgba(0,0,0,0.1)" d="M324,769.7l-6.4-2.4c3.2-8.9,9.7-16,18.3-20c8.5-4,18.1-4.4,27-1.2l-2.4,6.4
				c-7.2-2.5-14.9-2.3-21.7,0.9C331.9,756.9,326.7,762.6,324,769.7z"/>
		</g>
		<path id="XMLID_3604_" fill="rgba(0,0,0,0.1)" d="M348.8,786.9c-4.4,0-8.7-2.5-10.7-6.8c-2.8-5.9-0.1-12.9,5.7-15.7
			c5.9-2.8,12.9-0.1,15.7,5.7l0,0c2.8,5.9,0.1,12.9-5.7,15.7C352.2,786.5,350.4,786.9,348.8,786.9z M348.8,770.1
			c-0.7,0-1.5,0.1-2.1,0.4c-2.4,1.2-3.5,4.1-2.4,6.5c1.2,2.4,4.1,3.5,6.5,2.4c2.4-1.2,3.5-4.1,2.4-6.5l0,0
			C352.4,771.2,350.6,770.1,348.8,770.1z"/>
	</g>
	<g id="XMLID_80_" >
		<g id="XMLID_84_">
			<path id="XMLID_87_" fill="rgba(0,0,0,0.1)" d="M680.9,932.8l-6.4-2.4c5.6-15.6,17.1-28,32-35c15.1-7.1,31.8-7.7,47.4-2.1l-2.4,6.4
				c-13.9-5.1-28.8-4.4-42.1,1.9C696.1,908,685.9,919.1,680.9,932.8z"/>
			<path id="XMLID_86_" fill="rgba(0,0,0,0.1)" d="M693.3,937.3l-6.4-2.4c9.2-25.3,37.2-38.4,62.5-29.2l-2.4,6.4
				C725.2,904.4,701.3,915.6,693.3,937.3z"/>
			<path id="XMLID_85_" fill="rgba(0,0,0,0.1)" d="M705.9,942l-6.4-2.4c3.2-8.9,9.7-16,18.3-20c8.5-4,18.1-4.4,27-1.2l-2.4,6.4
				c-7.2-2.5-14.9-2.3-21.7,0.9C713.8,929.1,708.6,934.8,705.9,942z"/>
		</g>
		<path id="XMLID_81_" fill="rgba(0,0,0,0.1)" d="M730.7,959c-4.4,0-8.7-2.5-10.7-6.8c-2.8-5.9-0.1-12.9,5.7-15.7c5.9-2.8,12.9-0.1,15.7,5.7
			l0,0c2.8,5.9,0.1,12.9-5.7,15.7C734,958.8,732.3,959,730.7,959z M730.7,942.4c-0.7,0-1.5,0.1-2.1,0.4c-2.4,1.2-3.5,4.1-2.4,6.5
			c1.1,2.4,4.1,3.5,6.5,2.4c2.4-1.2,3.5-4.1,2.4-6.5l0,0C734.3,943.4,732.4,942.4,730.7,942.4z"/>
	</g>
	<g id="XMLID_3564_" >
		<g id="XMLID_3568_">
			
				<rect id="XMLID_3570_" x="975.5" y="169.5" transform="matrix(-0.7071 0.7071 -0.7071 -0.7071 1802.5568 -400.629)" fill="rgba(0,0,0,0.1)" width="17.5" height="6.9"/>
			
				<rect id="XMLID_3569_" x="946.4" y="198.8" transform="matrix(-0.7072 0.707 -0.707 -0.7072 1773.5466 -330.0176)" fill="rgba(0,0,0,0.1)" width="17.5" height="6.9"/>
		</g>
		<g id="XMLID_3565_">
			
				<rect id="XMLID_3567_" x="951.5" y="164.2" transform="matrix(-0.7071 0.7072 -0.7072 -0.7071 1752.5596 -380.0941)" fill="rgba(0,0,0,0.1)" width="6.9" height="17.5"/>
			
				<rect id="XMLID_3566_" x="980.8" y="193.4" transform="matrix(-0.7071 0.7071 -0.7071 -0.7071 1823.1532 -351.0033)" fill="rgba(0,0,0,0.1)" width="6.9" height="17.5"/>
		</g>
	</g>
	<g id="XMLID_3557_" >
		<g id="XMLID_3561_">
			
				<rect id="XMLID_3563_" x="748.9" y="232.7" transform="matrix(-0.7071 0.7071 -0.7071 -0.7071 1460.307 -132.6132)" fill="rgba(0,0,0,0.1)" width="17.5" height="6.9"/>
			
				<rect id="XMLID_3562_" x="719.6" y="261.8" transform="matrix(-0.7071 0.7071 -0.7071 -0.7071 1430.9557 -62.2577)" fill="rgba(0,0,0,0.1)" width="17.5" height="6.9"/>
		</g>
		<g id="XMLID_3558_">
			
				<rect id="XMLID_3560_" x="725" y="227.3" transform="matrix(-0.7071 0.7071 -0.7071 -0.7071 1410.4537 -112.1111)" fill="rgba(0,0,0,0.1)" width="6.9" height="17.5"/>
			
				<rect id="XMLID_3559_" x="754.2" y="256.5" transform="matrix(-0.7071 0.7071 -0.7071 -0.7071 1480.9031 -82.9874)" fill="rgba(0,0,0,0.1)" width="6.9" height="17.5"/>
		</g>
	</g>
	<g id="XMLID_3550_" >
		<g id="XMLID_3554_">
			
				<rect id="XMLID_3556_" x="650.7" y="303.1" transform="matrix(-0.6606 0.7507 -0.7507 -0.6606 1326.2058 13.6338)" fill="rgba(0,0,0,0.1)" width="18.7" height="6.9"/>
			
				<rect id="XMLID_3555_" x="621.5" y="336.2" transform="matrix(-0.6606 0.7507 -0.7507 -0.6606 1302.5105 90.5302)" fill="rgba(0,0,0,0.1)" width="18.7" height="6.9"/>
		</g>
		<g id="XMLID_3551_">
			
				<rect id="XMLID_3553_" x="627.3" y="297.3" transform="matrix(-0.7507 0.6607 -0.6607 -0.7507 1306.813 120.064)" fill="rgba(0,0,0,0.1)" width="6.9" height="18.7"/>
			
				<rect id="XMLID_3552_" x="656.4" y="330.3" transform="matrix(-0.7507 0.6607 -0.6607 -0.7507 1379.6343 158.6761)" fill="rgba(0,0,0,0.1)" width="6.9" height="18.7"/>
		</g>
	</g>
	<g id="XMLID_117_" >
		<g id="XMLID_121_">
			
				<rect id="XMLID_123_" x="345.5" y="54.8" transform="matrix(-0.6606 0.7507 -0.7507 -0.6606 633.0405 -169.6174)" fill="rgba(0,0,0,0.1)" width="18.7" height="6.9"/>
			
				<rect id="XMLID_122_" x="316.4" y="88" transform="matrix(-0.6606 0.7507 -0.7507 -0.6606 609.5773 -92.6498)" fill="rgba(0,0,0,0.1)" width="18.7" height="6.9"/>
		</g>
		<g id="XMLID_118_">
			
				<rect id="XMLID_120_" x="322.1" y="49" transform="matrix(-0.7507 0.6607 -0.6607 -0.7507 608.4665 -113.0486)" fill="rgba(0,0,0,0.1)" width="6.9" height="18.7"/>
			
				<rect id="XMLID_119_" x="351.3" y="82.1" transform="matrix(-0.7507 0.6607 -0.6607 -0.7507 681.5074 -74.3194)" fill="rgba(0,0,0,0.1)" width="6.9" height="18.7"/>
		</g>
	</g>
	<path id="XMLID_3547_"  fill="rgba(0,0,0,0.1)" enable-background="new    " d="M53.7,794.7C45,794.7,38,787.7,38,779
		c0-8.7,7.1-15.7,15.7-15.7s15.7,7.1,15.7,15.7C69.4,787.7,62.3,794.7,53.7,794.7z M53.7,770.1c-4.9,0-8.9,4-8.9,8.9
		c0,4.9,4,8.9,8.9,8.9s8.9-4,8.9-8.9C62.6,774.1,58.6,770.1,53.7,770.1z"/>
	<g id="XMLID_3541_" >
		<polygon id="XMLID_3546_" fill="rgba(0,0,0,0.1)" points="265.8,951.6 185.3,934.8 216.6,785 300.5,802.6 275.1,923.6 268.3,922.1 
			292.3,807.9 222,793.1 193.5,929.5 267.1,944.9 		"/>
		<path id="XMLID_3543_" fill="rgba(0,0,0,0.1)" d="M290.1,852.2l-83.8-17.6l5.7-27l83.8,17.6L290.1,852.2z M214.4,829.3l70.4,14.7l2.8-13.6
			l-70.4-14.7L214.4,829.3z"/>
		
			<rect id="XMLID_3542_" x="247.5" y="799.1" transform="matrix(-0.2048 0.9788 -0.9788 -0.2048 1114.5725 754.0685)" fill="rgba(0,0,0,0.1)" width="6.9" height="61.4"/>
	</g>
	<path id="XMLID_3538_"  fill="rgba(0,0,0,0.1)" enable-background="new    " d="M182.1,741.4l-20.4-20.4l20.4-20.4l20.4,20.4
		L182.1,741.4z M171.5,721.1l10.7,10.7l10.7-10.7l-10.7-10.7L171.5,721.1z"/>
	<path id="XMLID_3535_"  fill="rgba(0,0,0,0.1)" enable-background="new    " d="M669.2,274.7l-20.4-20.4l20.4-20.4l20.4,20.4
		L669.2,274.7z M658.5,254.3l10.7,10.7l10.7-10.7l-10.7-10.7L658.5,254.3z"/>
	<g id="XMLID_3528_" >
		<path id="XMLID_3532_" fill="rgba(0,0,0,0.1)" d="M439.8,847.5l-24.7-41l26-15.6l24.7,41L439.8,847.5z M424.6,808.7l17.6,29.3l14.1-8.5
			l-17.6-29.3L424.6,808.7z"/>
		<path id="XMLID_3529_" fill="rgba(0,0,0,0.1)" d="M439.8,847.5L421.6,817l26-15.6l18.3,30.5L439.8,847.5z M431,819.3l11.2,18.8l14.1-8.5
			l-11.2-18.8L431,819.3z"/>
	</g>
	<g id="XMLID_3523_" >
		<g id="XMLID_3525_">
			<polygon id="XMLID_3527_" fill="rgba(0,0,0,0.1)" points="43.8,870.4 35,847.8 145.8,804.6 154.5,827.1 138.7,833.4 136.2,827 
				145.6,823.3 141.9,813.5 43.8,851.8 47.7,861.5 121,832.9 123.5,839.2 			"/>
			
				<rect id="XMLID_3526_" x="80.2" y="833.2" transform="matrix(-0.9315 0.3637 -0.3637 -0.9315 467.8412 1595.5823)" fill="rgba(0,0,0,0.1)" width="6.9" height="17.3"/>
		</g>
		<polygon id="XMLID_3524_" fill="rgba(0,0,0,0.1)" points="45.7,869.4 13,869.4 37,847.2 41.7,852.3 30.6,862.6 45.7,862.6 		"/>
	</g>
	<g id="XMLID_3500_" >
		<path id="XMLID_3507_" fill="rgba(0,0,0,0.1)" d="M834.6,233.4c-2,0-4.1-0.4-6.1-1.2l-41-15.9c-4.5-1.7-8.1-5.2-10.1-9.6
			c-2-4.4-2.1-9.5-0.4-14l27.6-71.7l6.4,2.5l-27.6,71.7c-1.1,2.8-1.1,5.9,0.3,8.7c1.2,2.8,3.5,4.9,6.3,6l41,15.9
			c2.8,1.1,5.9,1.1,8.7-0.3c2.8-1.2,4.9-3.5,6-6.3l35.2-91.3c1.1-2.8,1.1-5.9-0.3-8.7c-1.2-2.8-3.5-4.9-6.3-6l-41-15.9
			c-2.8-1.1-5.9-1.1-8.7,0.3c-2.8,1.2-4.9,3.5-6,6.3l-6.4-2.5c1.7-4.5,5.2-8.1,9.6-10.1c4.4-2,9.5-2.1,14-0.4l41,15.9
			c4.5,1.7,8.1,5.2,10.1,9.6c2,4.4,2.1,9.5,0.4,14l-35.2,91.3c-1.7,4.5-5.2,8.1-9.6,10.1C840,232.8,837.3,233.4,834.6,233.4z"/>
		<path id="XMLID_3504_" fill="rgba(0,0,0,0.1)" d="M839.6,209.2c-0.7,0-1.3-0.1-2-0.4l-41-15.9c-1.5-0.5-2.7-1.7-3.3-3.1
			c-0.7-1.5-0.7-3.1-0.1-4.5l30.6-79.5c1.2-3.1,4.5-4.5,7.6-3.3l41,15.9c1.5,0.5,2.7,1.7,3.3,3.1c0.7,1.5,0.7,3.1,0.1,4.5
			l-30.6,79.5C844.2,207.8,842,209.2,839.6,209.2z M799.9,186.9l39.3,15.2l30-77.7l-39.3-15.2L799.9,186.9z"/>
		<path id="XMLID_3501_" fill="rgba(0,0,0,0.1)" d="M813.6,218.6c-1.1,0-2.1-0.3-3.1-0.7c-4.8-1.9-7.2-7.3-5.3-12.1c0.9-2.4,2.7-4.1,4.9-5.2
			c2.3-1.1,4.8-1.1,7.2-0.1c2.4,0.9,4.1,2.7,5.2,4.9c1.1,2.3,1.1,4.8,0.1,7.2l0,0C821.1,216.4,817.5,218.7,813.6,218.6z
			 M813.9,206.7c-0.4,0-0.8,0-1.1,0.3c-0.7,0.3-1.1,0.8-1.3,1.3c-0.5,1.3,0.1,2.8,1.5,3.2c1.3,0.5,2.8-0.1,3.2-1.5l0,0
			c0.3-0.7,0.3-1.3,0-1.9c-0.3-0.7-0.8-1.1-1.3-1.3C814.4,206.7,814.1,206.7,813.9,206.7z"/>
	</g>
	<g id="XMLID_3487_" >
		<polygon id="XMLID_3499_" fill="rgba(0,0,0,0.1)" points="479.9,734.4 331.4,650.4 300.1,562.9 435.6,639.5 432.2,645.4 312.7,577.9 
			337,645.8 481.1,727.2 498.2,723.7 499.5,730.4 		"/>
		
			<rect id="XMLID_3498_" x="515.8" y="715.6" transform="matrix(-0.9803 0.1975 -0.1975 -0.9803 1209.1083 1317.5822)" fill="rgba(0,0,0,0.1)" width="46.1" height="6.9"/>
		<path id="XMLID_3497_" fill="rgba(0,0,0,0.1)" stroke="#66C0B7" stroke-width="4" stroke-miterlimit="10" d="M433.8,642.4"/>
		<path id="XMLID_3494_" fill="rgba(0,0,0,0.1)" d="M562.7,719.2l-261-147.5l13.7-24.3l261,147.5L562.7,719.2z M311,569.2l249,140.7
			l6.9-12.3l-249-140.7L311,569.2z"/>
		<path id="XMLID_3491_" fill="rgba(0,0,0,0.1)" d="M407.6,710.4l-20.8-11.7l-2-26l46.1,26L407.6,710.4z M393.3,694.4l14.4,8.1l8.4-4.3
			l-23.6-13.3L393.3,694.4z"/>
		<path id="XMLID_3488_" fill="rgba(0,0,0,0.1)" d="M477.3,714.9l-127.9-72.2l-18-45.2l192.9,109L477.3,714.9z M355,637.9l123.7,69.8
			l25.9-4.7L345.1,613L355,637.9z"/>
	</g>
	<g id="XMLID_3483_" >
		<path id="XMLID_3486_" fill="rgba(0,0,0,0.1)" d="M375.5,933.3c-7.3,0-14.1-4.9-16-12.4l-7.7-29.3c-3.7-13.9,4.7-28.2,18.7-31.8
			c6.8-1.7,13.7-0.8,19.9,2.7c6,3.5,10.3,9.2,12.1,15.9l5.1,19.2l-6.7,1.7l-5.1-19.2c-1.3-4.9-4.5-9.2-8.9-11.7
			c-4.4-2.5-9.6-3.3-14.5-2c-10.3,2.7-16.4,13.2-13.7,23.5l7.7,29.3c1.3,5.2,6.7,8.3,11.9,6.9l18.4-4.8c5.2-1.3,8.3-6.7,6.9-11.9
			l6.7-1.7c2.3,8.8-2.9,18-11.9,20.3l-18.4,4.8C378.3,933.1,376.8,933.3,375.5,933.3z"/>
		<path id="XMLID_3485_" fill="rgba(0,0,0,0.1)" d="M373.5,885.2l-5.6-21.3l-2.5-10.8c-3.9-16.1,4.4-32.6,19.5-39.4
			c13.6-6.1,19.9-21.6,14.3-35.4l-9.3-23.3l6.4-2.5l9.3,23.3c6.9,17.2-0.9,36.6-17.9,44.2c-12,5.5-18.7,18.7-15.6,31.6l2.5,10.7
			l5.6,21.3L373.5,885.2z"/>
		<path id="XMLID_3484_" fill="rgba(0,0,0,0.1)" d="M357.6,901.9l-1.2-6.8l0.5,3.3l-0.7-3.3c1.3-0.3,26.8-7.1,43.7-11.5l1.7,6.7
			C382,895.5,358.4,901.7,357.6,901.9z"/>
	</g>
	<g id="XMLID_22_" >
		<path id="XMLID_25_" fill="rgba(0,0,0,0.1)" d="M949.9,974.1c-7.3,0-14.1-4.9-16-12.4l-7.7-29.3c-3.7-13.9,4.7-28.2,18.7-31.8
			c6.8-1.7,13.7-0.8,19.9,2.7c6,3.5,10.3,9.2,12.1,15.9l5.1,19.2l-6.7,1.7l-5.1-19.2c-1.3-4.9-4.5-9.2-8.9-11.7
			c-4.4-2.5-9.6-3.3-14.5-2c-10.3,2.7-16.4,13.2-13.7,23.5l7.7,29.3c1.3,5.2,6.7,8.3,11.9,6.9L971,962c5.2-1.3,8.3-6.7,6.9-11.9
			l6.7-1.7c2.3,8.8-2.9,18-11.9,20.3l-18.4,4.8C952.7,973.8,951.2,974.1,949.9,974.1z"/>
		<path id="XMLID_24_" fill="rgba(0,0,0,0.1)" d="M947.9,926l-5.6-21.3l-2.5-10.8c-3.9-16.1,4.4-32.6,19.5-39.4
			c13.6-6.1,19.9-21.6,14.3-35.4l-9.3-23.3l6.4-2.5l9.3,23.3c6.9,17.2-0.9,36.6-17.9,44.2c-12,5.5-18.7,18.7-15.6,31.6l2.5,10.7
			l5.6,21.3L947.9,926z"/>
		<path id="XMLID_23_" fill="rgba(0,0,0,0.1)" d="M932.1,942.6l-1.2-6.8l0.5,3.3l-0.7-3.3c1.3-0.3,26.8-7.1,43.7-11.5l1.7,6.7
			C956.6,936.3,932.9,942.5,932.1,942.6z"/>
	</g>
	<g id="XMLID_3390_" >
		<g id="XMLID_3394_">
			
				<rect id="XMLID_3397_" x="552.8" y="141.5" transform="matrix(-0.7071 0.7071 -0.7071 -0.7071 1061.134 -149.5364)" fill="rgba(0,0,0,0.1)" width="17.5" height="6.9"/>
			
				<rect id="XMLID_3395_" x="523.7" y="170.7" transform="matrix(-0.7071 0.7071 -0.7071 -0.7071 1032.0096 -79.0862)" fill="rgba(0,0,0,0.1)" width="17.5" height="6.9"/>
		</g>
		<g id="XMLID_3391_">
			
				<rect id="XMLID_3393_" x="529" y="136.2" transform="matrix(-0.7071 0.7071 -0.7071 -0.7071 1011.4433 -129.0041)" fill="rgba(0,0,0,0.1)" width="6.9" height="17.5"/>
			
				<rect id="XMLID_3392_" x="558.1" y="165.5" transform="matrix(-0.7071 0.7071 -0.7071 -0.7071 1081.7988 -99.6498)" fill="rgba(0,0,0,0.1)" width="6.9" height="17.5"/>
		</g>
	</g>
	<g id="XMLID_3383_" >
		<g id="XMLID_3387_">
			
				<rect id="XMLID_3389_" x="126.3" y="937.8" transform="matrix(-0.7071 0.7071 -0.7071 -0.7071 896.084 1511.3647)" fill="rgba(0,0,0,0.1)" width="17.5" height="6.9"/>
			
				<rect id="XMLID_3388_" x="97.1" y="967" transform="matrix(-0.7071 0.7071 -0.7071 -0.7071 866.9603 1581.8143)" fill="rgba(0,0,0,0.1)" width="17.5" height="6.9"/>
		</g>
		<g id="XMLID_3384_">
			
				<rect id="XMLID_3386_" x="102.4" y="932.5" transform="matrix(-0.7071 0.7071 -0.7071 -0.7071 846.3494 1531.9335)" fill="rgba(0,0,0,0.1)" width="6.9" height="17.5"/>
			
				<rect id="XMLID_3385_" x="131.4" y="961.7" transform="matrix(-0.7071 0.7071 -0.7071 -0.7071 916.478 1561.1929)" fill="rgba(0,0,0,0.1)" width="6.9" height="17.5"/>
		</g>
	</g>
	<g id="XMLID_95_" >
		<g id="XMLID_97_">
			<polygon id="XMLID_99_" fill="rgba(0,0,0,0.1)" points="783.1,843 774.3,820.3 885.1,777.2 893.9,799.7 878.1,805.9 875.6,799.5 
				885,795.8 881.3,786.1 783.2,824.3 787.1,834.1 860.4,805.4 862.8,811.9 			"/>
			
				<rect id="XMLID_98_" x="819.6" y="805.7" transform="matrix(-0.9315 0.3637 -0.3637 -0.9315 1885.9514 1273.5883)" fill="rgba(0,0,0,0.1)" width="6.9" height="17.3"/>
		</g>
		<polygon id="XMLID_96_" fill="rgba(0,0,0,0.1)" points="785.1,841.9 752.4,841.9 776.4,819.8 781.1,824.9 770,835.1 785.1,835.1 		"/>
	</g>
	<g id="XMLID_88_" >
		<g id="XMLID_92_">
			
				<rect id="XMLID_94_" x="865.7" y="910.3" transform="matrix(-0.7071 0.7071 -0.7071 -0.7071 2138.8596 941.6584)" fill="rgba(0,0,0,0.1)" width="17.5" height="6.9"/>
			
				<rect id="XMLID_93_" x="836.5" y="939.5" transform="matrix(-0.7071 0.7071 -0.7071 -0.7071 2109.7361 1012.1078)" fill="rgba(0,0,0,0.1)" width="17.5" height="6.9"/>
		</g>
		<g id="XMLID_89_">
			
				<rect id="XMLID_91_" x="841.7" y="905.2" transform="matrix(-0.7071 0.7071 -0.7071 -0.7071 2089.0742 962.4705)" fill="rgba(0,0,0,0.1)" width="6.9" height="17.5"/>
			
				<rect id="XMLID_90_" x="870.8" y="934.2" transform="matrix(-0.7071 0.7071 -0.7071 -0.7071 2159.2976 991.5024)" fill="rgba(0,0,0,0.1)" width="6.9" height="17.5"/>
		</g>
	</g>
	<path id="XMLID_3380_"  fill="rgba(0,0,0,0.1)" enable-background="new    " d="M631.2,692.7c-8.7,0-15.7-7.1-15.7-15.7
		s7.1-15.7,15.7-15.7s15.7,7.1,15.7,15.7C646.9,685.6,639.8,692.7,631.2,692.7z M631.2,668c-4.9,0-8.9,4-8.9,8.9s4,8.9,8.9,8.9
		s8.9-4,8.9-8.9S636.1,668,631.2,668z"/>
	<path id="XMLID_3374_"  fill="rgba(0,0,0,0.1)" enable-background="new    " d="M815.9,427.8l-20.4-20.4l20.4-20.4l20.4,20.4
		L815.9,427.8z M805.3,407.4L816,418l10.7-10.7L816,396.7L805.3,407.4z"/>
	<g id="XMLID_3366_" >
		<path id="XMLID_3371_" fill="rgba(0,0,0,0.1)" d="M880.8,280.4c-2.9,0-5.9-0.8-8.4-2.7c-3.3-2.3-5.5-5.6-6.3-9.6
			c-0.7-3.9,0.1-7.9,2.4-11.2l23.1-33.4l24.5,16.9L893,273.9C890.2,278.1,885.5,280.4,880.8,280.4z M893.3,233.1l-19.2,27.8
			c-1.2,1.7-1.7,3.9-1.3,6s1.6,4,3.3,5.2c3.6,2.5,8.7,1.6,11.2-2l19.2-27.8L893.3,233.1z"/>
		
			<rect id="XMLID_3370_" x="879.7" y="250.4" transform="matrix(-0.5674 0.8235 -0.8235 -0.5674 1599.9286 -316.7761)" fill="rgba(0,0,0,0.1)" width="6.9" height="22.9"/>
		<path id="XMLID_3367_" fill="rgba(0,0,0,0.1)" d="M909.5,244.3l-19.2-13.2l10.9-16l19.2,13.3L909.5,244.3z M899.9,229.2l7.9,5.5l3.2-4.7
			l-7.9-5.5L899.9,229.2z"/>
	</g>
	<g id="XMLID_3353_" >
		<path id="XMLID_3363_" fill="rgba(0,0,0,0.1)" d="M264.5,608.9l-45.7-38.2l16.3-19.5c2.8-3.3,6.7-5.3,10.9-5.7c4.3-0.4,8.5,0.9,11.7,3.7
			l20.9,17.5c6.8,5.7,7.7,15.9,2,22.8L264.5,608.9z M228.5,569.7l35.2,29.4l11.9-14.1c3.3-3.9,2.8-9.7-1.2-13.1l-20.9-17.5
			c-1.9-1.6-4.3-2.4-6.8-2.1c-2.5,0.3-4.7,1.3-6.3,3.3L228.5,569.7z"/>
		<polygon id="XMLID_3362_" fill="rgba(0,0,0,0.1)" points="209.8,726.4 112.6,645 212.1,526.2 243.2,552.2 228.5,569.7 263.7,599.1 
			278.3,581.7 309.2,607.7 231.3,700.8 226,696.4 299.7,608.5 279.1,591.3 264.5,608.9 218.8,570.6 233.4,553 212.9,536 
			122.3,644.2 208.9,716.8 215.8,708.5 221,712.9 		"/>
		
			<rect id="XMLID_3361_" x="234" y="568.2" transform="matrix(-0.6421 0.7666 -0.7666 -0.6421 845.7112 794.1337)" fill="rgba(0,0,0,0.1)" width="6.9" height="52.6"/>
		
			<rect id="XMLID_3360_" x="221.9" y="582.6" transform="matrix(-0.6421 0.7666 -0.7666 -0.6421 836.8227 827.1361)" fill="rgba(0,0,0,0.1)" width="6.9" height="52.6"/>
		
			<rect id="XMLID_3359_" x="209.9" y="597" transform="matrix(-0.6421 0.7666 -0.7666 -0.6421 828.2607 859.9756)" fill="rgba(0,0,0,0.1)" width="6.9" height="52.6"/>
		<path id="XMLID_3356_" fill="rgba(0,0,0,0.1)" d="M195.6,688l-56.2-47L218,547l17.3,14.5l-6.8,8.1l35.2,29.4l6.8-8.1l19.9,16.7l-65,77.7
			L195.6,688z M149.1,640l48.8,40.8l24.1-2.1l58.8-70.2l-9.3-7.9l-6.8,8.1l-45.7-38.2l6.8-8.1l-6.8-5.7L149.1,640z"/>
		<polygon id="XMLID_3355_" fill="rgba(0,0,0,0.1)" points="199.3,686.5 194.1,682.1 208.5,664.8 225.8,679.3 221.4,684.5 209.4,674.6 		"/>
		
			<rect id="XMLID_3354_" x="240.3" y="555.7" transform="matrix(-0.6421 0.7666 -0.7666 -0.6421 839.5762 753.9329)" fill="rgba(0,0,0,0.1)" width="6.9" height="34.5"/>
	</g>
	<g id="XMLID_3338_" >
		<polygon id="XMLID_3352_" fill="rgba(0,0,0,0.1)" points="707.4,576.5 590.8,483.1 635.2,427.8 751.8,521.2 723.3,556.9 717.9,552.5 
			742.2,522.2 636.2,437.4 600.5,482 706.3,566.9 711.5,560.5 716.9,564.9 		"/>
		<polygon id="XMLID_3351_" fill="rgba(0,0,0,0.1)" points="707.4,576.5 590.8,483.1 627.8,437 744.4,530.4 725.2,554.2 719.9,550 
			734.7,531.4 628.9,446.6 600.5,482 706.3,566.9 711.5,560.5 716.9,564.9 		"/>
		<path id="XMLID_3348_" fill="rgba(0,0,0,0.1)" d="M727.6,510.7l-76.9-61.6l47.6-59.3l76.9,61.6L727.6,510.7z M660.5,447.9l66.1,53l39-48.6
			l-66.1-53L660.5,447.9z"/>
		<path id="XMLID_3345_" fill="rgba(0,0,0,0.1)" d="M656.1,453.4L638,438.8l16.3-20.3l18.1,14.5L656.1,453.4z M647.7,437.6l7.5,6l7.6-9.5
			l-7.5-6L647.7,437.6z"/>
		<path id="XMLID_3342_" fill="rgba(0,0,0,0.1)" d="M740.4,520.9l-18.1-14.5l16.3-20.3l18.1,14.5L740.4,520.9z M731.9,505.3l7.5,6l7.6-9.5
			l-7.5-6L731.9,505.3z"/>
		
			<rect id="XMLID_3341_" x="723.1" y="401.8" transform="matrix(-0.6255 0.7802 -0.7802 -0.6255 1519.8328 138.9052)" fill="rgba(0,0,0,0.1)" width="6.9" height="64.8"/>
		
			<rect id="XMLID_3340_" x="710.8" y="417.3" transform="matrix(-0.6255 0.7802 -0.7802 -0.6255 1511.827 173.6711)" fill="rgba(0,0,0,0.1)" width="6.9" height="64.8"/>
		
			<rect id="XMLID_3339_" x="698.3" y="432.7" transform="matrix(-0.6255 0.7802 -0.7802 -0.6255 1503.619 208.3975)" fill="rgba(0,0,0,0.1)" width="6.9" height="64.8"/>
	</g>
	<g id="XMLID_34_" >
		<polygon id="XMLID_79_" fill="rgba(0,0,0,0.1)" points="600.8,975.8 484.2,882.3 528.6,827 645.2,920.5 616.7,956.1 611.3,951.8 
			635.6,921.6 529.6,836.7 493.9,881.2 599.7,966.1 604.9,959.8 610.3,964.1 		"/>
		<polygon id="XMLID_78_" fill="rgba(0,0,0,0.1)" points="600.8,975.8 484.2,882.3 521.2,836.2 637.8,929.7 618.7,953.6 613.3,949.2 
			628.1,930.8 522.3,845.9 493.9,881.2 599.7,966.1 604.9,959.8 610.3,964.1 		"/>
		<path id="XMLID_75_" fill="rgba(0,0,0,0.1)" d="M621,909.9l-76.9-61.6l47.6-59.3l76.9,61.6L621,909.9z M553.9,847.2l66.1,53l39-48.6
			l-66.1-53L553.9,847.2z"/>
		<path id="XMLID_41_" fill="rgba(0,0,0,0.1)" d="M549.5,852.6L531.4,838l16.3-20.3l18.1,14.5L549.5,852.6z M541.1,837l7.5,6l7.6-9.5l-7.5-6
			L541.1,837z"/>
		<path id="XMLID_38_" fill="rgba(0,0,0,0.1)" d="M633.8,920.1l-18.1-14.5l16.3-20.3l18.1,14.5L633.8,920.1z M625.3,904.5l7.5,6l7.6-9.5
			l-7.5-6L625.3,904.5z"/>
		
			<rect id="XMLID_37_" x="616.5" y="801.1" transform="matrix(-0.6255 0.7802 -0.7802 -0.6255 1657.9432 871.0853)" fill="rgba(0,0,0,0.1)" width="6.9" height="64.8"/>
		
			<rect id="XMLID_36_" x="604.1" y="816.5" transform="matrix(-0.6255 0.7802 -0.7802 -0.6255 1649.9348 905.8566)" fill="rgba(0,0,0,0.1)" width="6.9" height="64.8"/>
		
			<rect id="XMLID_35_" x="591.8" y="832" transform="matrix(-0.6255 0.7802 -0.7802 -0.6255 1641.9634 940.6318)" fill="rgba(0,0,0,0.1)" width="6.9" height="64.8"/>
	</g>
	<g id="XMLID_2736_" >
		<polygon id="XMLID_73_" fill="rgba(0,0,0,0.1)" points="677.9,650.6 495,628.3 503.3,560.5 686.2,582.7 680.6,628.8 673.8,628 
			678.5,588.7 509.3,568.1 502.6,622.3 671.9,642.8 672.2,640.4 679.1,641.2 		"/>
		<g id="XMLID_69_">
			<path id="XMLID_70_" fill="rgba(0,0,0,0.1)" d="M558.3,594.1l-48-5.9l2.1-17.5l48,5.9L558.3,594.1z M517.9,582.3l34.4,4.1l0.5-3.9
				l-34.4-4.1L517.9,582.3z"/>
		</g>
		<path id="XMLID_66_" fill="rgba(0,0,0,0.1)" d="M578.5,597l-17.9-2.1l2.1-17.9l17.9,2.1L578.5,597z M568.4,588.7l4.3,0.5l0.5-4.3l-4.3-0.5
			L568.4,588.7z"/>
		<path id="XMLID_63_" fill="rgba(0,0,0,0.1)" d="M597.2,599.3l-17.9-2.1l2.1-17.9l17.9,2.1L597.2,599.3z M587.1,591l4.3,0.5l0.5-4.3
			l-4.3-0.5L587.1,591z"/>
		<path id="XMLID_60_" fill="rgba(0,0,0,0.1)" d="M615.9,601.4l-17.9-2.1l2.1-17.9l17.9,2.1L615.9,601.4z M605.7,593.3l4.3,0.5l0.5-4.3
			l-4.3-0.5L605.7,593.3z"/>
		<path id="XMLID_57_" fill="rgba(0,0,0,0.1)" d="M634.5,603.7l-17.9-2.1l2.1-17.9l17.9,2.1L634.5,603.7z M624.4,595.5l4.3,0.5l0.5-4.3
			l-4.3-0.5L624.4,595.5z"/>
		<path id="XMLID_54_" fill="rgba(0,0,0,0.1)" d="M653.3,605.9l-17.9-2.1l2.1-17.9l17.9,2.1L653.3,605.9z M643,597.8l4.3,0.5l0.5-4.3
			l-4.3-0.5L643,597.8z"/>
		<path id="XMLID_51_" fill="rgba(0,0,0,0.1)" d="M576.1,617l-17.9-2.1l2.1-17.9l17.9,2.1L576.1,617z M565.9,608.9l4.3,0.5l0.5-4.3l-4.3-0.5
			L565.9,608.9z"/>
		<path id="XMLID_48_" fill="rgba(0,0,0,0.1)" d="M594.8,619.3l-17.9-2.1l2.1-17.9l17.9,2.1L594.8,619.3z M584.5,611.1l4.3,0.5l0.5-4.3
			l-4.3-0.5L584.5,611.1z"/>
		<path id="XMLID_45_" fill="rgba(0,0,0,0.1)" d="M531.4,611.5l-17.9-2.1l2.1-17.9l17.9,2.1L531.4,611.5z M521.2,603.4l4.3,0.5l0.5-4.3
			l-4.3-0.5L521.2,603.4z"/>
		<path id="XMLID_14_" fill="rgba(0,0,0,0.1)" d="M550,613.8l-17.9-2.1l2.1-17.9l17.9,2.1L550,613.8z M539.9,605.7l4.3,0.5l0.5-4.3l-4.3-0.5
			L539.9,605.7z"/>
		<path id="XMLID_11_" fill="rgba(0,0,0,0.1)" d="M613.5,621.5l-17.9-2.1l2.1-17.9l17.9,2.1L613.5,621.5z M603.2,613.4l4.3,0.5l0.5-4.3
			l-4.3-0.5L603.2,613.4z"/>
		<path id="XMLID_8_" fill="rgba(0,0,0,0.1)" d="M632.1,623.8l-17.9-2.1l2.1-17.9l17.9,2.1L632.1,623.8z M621.8,615.7l4.3,0.5l0.5-4.3
			l-4.3-0.5L621.8,615.7z"/>
		<path id="XMLID_2738_" fill="rgba(0,0,0,0.1)" d="M650.8,626l-17.9-2.1l2.1-17.9l17.9,2.1L650.8,626z M640.6,617.9l4.3,0.5l0.5-4.3
			l-4.3-0.5L640.6,617.9z"/>
	</g>
	<path id="XMLID_2735_"  fill="rgba(0,0,0,0.1)" enable-background="new    " d="M589.1,564.9l-6.4-2.7
		c5.2-12.4,17.7-20.3,31.2-19.7l8.3,0.4c8.7,0.4,16.8-3.6,21.9-10.7l4.3-6l5.6,4l-4.3,6c-6.4,9.1-16.8,14.1-27.7,13.6l-8.3-0.4
		C603.1,548.9,593.2,555.2,589.1,564.9z"/>
</g>
</svg>
