<?xml version="1.0" standalone="no"?>
<!DOCTYPE svg PUBLIC "-//W3C//DTD SVG 1.1//EN" "http://www.w3.org/Graphics/SVG/1.1/DTD/svg11.dtd" >
<svg xmlns="http://www.w3.org/2000/svg">
<metadata>Generated by IcoMoon</metadata>
<defs>
<font id="icomoon" horiz-adv-x="1024">
<font-face units-per-em="1024" ascent="960" descent="-64" />
<missing-glyph horiz-adv-x="1024" />
<glyph unicode="&#x20;" horiz-adv-x="512" d="" />
<glyph unicode="&#xe900;" glyph-name="arrow-down" d="M548.549 181.060l460.335 460.488c20.155 20.206 20.155 52.943 0 73.2-20.155 20.206-52.892 20.206-73.047 0l-423.81-423.963-423.81 423.912c-20.155 20.206-52.892 20.206-73.098 0-20.155-20.206-20.155-52.994 0-73.2l460.331-460.488c19.947-19.896 53.198-19.896 73.098 0.051z" />
<glyph unicode="&#xe901;" glyph-name="arrow-left" d="M245.060 411.451l460.488-460.335c20.206-20.155 52.943-20.155 73.2 0 20.206 20.155 20.206 52.892 0 73.047l-423.963 423.81 423.912 423.81c20.206 20.155 20.206 52.892 0 73.098-20.206 20.155-52.994 20.155-73.2 0l-460.488-460.331c-19.896-19.947-19.896-53.198 0.051-73.098z" />
<glyph unicode="&#xe902;" glyph-name="arrow-right" d="M778.94 484.549l-460.488 460.335c-20.206 20.155-52.943 20.155-73.2 0-20.206-20.155-20.206-52.892 0-73.047l423.963-423.81-423.912-423.81c-20.206-20.155-20.206-52.892 0-73.098 20.206-20.155 52.994-20.155 73.2 0l460.488 460.331c19.896 19.947 19.896 53.198-0.051 73.098z" />
<glyph unicode="&#xe903;" glyph-name="arrow-top" d="M475.451 714.94l-460.335-460.488c-20.155-20.206-20.155-52.943 0-73.2 20.155-20.206 52.892-20.206 73.047 0l423.81 423.963 423.81-423.912c20.155-20.206 52.892-20.206 73.098 0 20.155 20.206 20.155 52.994 0 73.2l-460.331 460.488c-19.947 19.896-53.198 19.896-73.098-0.051z" />
<glyph unicode="&#xe904;" glyph-name="bigben" d="M750.934-29.866h-85.334v341.332h34.134c10.24 0 17.066 6.826 17.066 17.066v341.334c0 10.24-6.826 17.066-17.066 17.066h-11.946l-40.96 76.8c-3.414 5.12-8.534 8.534-15.36 8.534h-17.068v34.134c0 10.24-6.826 17.066-17.066 17.066h-8.534l-59.734 75.094v44.374c0 10.24-6.826 17.066-17.066 17.066s-17.066-6.826-17.066-17.066v-44.374l-59.734-75.094h-8.534c-10.24 0-17.066-6.826-17.066-17.066v-34.134h-17.066c-6.826 0-11.946-3.414-15.36-8.534l-40.96-76.8h-11.946c-10.24 0-17.066-6.826-17.066-17.066v-341.334c0-10.24 6.826-17.066 17.066-17.066h34.132v-341.334h-85.334c-10.24 0-17.066-6.826-17.066-17.066s6.826-17.066 17.066-17.066h477.866c10.24 0 17.066 6.826 17.066 17.066s-6.824 17.068-17.064 17.068zM460.8 21.334c0-10.24-6.826-17.066-17.066-17.066s-17.066 6.826-17.066 17.066v238.932c0 10.24 6.826 17.066 17.066 17.066s17.066-6.826 17.066-17.066v-238.932zM529.066 21.334c0-10.24-6.826-17.066-17.066-17.066s-17.066 6.826-17.066 17.066v238.932c0 10.24 6.826 17.066 17.066 17.066s17.066-6.826 17.066-17.066v-238.932zM597.334 21.334c0-10.24-6.826-17.066-17.066-17.066s-17.066 6.826-17.066 17.066v238.932c0 10.24 6.826 17.066 17.066 17.066s17.066-6.826 17.066-17.066v-238.932zM512 379.734c-66.56 0-119.466 52.906-119.466 119.466s52.906 119.466 119.466 119.466c66.56 0 119.466-52.906 119.466-119.466s-52.906-119.466-119.466-119.466zM546.134 516.266h-17.066v34.134c0 10.24-6.826 17.066-17.066 17.066s-17.066-6.826-17.066-17.066v-51.2c0-10.24 6.826-17.066 17.066-17.066h34.134c10.24 0 17.066 6.826 17.066 17.066s-6.828 17.066-17.068 17.066z" />
<glyph unicode="&#xe905;" glyph-name="blank" d="M572 900v60h-120v-60h-104v-120h326v120zM734 840v-120h-446v120h-126v-904h700v904h-128zM312 350h200v-60h-200v60zM485.132 45.624l-86.546 85.672 42.21 42.64 44.004-43.558 98.236 98.778 42.542-42.31-140.446-141.222zM712 410h-400v60h400v-60zM712 530h-400v60h400v-60z" />
<glyph unicode="&#xe906;" glyph-name="bottom" d="M861.181 270.45c14.438 13.95 14.438 37.168 0 51.606-13.95 13.95-37.168 13.95-51.086 0l-261.674-261.674v863.49c-0.033 20.129-16.032 36.128-36.16 36.128s-36.648-15.999-36.648-36.128v-863.49l-261.187 261.674c-14.438 13.95-37.689 13.95-51.606 0-14.438-14.438-14.438-37.689 0-51.606l323.622-323.622c13.95-14.438 37.168-14.438 51.086 0l323.654 323.622z" />
<glyph unicode="&#xe907;" glyph-name="businessman" d="M211.38 238.538h-139.656c-25.709 0-46.538-20.829-46.538-46.538v-209.462c0-25.709 20.85-46.538 46.538-46.538h139.634c25.709 0 46.559 20.85 46.559 46.538v209.462c0 25.709-20.85 46.538-46.538 46.538zM572.263 401.462h-139.634c-25.709 0-46.538-20.85-46.538-46.581v-372.366c0-25.709 20.85-46.538 46.538-46.538h139.634c25.709 0 46.559 20.85 46.559 46.538v372.387c0 25.709-20.85 46.559-46.559 46.559zM933.213 587.634h-139.634c-25.709 0-46.559-20.85-46.559-46.538v-558.559c0-25.709 20.85-46.538 46.559-46.538h139.634c25.709 0 46.559 20.85 46.559 46.538v558.559c-0.022 25.709-20.829 46.538-46.559 46.538zM896.523 926.862c0-18.302-14.837-33.138-33.138-33.138s-33.138 14.837-33.138 33.138c0 18.302 14.837 33.138 33.138 33.138s33.138-14.837 33.138-33.138zM995.045 937.603c-6.144 8.257-17.844 9.935-26.101 3.747l-75.95-56.865h-12.005c-5.12 0-9.586-2.222-12.963-5.599l8.693-63.793-13.334-11.308-13.334 11.308 8.693 63.793c-3.377 3.377-7.8 5.599-12.963 5.599h-11.983l-75.929 56.865c-8.236 6.188-19.957 4.51-26.123-3.747-6.188-8.257-4.51-19.957 3.747-26.123l80.961-60.59c3.116-2.331 6.819-3.617 10.698-3.704v-84.273l-34.467-120.614c-2.832-9.913 2.919-20.262 12.833-23.094 1.678-0.479 3.421-0.719 5.12-0.719 8.127 0 15.6 5.36 17.931 13.552l34.816 121.878 34.816-121.878c2.331-8.192 9.826-13.552 17.953-13.552 1.699 0 3.442 0.24 5.142 0.719 9.913 2.832 15.643 13.159 12.811 23.094l-34.467 120.614v84.251c3.878 0.087 7.626 1.373 10.719 3.704l80.961 60.612c8.214 6.188 9.957 17.866 3.726 26.123z" />
<glyph unicode="&#xe908;" glyph-name="c" d="M630.298 464.976l-2.77-17.724h21.444l2.77 17.724zM1011.498 947.502c-7.998 8.004-18.852 12.498-30.17 12.498l-938.668-0.060c-23.56-0.002-42.66-19.1-42.66-42.666v-938.606c0-23.564 19.1-42.668 42.666-42.668h938.666c23.564 0 42.666 19.104 42.666 42.666v938.668c0.002 11.318-4.496 22.168-12.5 30.168zM370.066 287.574c-62.284 0-99.474 38.17-99.474 102.104v117.014c0 62.756 38.55 101.74 100.606 101.74 65.052 0 99.088-42.444 99.088-84.372 0-32.882-23.628-36.432-33.79-36.432-21.868 0-32.7 14.694-33.732 29.26-0.012 0.174-0.022 0.344-0.032 0.518-0.84 17.992-9.976 25.33-31.536 25.33-20.916 0-33.022-5.896-33.022-36.044v-117.014c0.002-26.888 9.034-36.42 34.534-36.42 26.7 0 28.006 10.442 30.166 27.742 2.168 17.316 15.36 28.504 33.622 28.504 10.16 0 33.79-3.586 33.79-36.81 0-42.298-34.426-85.12-100.22-85.12zM741.212 464.976h-23.372l-2.878-17.72h11.906c16.682 0 30.776-14.264 30.776-31.146 0-16.968-13.128-30.772-29.26-30.772h-23.634l-8.894-57.068c-0.1-0.632-0.222-1.252-0.378-1.868-3.422-13.75-16.572-23.728-31.266-23.728-18.526 0-33.038 14.18-33.038 32.282 0 1.078 0.082 2.156 0.244 3.22l7.2 47.164h-21.16l-8.878-56.71c-2.398-16.762-17.908-25.956-31.27-25.956-18.522 0-33.032 14.18-33.032 32.282 0 1.042 0.076 2.080 0.228 3.112l6.966 47.272h-11.15c-17.61 0-30.396 12.942-30.396 30.772 0 17.468 12.69 31.146 28.882 31.146h23.15l2.662 17.72h-11.466c-17.61 0-30.396 13.102-30.396 31.152 0 17.252 12.69 30.766 28.882 30.766h23.298l8.098 51.086c0.068 0.44 0.154 0.878 0.254 1.314 2.938 13.152 15.378 22.34 30.256 22.34 19.046 0 33.41-13.878 33.41-32.282 0-1.126-0.088-2.252-0.268-3.368l-6.246-39.094h21.774l8.098 51.086c0.068 0.43 0.15 0.856 0.242 1.28 2.922 13.172 15.366 22.374 30.268 22.374 19.044 0 33.41-13.878 33.41-32.282 0-1.126-0.088-2.252-0.268-3.368l-6.246-39.094h11.98c16.678 0 30.766-14.088 30.766-30.766 0.006-17.172-13.122-31.146-29.254-31.146z" />
<glyph unicode="&#xe909;" glyph-name="calendar" d="M592.842 421.080v0c-29.799 0-53.896-24.128-53.896-53.923 0-29.74 24.155-53.896 53.896-53.896v0c29.74 0 53.896 24.155 53.896 53.896 0.003 29.795-24.1 53.923-53.896 53.923zM431.155 474.948c29.754 0 53.896 24.142 53.896 53.896 0 29.775-24.142 53.889-53.896 53.889-29.747 0-53.889-24.114-53.889-53.889 0-29.754 24.142-53.896 53.889-53.896zM592.842 582.732v0c-29.799 0-53.896-24.114-53.896-53.889 0-29.754 24.1-53.896 53.896-53.896v0c29.74 0 53.896 24.142 53.896 53.896 0.003 29.775-24.1 53.889-53.896 53.889zM646.741 852.214h-269.475v-107.791h269.475v107.791zM754.532 474.948c29.727 0 53.896 24.142 53.896 53.896 0 29.775-24.114 53.889-53.896 53.889-29.799 0-53.896-24.114-53.896-53.889 0-29.754 24.155-53.896 53.896-53.896zM754.532 313.261c29.727 0 53.896 24.155 53.896 53.896 0 29.795-24.114 53.896-53.896 53.896-29.799 0-53.896-24.1-53.896-53.896 0-29.74 24.155-53.896 53.896-53.896zM431.155 313.261c29.754 0 53.896 24.155 53.896 53.896 0 29.795-24.114 53.923-53.896 53.923-29.775 0-53.889-24.128-53.889-53.923 0-29.74 24.142-53.896 53.889-53.896zM269.475 151.571c29.747 0 53.896 24.169 53.896 53.896 0 29.795-24.149 53.896-53.896 53.896-29.775 0-53.896-24.1-53.896-53.896 0-29.727 24.145-53.896 53.896-53.896zM916.205 852.214h-53.878v-107.791h53.878v-700.626h-808.414v700.623h53.889v107.795h-53.889c-59.529 0-107.791-48.246-107.791-107.795v-700.602c0-59.563 48.263-107.819 107.791-107.819h808.411c59.539 0 107.791 48.259 107.791 107.819v700.602c0.003 59.549-48.252 107.795-107.788 107.795zM269.475 313.261c29.747 0 53.896 24.155 53.896 53.896 0 29.795-24.149 53.923-53.896 53.923-29.775 0-53.896-24.128-53.896-53.923 0-29.74 24.145-53.896 53.896-53.896zM269.475 474.948c29.747 0 53.896 24.142 53.896 53.896 0 29.775-24.149 53.889-53.896 53.889-29.775 0-53.896-24.114-53.896-53.889 0-29.754 24.145-53.896 53.896-53.896zM431.155 151.571c29.754 0 53.896 24.169 53.896 53.896 0 29.795-24.142 53.896-53.896 53.896-29.747 0-53.889-24.1-53.889-53.896 0-29.727 24.142-53.896 53.889-53.896zM269.475 744.419c29.747 0 53.896 24.142 53.896 53.896v107.784c0 29.785-24.121 53.899-53.896 53.899-29.751 0-53.896-24.114-53.896-53.896v-107.784c0-29.757 24.145-53.899 53.896-53.899zM754.532 744.419c29.727 0 53.896 24.142 53.896 53.896v107.784c0 29.785-24.169 53.899-53.896 53.899-29.799 0-53.896-24.114-53.896-53.896v-107.784c0-29.757 24.155-53.899 53.896-53.899z" />
<glyph unicode="&#xe90a;" glyph-name="calendar-clock" d="M128.001 799.996v128.003c0 17.689 14.311 32 32.004 32 17.685 0 31.996-14.311 31.996-32v-128.003c0-17.685-14.311-31.996-31.996-31.996-17.694-0.002-32.004 14.311-32.004 31.996zM672.006 767.998c17.681 0 32 14.311 32 31.996v128.005c0 17.689-14.319 32-32 32-17.689 0-32.011-14.311-32.011-32v-128.003c0-17.685 14.321-31.998 32.011-31.998zM1023.998 192.007c0-141.389-114.621-256.008-255.999-256.008-141.368 0-255.997 114.619-255.997 256.008 0 141.368 114.627 255.993 255.997 255.993 141.379 0 255.999-114.623 255.999-255.993zM960.006 192.007c0 105.86-86.126 191.997-192.005 191.997-105.871 0-191.997-86.134-191.997-191.997 0-105.882 86.126-192.005 191.997-192.005 105.879 0 192.005 86.124 192.005 192.005zM256.004 575.999h-128.003v-127.999h128.003v127.999zM128.001 255.999h128.003v128.005h-128.003v-128.005zM320 448h128.005v127.999h-128.005v-127.999zM320 255.999h128.005v128.005h-128.005v-128.005zM64.005 198.37v441.631h703.996v-128.003h64.003v249.622c0 38.876-31.006 70.38-69.312 70.38h-26.69v-32.007c0-35.246-28.693-63.998-63.992-63.998-35.309 0-64 28.752-64 63.998v32.007h-384.009v-32.007c0-35.246-28.687-63.998-63.992-63.998-35.314 0-64.003 28.752-64.003 63.998v32.007h-26.659c-38.308 0-69.344-31.504-69.344-70.38v-563.252c0-38.747 31.036-70.374 69.344-70.374h378.659v64.011h-378.659c-2.9 0.002-5.341 2.997-5.341 6.365zM639.996 448v127.999h-127.992v-127.999h127.992zM864.001 192.007h-96.003v96.003c0 17.679-14.311 31.99-32 31.99s-31.992-14.311-31.992-31.99v-128.013c0-17.681 14.302-32 31.992-32h128.003c17.689 0 32 14.319 32 32 0 17.689-14.311 32.011-32 32.011z" />
<glyph unicode="&#xe90b;" glyph-name="city" d="M224 640h-64v-64h64v64zM480 704h-64v-64h64v64zM608 704h-64v-64h64v64zM736 704h-64v-64h64v64zM480 832h-64v-64h64v64zM608 832h-64v-64h64v64zM736 832h-64v-64h64v64zM480 448h-64v-64h64v64zM608 448h-64v-64h64v64zM736 448h-64v-64h64v64zM480 320h-64v-64h64v64zM736 320h-64v-64h64v64zM480 192h-64v-64h64v64zM736 192h-64v-64h64v64zM480 576h-64v-64h64v64zM608 576h-64v-64h64v64zM736 576h-64v-64h64v64zM224 512h-64v-64h64v64zM224 384h-64v-64h64v64zM224 256h-64v-64h64v64zM224 128h-64v-64h64v64zM608 320h-64v-64h64v64zM928 512h-64v384c0 35.376-28.624 64-64 64h-448c-35.376 0-64-28.624-64-64v-128h-192c-35.376 0-64-28.624-64-64v-704c0-35.376 28.624-64 64-64h832c35.376 0 64 28.624 64 64v448c0 35.376-28.624 64-64 64zM288 0h-192v704h192v-704zM800 0h-192v192h-64v-192h-192v896h448v-896zM928 0h-64v64h64v-64zM928 128h-64v64h64v-64zM928 256h-64v64h64v-64zM928 384h-64v64h64v-64z" />
<glyph unicode="&#xe90c;" glyph-name="clock" d="M512 960c-282.317 0-512-229.683-512-512s229.683-512 512-512 512 229.683 512 512-229.683 512-512 512zM512 44.945c-222.243 0-403.066 180.802-403.066 403.055s180.823 403.055 403.066 403.055 403.066-180.802 403.066-403.055-180.823-403.055-403.066-403.055zM778.834 463.809h-230.094v276.657c0 23.281-18.876 42.157-42.157 42.157s-42.157-18.876-42.157-42.157v-318.814c0-23.281 18.876-42.157 42.157-42.157h272.252c23.281 0 42.157 18.876 42.157 42.157s-18.876 42.157-42.157 42.157z" />
<glyph unicode="&#xe90d;" glyph-name="close" d="M1024 857.6l-102.4 102.4-409.6-409.6-409.6 409.6-102.4-102.4 409.6-409.6-409.6-409.6 102.4-102.4 409.6 409.6 409.6-409.6 102.4 102.4-409.6 409.6z" />
<glyph unicode="&#xe90e;" glyph-name="code" d="M638.469 821.8l-34.702 9.513c-4.467 1.49-8.867 1.021-13.145-1.401-4.292-2.424-7.191-6.064-8.681-10.913l-208.72-722.405c-1.49-4.851-1.023-9.425 1.401-13.71 2.424-4.292 6.056-7.183 10.913-8.673l34.693-9.517c4.476-1.501 8.861-1.031 13.151 1.395 4.292 2.436 7.185 6.064 8.673 10.905l208.726 722.417c1.488 4.849 1.025 9.423-1.403 13.718-2.426 4.292-6.054 7.183-10.905 8.671zM325.675 680.779c0 4.849-1.868 9.143-5.598 12.871l-27.982 27.98c-3.73 3.73-8.022 5.6-12.871 5.6s-9.143-1.872-12.871-5.6l-260.756-260.756c-3.736-3.73-5.598-8.022-5.598-12.871s1.868-9.141 5.598-12.869l260.754-260.756c3.728-3.736 8.014-5.594 12.871-5.594s9.143 1.864 12.871 5.594l27.982 27.964c3.73 3.728 5.598 8.022 5.598 12.877 0 4.843-1.868 9.135-5.598 12.863l-219.909 219.921 219.911 219.906c3.736 3.728 5.598 8.022 5.598 12.871zM1018.404 460.88l-260.762 260.756c-3.728 3.728-8.022 5.6-12.863 5.6-4.857 0-9.135-1.872-12.877-5.6l-27.97-27.978c-3.728-3.73-5.588-8.016-5.588-12.871s1.858-9.143 5.588-12.871l219.915-219.911-219.915-219.923c-3.728-3.728-5.588-8.022-5.588-12.863 0-4.857 1.858-9.149 5.588-12.877l27.97-27.964c3.741-3.736 8.022-5.594 12.877-5.594 4.843 0 9.135 1.864 12.863 5.594l260.762 260.754c3.73 3.728 5.594 8.028 5.594 12.877 0 4.851-1.864 9.143-5.594 12.871z" />
<glyph unicode="&#xe90f;" glyph-name="copy" d="M108.606 122.182h139.636v-139.636c0-25.706 20.84-46.545 46.545-46.545h620.606c25.706 0 46.545 20.84 46.545 46.545v744.727c0 25.706-20.84 46.545-46.545 46.545h-139.636v139.636c0 25.706-20.84 46.545-46.545 46.545h-620.606c-25.706 0-46.545-20.84-46.545-46.545v-744.727c0-25.706 20.84-46.545 46.545-46.545zM868.848 29.091h-527.515v651.636h527.515v-651.636zM155.152 866.909h527.515v-93.091h-387.879c-25.706 0-46.545-20.84-46.545-46.545v-512h-93.091v651.636zM480.97 587.636c-25.706 0-46.545-20.84-46.545-46.545s20.84-46.545 46.545-46.545h248.242c25.706 0 46.545 20.84 46.545 46.545s-20.84 46.545-46.545 46.545h-248.242zM729.212 401.455h-248.242c-25.706 0-46.545-20.84-46.545-46.545s20.84-46.545 46.545-46.545h248.242c25.706 0 46.545 20.84 46.545 46.545s-20.84 46.545-46.545 46.545zM729.212 215.273h-248.242c-25.706 0-46.545-20.84-46.545-46.545s20.84-46.545 46.545-46.545h248.242c25.706 0 46.545 20.84 46.545 46.545s-20.84 46.545-46.545 46.545z" />
<glyph unicode="&#xe910;" glyph-name="dedent" d="M405.334 874.666h-42.666c-11.792 0-21.334-9.542-21.334-21.334v-810.666c0-11.792 9.542-21.334 21.334-21.334h42.666c11.792 0 21.334 9.542 21.334 21.334v810.668c-0.002 11.79-9.542 21.332-21.334 21.332zM289.312 645.312c-14.688 18.416-41.584 21.376-59.958 6.666l-213.334-170.666c-10.124-8.082-16.020-20.354-16.020-33.312s5.896-25.23 16.020-33.312l213.334-170.668c7.854-6.292 17.27-9.354 26.626-9.354 12.5 0 24.916 5.48 33.334 16.020 14.73 18.396 11.75 45.25-6.666 59.958l-171.69 137.356 171.688 137.354c18.416 14.708 21.396 41.562 6.666 59.958zM1002.666 362.666h-469.332c-11.792 0-21.334-9.542-21.334-21.334v-42.666c0-11.792 9.542-21.334 21.334-21.334h469.334c11.792 0 21.334 9.542 21.334 21.334v42.666c-0.002 11.792-9.544 21.334-21.336 21.334zM1002.666 618.666h-469.332c-11.792 0-21.334-9.542-21.334-21.334v-42.666c0-11.792 9.542-21.334 21.334-21.334h469.334c11.792 0 21.334 9.542 21.334 21.334v42.666c-0.002 11.792-9.544 21.334-21.336 21.334zM1002.666 874.666h-469.332c-11.792 0-21.334-9.542-21.334-21.334v-42.666c0-11.792 9.542-21.334 21.334-21.334h469.334c11.792 0 21.334 9.542 21.334 21.334v42.666c-0.002 11.792-9.544 21.334-21.336 21.334zM1002.666 106.666h-469.332c-11.792 0-21.334-9.542-21.334-21.334v-42.666c0-11.792 9.542-21.334 21.334-21.334h469.334c11.792 0 21.334 9.542 21.334 21.334v42.666c-0.002 11.792-9.544 21.334-21.336 21.334z" />
<glyph unicode="&#xe911;" glyph-name="desktop-monitor" d="M1000.063 865.276c-16.736 16.703-36.831 25.092-60.318 25.092h-854.303c-23.495 0-43.622-8.389-60.359-25.092-16.728-16.736-25.084-36.864-25.084-60.35v-580.927c0-23.486 8.356-43.614 25.084-60.318 16.736-16.736 36.864-25.125 60.359-25.125h290.464c0-13.5-2.851-27.394-8.544-41.632-5.702-14.238-11.395-26.69-17.089-37.372-5.702-10.691-8.544-18.498-8.544-23.495 0-9.241 3.391-17.277 10.142-24.027s14.787-10.142 24.035-10.142h273.375c9.249 0 17.277 3.391 24.027 10.142 6.758 6.75 10.15 14.787 10.15 24.027 0 4.612-2.851 12.386-8.544 23.233-5.702 10.854-11.395 23.495-17.089 37.888-5.702 14.434-8.544 28.23-8.544 41.378h290.464c23.486 0 43.581 8.389 60.318 25.125 16.736 16.703 25.125 36.831 25.125 60.318v580.927c0 23.486-8.389 43.614-25.125 60.35v0zM956.834 360.698c0-4.637-1.696-8.634-5.087-12.026-3.359-3.367-7.397-5.063-12.001-5.063h-854.303c-4.645 0-8.643 1.696-12.034 5.063-3.359 3.391-5.054 7.389-5.054 12.026v444.228c0 4.637 1.663 8.643 5.054 12.034 3.391 3.359 7.389 5.054 12.034 5.054h854.303c4.637 0 8.643-1.696 12.001-5.054 3.391-3.391 5.087-7.397 5.087-12.034v-444.228zM527.417 646.926l135.168-135.168c8.593-8.618 8.593-22.561 0-31.154-8.593-8.577-22.536-8.577-31.13 0l-119.603 119.603-119.587-119.579c-8.593-8.593-22.536-8.593-31.13 0-8.618 8.593-8.618 22.536 0 31.13l135.168 135.168c4.293 4.301 9.912 6.439 15.54 6.439 5.636 0 11.297-2.138 15.573-6.439v0z" />
<glyph unicode="&#xe912;" glyph-name="diagram" d="M536.337 904.021v31.445c0 13.594-11.006 24.534-24.305 24.534-13.561 0-24.436-10.94-24.436-24.534v-31.445h-426.967v-126.141h902.772v126.141h-427.065zM133.642 236.99h332.271v-156.604h-120.049v22.405h-44.711v-166.791h44.678v83.363h336.693v-83.363h44.744v166.791h-44.744v-22.437h-124.536v156.604h332.14v504.335h-756.486v-504.302zM619.045 589.11h219.232v-50.083h-219.232v50.083zM619.045 496.576h219.232v-50.149h-219.232v50.149zM617.931 399.129h219.199v-50.083h-219.199v50.083zM398.797 668.608c87.26 0 158.012-70.621 158.012-157.881h-158.012c0.033 0 0.033 157.881 0 157.881zM354.381 625.665v-158.012h158.012c0-87.359-70.719-158.012-158.012-158.012s-157.947 70.653-157.947 158.012c0 87.293 70.686 158.012 157.947 158.012z" />
<glyph unicode="&#xe913;" glyph-name="document" d="M64 64v768c0 35.312 28.752 64 64 64h640c35.312 0 64-28.688 64-64v-376.248l64 64v312.248c0 70.688-57.312 128-128 128h-640c-70.688 0-128-57.312-128-128v-768c0-70.688 57.312-128 128-128h352v64h-352c-35.248 0-64 28.688-64 64zM704 768h-512v-64h512v64zM704 640h-512v-64h512v64zM704 512h-512v-64h512v64zM192 320h256v64h-256v-64zM1005.248 384l-45.248 45.248c-12.504 12.504-28.872 18.752-45.248 18.752s-32.752-6.248-45.248-18.752l-274.752-274.752c-12.504-12.496-50.752-60.84-50.752-77.216l-32-141.28 141.248 32c0 0 64.752 38.248 77.248 50.752l274.752 274.752c25 24.992 25 65.528 0 90.496zM707.936 41.44c-3.624-3.44-16.16-11.904-31.472-21.656l-82.904 82.904c8.504 11.656 17.968 23.376 23.816 29.184l206.872 206.872 90.504-90.504-206.816-206.8z" />
<glyph unicode="&#xe914;" glyph-name="envelope" d="M898.993 837.641h-773.774c-69.072 0-125.219-56.147-125.219-125.219v-528.844c0-69.072 56.147-125.219 125.219-125.219h773.562c69.072 0 125.219 56.147 125.219 125.219v528.632c0.212 69.072-55.935 125.431-125.007 125.431zM967.005 183.578c0-37.502-30.51-68.012-68.012-68.012h-773.774c-37.502 0-68.012 30.51-68.012 68.012v528.632c0 37.502 30.51 68.012 68.012 68.012h773.562c37.502 0 68.012-30.51 68.012-68.012v-528.632h0.212zM645.8 454.568l250.438 224.589c11.653 10.594 12.713 28.603 2.119 40.468-10.594 11.653-28.603 12.713-40.468 2.119l-345.359-309.976-67.377 60.173c-0.212 0.212-0.424 0.424-0.424 0.636-1.483 1.483-2.966 2.754-4.661 4.026l-274.168 245.353c-11.865 10.594-29.875 9.534-40.468-2.331s-9.534-29.875 2.331-40.468l253.405-226.496-252.345-236.242c-11.441-10.806-12.077-28.815-1.271-40.468 5.721-5.933 13.348-9.111 20.976-9.111 6.992 0 13.984 2.543 19.493 7.628l256.159 239.633 69.496-62.080c5.509-4.873 12.289-7.204 19.069-7.204s13.772 2.543 19.069 7.416l71.402 63.987 254.676-241.963c5.509-5.297 12.713-7.839 19.705-7.839 7.628 0 15.043 2.966 20.764 8.899 10.806 11.441 10.382 29.663-1.059 40.468l-251.498 238.785z" />
<glyph unicode="&#xe915;" glyph-name="facebook" d="M1024 789.322c0 89.68-80.964 170.678-170.667 170.678h-682.667c-89.702 0-170.667-80.998-170.667-170.678v-682.644c0-89.68 80.964-170.678 170.678-170.678h341.322v386.844h-125.156v170.667h125.156v66.492c0 114.677 86.107 217.953 192 217.953h137.956v-170.667h-137.956c-15.098 0-32.711-18.33-32.711-45.784v-67.994h170.667v-170.667h-170.667v-386.844h182.044c89.702 0 170.667 80.998 170.667 170.678v682.644z" />
<glyph unicode="&#xe916;" glyph-name="html5" d="M76.478 960c-9.411 0-16.424-7.669-15.589-17.043l79.342-889.956c0.835-9.374 8.936-19.103 18.008-21.622l336.688-93.483c9.069-2.519 23.908-2.519 32.981-0.007l337.711 93.637c9.069 2.515 17.18 12.245 18.015 21.615l79.472 889.815c0.842 9.374-6.177 17.043-15.589 17.043h-871.041zM794.139 755.891c-0.749-8.361-2.047-22.875-2.882-32.248l-2.091-23.35c-0.842-9.37-2.040-22.772-2.673-29.777-0.63-7.009-1.229-12.741-1.338-12.741-0.106 0-7.895 0-17.307 0h-238.739c-9.411 0-17.19 0-17.293 0s-7.888 0-17.3 0h-125.735c-9.411 0-16.424-7.669-15.589-17.043l7.334-81.981c0.835-9.37 9.223-17.043 18.634-17.043h115.358c9.411 0 17.197 0 17.3 0s7.882 0 17.293 0h198.284c9.411 0 23.977 0 32.365 0 8.381 0 14.623-6.841 13.864-15.202-0.763-8.361-2.067-22.878-2.902-32.248l-23.583-264.296c-0.842-9.374-1.906-21.348-2.365-26.612-0.469-5.26-8.268-11.622-17.337-14.137l-198.948-55.164c-9.069-2.512-16.605-4.593-16.745-4.624s-7.673 2.005-16.745 4.521l-199.16 55.263c-9.069 2.515-17.173 12.245-18.008 21.619l-12.82 143.89c-0.835 9.374 6.184 17.043 15.595 17.043h18.176c9.411 0 24.812 0 34.223 0h27.105c9.411 0 17.792-7.669 18.634-17.043l5.027-56.327c0.835-9.374 8.949-19.048 18.039-21.502l93.158-25.157c9.083-2.454 16.55-4.463 16.591-4.463s7.505 2.012 16.591 4.466l93.326 25.219c9.083 2.454 17.204 12.132 18.046 21.502l10.12 112.853c0.842 9.374-6.17 17.043-15.582 17.043h-104.948c-9.411 0-17.19 0-17.293 0s-7.888 0-17.3 0h-218.989c-9.411 0-17.792 7.673-18.628 17.043l-24.832 278.253c-0.835 9.374-2.132 23.884-2.882 32.248-0.743 8.361 6.345 15.202 15.756 15.202h249.574c9.411 0 17.197 0 17.3 0s7.882 0 17.293 0h249.273c9.408 0 16.499-6.841 15.753-15.205z" />
<glyph unicode="&#xe917;" glyph-name="information" d="M512 960c-282.752 0-512-229.248-512-512s229.248-512 512-512 512 229.248 512 512-229.248 512-512 512zM512 0c-247 0-448 201-448 448s201 448 448 448 448-201 448-448-201-448-448-448zM512 576c-35.312 0-64-28.688-64-64v-320c0-35.312 28.688-64 64-64s64 28.688 64 64v320c0 35.312-28.688 64-64 64zM512 768c-35.312 0-64-28.688-64-64s28.688-64 64-64 64 28.688 64 64-28.688 64-64 64z" />
<glyph unicode="&#xe918;" glyph-name="instagram" d="M741.403 960h-458.823c-155.814 0-282.579-126.771-282.579-282.585v-458.823c0-155.82 126.765-282.585 282.579-282.585h458.823c155.826 0 282.591 126.771 282.591 282.585v458.823c0.006 155.814-126.765 282.585-282.591 282.585zM933.146 218.591c0-105.723-86.014-191.732-191.738-191.732h-458.829c-105.717-0.006-191.726 86.008-191.726 191.732v458.823c0 105.717 86.008 191.732 191.726 191.732h458.823c105.723 0 191.738-86.014 191.738-191.732v-458.823zM511.997 711.848c-145.493 0-263.857-118.364-263.857-263.857 0-145.487 118.364-263.845 263.857-263.845s263.857 118.358 263.857 263.845c0 145.493-118.364 263.857-263.857 263.857zM511.997 275.005c-95.39 0-173.004 77.601-173.004 172.992 0 95.396 77.607 173.004 173.004 173.004s173.004-77.607 173.004-173.004c0-95.39-77.613-172.992-173.004-172.992zM786.92 788.886c-17.504 0-34.7-7.087-47.062-19.503-12.423-12.356-19.564-29.558-19.564-47.123 0-17.511 7.147-34.706 19.564-47.123 12.356-12.356 29.558-19.503 47.062-19.503 17.565 0 34.706 7.147 47.123 19.503 12.417 12.417 19.503 29.618 19.503 47.123 0 17.565-7.087 34.767-19.503 47.123-12.356 12.417-29.558 19.503-47.123 19.503z" />
<glyph unicode="&#xe919;" glyph-name="java" d="M506.929 770.265c-47.315-33.278-100.943-70.998-129.675-133.402-49.907-108.866 102.124-227.623 108.621-232.625 1.511-1.165 3.317-1.742 5.12-1.742 1.914 0 3.831 0.655 5.389 1.957 3.018 2.525 3.874 6.812 2.061 10.304-0.551 1.061-55.121 107.060-53.093 183.107 0.718 26.483 37.784 56.528 77.025 88.339 35.941 29.135 76.679 62.158 100.516 100.788 52.328 85.032-5.832 168.644-6.426 169.476-2.31 3.243-6.574 4.422-10.22 2.82-3.643-1.605-5.661-5.546-4.828-9.438 0.118-0.551 11.428-55.843-20.043-112.807-12.97-23.538-41.457-43.579-74.446-66.778zM706.272 732.767c3.337 2.515 4.318 7.101 2.296 10.76s-6.423 5.274-10.331 3.79c-8.038-3.055-196.832-75.826-196.832-163.759 0-60.611 25.892-92.633 44.797-116.017 7.416-9.169 13.819-17.089 15.927-23.851 5.939-19.486-8.132-54.705-14.047-66.63-1.706-3.431-0.87-7.584 2.031-10.089 1.568-1.353 3.525-2.038 5.486-2.038 1.669 0 3.344 0.497 4.791 1.504 3.247 2.26 79.335 56.055 65.687 120.869-5.083 24.633-17.19 42.635-27.873 58.519-16.548 24.606-28.501 42.383-10.368 75.215 21.252 38.287 117.464 110.998 118.434 111.726zM214.838 363.534c-3.237-9.686-1.709-19.305 4.415-27.809 20.467-28.41 92.959-44.059 204.135-44.059 0.007 0 0.010 0 0.013 0 15.065 0 30.968 0.295 47.258 0.88 177.749 6.366 243.678 61.739 246.397 64.092 2.965 2.565 3.757 6.839 1.914 10.297-1.843 3.455-5.818 5.19-9.615 4.146-62.598-17.092-179.495-23.159-260.575-23.159-90.726 0-136.93 6.533-148.241 11.358 5.805 7.97 41.604 22.202 85.965 30.928 4.24 0.833 7.155 4.747 6.735 9.048s-4.032 7.581-8.353 7.581c-26.006-0.003-156.416-2.092-170.047-43.303zM809.622 420.562c-36.662 0-71.428-18.372-72.892-19.154-3.391-1.816-5.11-5.704-4.18-9.438 0.933-3.73 4.287-6.352 8.135-6.355 0.779-0.003 78.203-0.635 85.217-44.871 6.211-38.163-73.258-99.999-104.404-120.607-3.364-2.226-4.67-6.53-3.109-10.247 1.326-3.166 4.412-5.147 7.735-5.147 0.581 0 1.168 0.060 1.753 0.188 7.393 1.578 180.811 39.792 162.476 140.764-11.187 61.88-50.078 74.866-80.731 74.866zM690.694 232.492c0.604 3.237-0.742 6.527-3.435 8.414l-41.581 29.125c-2.028 1.42-4.59 1.867-6.97 1.236-0.433-0.114-43.918-11.543-107.050-18.553-25.056-2.81-53.12-4.294-81.164-4.294-63.115 0-104.384 7.416-110.394 12.855-0.796 1.528-0.544 2.223-0.403 2.609 1.091 3.038 6.943 6.648 10.717 8.074 4.166 1.541 6.413 6.067 5.117 10.317-1.293 4.25-5.674 6.755-9.998 5.714-41.712-10.065-62.108-24.143-60.624-41.836 2.636-31.368 75.299-47.47 136.729-51.73 8.833-0.604 18.388-0.913 28.39-0.913 0.007 0 0.010 0 0.017 0 102.148 0 233.099 32.049 234.408 32.375 3.196 0.789 5.634 3.371 6.241 6.607zM377.203 165.16c3.149 2.051 4.546 5.943 3.428 9.528-1.115 3.586-4.469 5.939-8.236 5.892-5.59-0.148-54.698-2.364-58.136-33.631-1.041-9.344 1.635-17.878 7.957-25.368 17.633-20.896 65.227-33.315 145.481-37.972 9.495-0.567 19.137-0.853 28.669-0.853 102.030 0 170.746 31.945 173.623 33.305 2.79 1.319 4.63 4.059 4.794 7.141 0.165 3.079-1.373 6.003-4.005 7.611l-52.549 32.080c-1.823 1.111-4.005 1.481-6.087 1.054-0.332-0.071-33.698-6.99-84.052-13.829-9.528-1.293-21.46-1.951-35.461-1.951-50.3 0-106.247 8.219-116.977 13.597-0.154 1.011 0.044 2.286 1.551 3.394zM448.816-13.697c233.706 0.198 359.141 41.759 383.304 67.913 8.555 9.256 9.478 18.016 8.749 23.737-1.796 14.081-14.618 22.699-16.075 23.636-3.508 2.256-8.215 1.665-10.952-1.491-2.73-3.159-2.793-7.769-0.054-10.922 1.474-1.897 2.327-5.070-1.984-9.384-9.659-9.021-107.090-36.407-269.311-44.633-22.222-1.158-45.529-1.742-69.273-1.746-145.246 0-251.544 19.892-265.497 31.489 5.382 7.725 42.978 20.074 82.964 27.054 4.506 0.786 7.551 5.033 6.852 9.552s-4.865 7.631-9.417 7.037c-1.128-0.151-4.952-0.386-9.387-0.655-65.976-4.029-142.218-13.010-146.197-47-1.209-10.361 1.87-19.761 9.152-27.947 17.818-20.020 69.034-46.637 307.115-46.637 0.007-0.003 0.007-0.003 0.010-0.003zM878.025 46.847c-3.304 1.528-7.205 0.755-9.673-1.904-0.346-0.369-35.481-37.112-141.127-58.687-40.446-8.105-116.366-12.214-225.652-12.214-109.49 0-213.673 4.308-214.714 4.351-4.351 0.212-8.074-2.951-8.665-7.235-0.594-4.284 2.166-8.316 6.369-9.317 1.084-0.259 110.269-25.838 259.558-25.838 71.603 0 141.278 5.818 207.096 17.294 122.722 21.514 131.313 82.366 131.619 84.945 0.426 3.606-1.514 7.077-4.811 8.605z" />
<glyph unicode="&#xe91a;" glyph-name="js" d="M958.584 960h-893.212c-36.072 0-65.372-29.256-65.372-65.372v-893.256c0-36.028 29.3-65.372 65.372-65.372h893.212c36.072 0 65.372 29.3 65.372 65.372v893.3c-0.044 36.072-29.3 65.328-65.372 65.328zM464.952 382.849c0-28.459-2.7-52.714-8.1-72.719s-13.588-36.072-24.476-48.642c-10.932-12.393-24.609-21.555-40.896-27.264-16.332-5.798-35.32-8.631-56.963-8.631-19.032 0-36.205 3.010-51.651 8.985s-28.503 14.517-39.303 25.671c-10.844 11.198-19.165 24.697-25.007 40.542-5.887 15.889-8.808 33.638-8.808 53.068v12.747h61.344c0-57.095 21.156-85.687 63.469-85.687 10.844 0 20.448 1.239 28.946 3.851 8.454 2.656 15.624 7.48 21.51 14.694 5.887 7.17 10.313 17.084 13.367 29.92s4.603 29.566 4.603 50.235v319.469h62.053v-316.238h-0.089zM807.303 290.124c-6.329-12.924-15.358-24.21-26.91-33.859-11.64-9.649-25.848-17.129-42.534-22.617-16.642-5.355-35.408-8.055-56.077-8.055-91.618 0-139.994 36.16-144.907 108.57h60.282c0.266-40.896 28.282-61.389 83.961-61.389 12.349 0 23.414 1.328 32.929 4.116 9.516 2.7 17.483 6.462 23.768 11.242 6.373 4.78 11.154 10.49 14.473 16.996 3.231 6.462 4.957 13.499 4.957 21.201 0 8.1-1.284 14.517-3.718 19.386-2.479 4.913-7.347 9.295-14.517 13.101-7.126 3.762-17.084 7.48-29.743 11.065-12.703 3.718-29.3 8.277-49.748 13.632-19.917 4.957-37.178 9.914-51.607 14.871-14.517 4.869-26.379 10.844-35.629 17.881-9.295 7.082-16.199 15.757-20.669 26.069-4.47 10.357-6.683 23.414-6.683 39.17 0 13.853 2.921 26.733 8.808 38.595s14.252 22.13 25.228 30.849c10.888 8.719 24.122 15.491 39.613 20.448 15.624 4.957 32.885 7.391 51.873 7.391 88.609 0 133.665-31.469 135.037-94.495h-59.264c-2.124 31.469-25.848 47.27-71.214 47.27-10.091 0-19.386-1.018-28.017-3.010s-16.022-4.869-22.396-8.631-11.242-8.409-14.827-13.942c-3.497-5.533-5.267-11.95-5.267-19.209 0-6.595 0.841-11.994 2.479-16.199 1.638-4.249 5.577-8.232 11.817-11.862s15.491-7.214 27.663-10.755c12.216-3.541 28.902-7.878 50.102-13.057 20.448-4.913 38.196-10.047 53.289-15.314 15.004-5.311 27.485-11.729 37.533-19.253 10.003-7.48 17.35-16.642 22.219-27.485 4.78-10.799 7.214-24.343 7.214-40.542 0-15.181-3.231-29.256-9.516-42.18z" />
<glyph unicode="&#xe91b;" glyph-name="kh" d="M768.528 907.216l-45.394-5.278-3.167-33.781-36.948-22.169-74.953 4.223-52.784-46.449-3.167-35.893-31.67-6.334-53.839 68.619-19.002-32.726-29.559 4.223-44.338 68.619-74.953-3.167-61.229-68.619-10.557 14.779-22.169-20.058-34.837 8.445-30.614-10.557-29.559-44.338-32.726 11.612-47.505-44.338-1.056 1.056-6.334-22.169 10.557-20.058-32.726-31.67 12.668-10.557 7.39-28.503 44.338-7.39 11.612-19.002 39.060 8.445v-50.672l29.559-35.893 21.113 1.056 16.891 16.891 16.891-24.28-8.445-15.835 24.28-21.113-14.779-23.225 13.724-27.447h-48.561l12.668-22.169-10.557-35.893-34.837-34.837-45.394 9.501-9.501 10.557-11.612-15.835-7.39-33.781 15.835-25.336 51.728 1.056 84.454-76.008 57.006-1.056 46.449-23.225 43.282 33.781 36.948-21.113 6.334-49.616 45.394-16.891 4.223-40.115 42.227-31.67 5.278-39.060 17.946 2.111 36.948 62.285 27.447-29.559 22.169-1.056 5.278 21.113-2.111 80.231 31.67-12.668 22.169 21.113h35.893l17.946-14.779 10.557 22.169 60.173 61.229 7.39 39.060 34.837 46.449 33.781-42.227 20.058 19.002 16.891-15.835 1.056-25.336 38.004-9.501 10.557-20.058 38.004 7.39 34.837 24.28 1.056 32.726-1.056 44.338-28.503 35.893-34.837 47.505-19.002 55.951 23.225 42.227-10.557 40.115 16.891 33.781-14.779 47.505 13.724 40.115 2.111 28.503-57.006 62.285-34.837 4.223-57.006 63.34 4.223 51.728-41.171-1.056z" />
<glyph unicode="&#xe91c;" glyph-name="layers" d="M1004.781 680.144l-492.781 279.856-492.781-279.856 492.781-281.538zM512 350.159l-332.256 189.837-160.524-91.154 492.781-281.538 492.781 281.538-160.503 91.154zM512 118.856l-332.256 189.837-160.524-91.154 492.781-281.538 492.781 281.538-160.503 91.154z" />
<glyph unicode="&#xe91d;" glyph-name="left" d="M689.55 797.181c-13.95 14.438-37.168 14.438-51.606 0-13.95-13.95-13.95-37.168 0-51.086l261.674-261.674h-863.49c-20.129-0.033-36.128-16.032-36.128-36.16s15.999-36.648 36.128-36.648h863.49l-261.674-261.187c-13.95-14.438-13.95-37.689 0-51.606 14.438-14.438 37.689-14.438 51.606 0l323.622 323.622c14.438 13.95 14.438 37.168 0 51.086l-323.622 323.654z" />
<glyph unicode="&#xe91e;" glyph-name="linkedin" d="M1024 337.332v-378.579h-219.476v353.224c0 88.733-31.745 149.29-111.188 149.29-60.645 0-96.735-40.811-112.612-80.288-5.79-14.113-7.28-33.757-7.28-53.512v-368.714h-219.55c0 0 2.957 598.246 0 660.229h219.529v-93.585c-0.445-0.7-1.024-1.455-1.443-2.133h1.443v2.133c29.167 44.922 81.255 109.095 197.845 109.095 144.447 0.002 252.733-94.363 252.733-297.16zM124.235 937.245c-75.108 0-124.235-49.265-124.235-114.050 0-63.373 47.705-114.133 121.321-114.133h1.467c76.562 0 124.177 50.75 124.177 114.133-1.443 64.785-47.615 114.050-122.73 114.050zM13.039-41.247h219.467v660.229h-219.467v-660.229z" />
<glyph unicode="&#xe91f;" glyph-name="location" d="M512 804.713c-123.069 0-223.198-100.124-223.198-223.194s100.128-223.194 223.198-223.194 223.198 100.124 223.198 223.194-100.128 223.194-223.198 223.194zM512 418.363c-89.967 0-163.164 73.193-163.164 163.16s73.197 163.156 163.164 163.156 163.164-73.193 163.164-163.16-73.193-163.156-163.164-163.156zM512 960c-208.693 0-378.477-169.784-378.477-378.477 0-120.356 100.937-299.669 161.103-395.839 39.586-63.272 82.126-123.489 119.779-169.555 60.438-73.938 82.070-80.125 97.599-80.125 15.761 0 36.184 6.191 96.434 80.169 37.737 46.342 80.297 106.524 119.843 169.463 60.578 96.406 162.199 276.039 162.199 395.891 0 208.689-169.784 378.473-378.481 378.473zM686.662 232.379c-77.628-126.003-148.896-211.147-175.018-232.883-26.259 21.068-96.37 104.187-175.082 232.487-90.879 148.143-143 275.547-143 349.541-0.004 175.591 142.848 318.443 318.439 318.443s318.443-142.852 318.443-318.443c0.004-73.569-52.405-200.825-143.781-349.144z" />
<glyph unicode="&#xe920;" glyph-name="magic-wand" d="M1007.092 779.854c0 11.253-3.733 20.637-11.246 28.139l-123.857 123.857c-7.504 7.508-16.884 11.262-28.147 11.262-11.27 0-20.641-3.753-28.147-11.262l-804.432-804.428c-7.517-7.513-11.262-16.901-11.262-28.16 0-11.264 3.744-20.635 11.262-28.147l123.853-123.849c7.517-7.513 16.888-11.264 28.154-11.264 11.255 0 20.637 3.733 28.147 11.264l804.439 804.435c7.504 7.515 11.237 16.888 11.237 28.154zM727.484 596.569l-66.925 66.934 183.276 183.283 66.925-66.932-183.276-183.285zM143.254 799.869l18.763 61.299 61.297 18.763-61.297 18.768-18.763 61.299-18.768-61.299-61.299-18.768 61.299-18.763zM305.881 722.293l37.538-122.609 37.538 122.609 122.604 37.538-122.604 37.533-37.538 122.609-37.538-122.609-122.604-37.533zM962.692 498.364l-18.761 61.297-18.759-61.297-61.303-18.766 61.303-18.766 18.759-61.292 18.761 61.292 61.308 18.766zM543.592 799.869l18.768 61.299 61.294 18.763-61.294 18.768-18.768 61.299-18.759-61.299-61.303-18.768 61.303-18.763z" />
<glyph unicode="&#xe921;" glyph-name="man-with-computer" d="M376.424 543.328c-3.21-0.198-13.632-9.16-13.632-9.16 5.608-2.416 16.86 9.359 13.632 9.16zM377.831 545.167l-0.829-0.505c0.289 0.108 0.559 0.216 0.811 0.325 0 0.072 0.018 0.108 0.018 0.18zM763.902 946.295c57.83 0 104.714-46.884 104.714-104.714s-46.884-104.714-104.714-104.714-104.714 46.884-104.714 104.714 46.884 104.714 104.714 104.714zM135.296 497.345h28.058v13.488h-28.058c-7.646 0-13.164 1.515-15.183 4.147-1.533 2.020-0.866 4.652-0.866 4.652l0.343 81.434h-13.488v-78.567c-0.595-2.741-1.352-9.323 3.084-15.382 4.724-6.474 13.542-9.774 26.111-9.774zM1022.215 305.987l-3.805 30.871c-15.039 120.6-15.634 125.198-9.828 337.727 0.18 7.447-5.626 13.632-13.128 13.849-7.069 0.469-13.632-5.662-13.867-13.109-5.842-214.512-5.211-219.291 10.044-341.748l3.823-30.925c3.913-29.627 0.469-50.148-9.611-58.046-11.739-9.052-32.278-1.010-33.684-0.433-99.196 30.511-222.771-32.53-228-35.145-6.618-3.39-9.215-11.559-5.788-18.177 2.398-4.634 7.123-7.231 11.991-7.231 2.074 0 4.165 0.433 6.185 1.515 0.811 0.379 55.972 28.419 118.58 37.796v-209.986h-56.026c-11.414 0-20.665-9.233-20.665-20.647 0-11.378 9.251-20.647 20.665-20.647h159.153c11.414 0 20.665 9.269 20.665 20.647 0 11.414-9.269 20.647-20.665 20.647h-51.626v212.258c12.424-0.848 24.686-2.777 36.443-6.383 1.443-0.577 34.892-14.318 59.164 4.328 18.591 14.282 25.353 42.214 19.98 82.84zM958.092 367.206c-2.326 88.701-31.394 173.759-33.684 262.081-3.372 128.642-200.501 131.564-202.088 6.077-75.447-12.839-150.804-19.655-227.513-16.049-69.623 3.264-69.839-104.587-0.703-107.815 80.568-3.769 160.487 3.877 239.848 16.896 8.151-47.209 17.798-94.183 20.863-141.932-164.166-57.343-255.157-196.282-278.383-372.854-0.162-1.208-0.198-2.506-0.307-3.769v390.94h103.523v92.416h-371.285c0.216 1.172 0.307 2.543 0.379 4.238 0.036 1.010 0.090 2.128 0.162 3.39 0.469 7.808 1.839 10.477 9.485 11.955 1.929 0.361 4.364 0.469 6.816 0.433v-6.492h99.646c2.903-0.541 5.788-0.956 8.475-0.956 4.183 0 7.79 0.956 9.918 3.823 1.118 1.497 1.118 3.57 1.1 5.572 0 1.929-0.018 3.913 0.92 5.085 1.443 1.749 4.22 2.921 6.185 3.102-2.074-4.003-3.372-8.259-3.372-12.767h112.864c0 21.711-25.281 39.31-56.423 39.31-9.737 0-18.699-1.857-26.67-4.869 1.857-18.591-15.634-16.788-22.396-15.418-0.793-0.992-1.479-2.038-2.164-3.084-0.307 0.072-0.559 0.252-0.902 0.27-3.011 0.144-7.357-1.677-9.647-4.454-1.713-2.092-1.677-4.797-1.677-7.177 0.018-1.461 0.018-2.975-0.433-3.57-1.19-1.605-3.534-2.128-6.221-2.272v15.544h-109.186v-8.241c-2.903 0.018-5.608-0.234-7.447-0.595-9.683-1.857-11.631-6.311-12.154-14.967-0.072-1.298-0.108-2.452-0.162-3.462-0.072-1.966-0.144-3.336-0.415-4.382h-205.045v-92.416h56.351v-448.247h419.756v44.882c6.834-69.064 124.711-62.752 135.098 16.301 17.96 136.595 97.627 227.802 231.571 257.988 55.684-8.475 117.192 23.172 115.317 95.481zM152.265 797.457l16.968-241.939-44.81-3.138-16.968 241.921 44.81 3.156z" />
<glyph unicode="&#xe922;" glyph-name="monitor" d="M998.927 866.664c-16.709 16.709-36.789 25.073-60.264 25.073h-853.33c-23.466 0-43.549-8.363-60.27-25.073-16.711-16.715-25.063-36.796-25.063-60.264v-580.271c0-23.474 8.352-43.553 25.063-60.272 16.721-16.709 36.804-25.058 60.27-25.058h290.138c0-13.508-2.847-27.387-8.537-41.599-5.686-14.223-11.376-26.662-17.066-37.325-5.683-10.676-8.528-18.488-8.528-23.462 0-9.243 3.376-17.261 10.132-23.999 6.753-6.764 14.754-10.153 23.999-10.153h273.066c9.245 0 17.247 3.387 24 10.153 6.762 6.736 10.138 14.754 10.138 23.999 0 4.61-2.851 12.35-8.539 23.192-5.69 10.836-11.38 23.474-17.063 37.859-5.69 14.402-8.535 28.179-8.535 41.336h290.138c23.462 0 43.542 8.348 60.251 25.058 16.717 16.717 25.073 36.796 25.073 60.272v580.271c0.006 23.468-8.358 43.549-25.075 60.264zM955.733 362.665c0-4.623-1.687-8.617-5.064-12-3.381-3.37-7.382-5.057-12.006-5.057h-853.33c-4.62 0-8.621 1.687-11.998 5.057-3.376 3.394-5.066 7.377-5.066 12v443.735c0 4.623 1.685 8.621 5.066 11.998 3.379 3.372 7.381 5.066 11.998 5.066h853.343c4.616 0 8.625-1.689 11.993-5.066 3.377-3.379 5.064-7.377 5.064-11.998v-443.735z" />
<glyph unicode="&#xe923;" glyph-name="multiple-users" d="M617.94 730.971c47.347-29.686 80.548-79.921 86.592-138.233 19.309-9.022 40.74-14.211 63.462-14.211 82.95 0 150.182 67.232 150.182 150.169 0 82.95-67.232 150.182-150.182 150.182-82.158-0.026-148.801-66.056-150.054-147.907zM519.553 423.477c82.95 0 150.182 67.244 150.182 150.182s-67.244 150.169-150.182 150.169c-82.937 0-150.207-67.244-150.207-150.182s67.27-150.169 150.207-150.169zM583.257 413.24h-127.435c-106.029 0-192.289-86.273-192.289-192.302v-155.843l0.396-2.441 10.735-3.361c101.186-31.616 189.094-42.159 261.45-42.159 141.326 0 223.24 40.293 228.288 42.862l10.032 5.073h1.073v155.868c0.038 106.029-86.221 192.302-192.251 192.302zM831.724 568.278h-126.451c-1.367-50.593-22.964-96.151-57.123-128.917 94.247-28.025 163.204-115.422 163.204-218.653v-48.024c124.853 4.575 196.8 39.961 201.541 42.338l10.032 5.086h1.073v155.894c0 106.017-86.26 192.276-192.276 192.276zM256.032 578.502c29.379 0 56.714 8.575 79.87 23.182 7.361 48.012 33.098 89.966 69.864 118.54 0.153 2.811 0.422 5.597 0.422 8.434 0 82.95-67.244 150.182-150.156 150.182-82.963 0-150.182-67.232-150.182-150.182 0-82.912 67.219-150.156 150.182-150.156zM390.904 439.361c-33.993 32.6-55.513 77.915-57.085 128.201-4.69 0.345-9.329 0.716-14.108 0.716h-127.422c-106.029 0-192.289-86.26-192.289-192.276v-155.868l0.396-2.402 10.735-3.386c81.174-25.341 153.619-37.021 216.544-40.702v47.066c0.026 103.231 68.957 190.602 163.229 218.653z" />
<glyph unicode="&#xe924;" glyph-name="partners" d="M231.75 623.402c56.966 0 103.308 46.358 103.308 103.34 0 56.98-46.342 103.338-103.308 103.338-56.98 0-103.336-46.356-103.336-103.338 0.002-56.982 46.356-103.34 103.336-103.34zM467.828 735.269c-11.178 0-21.819-4.221-29.965-11.886l-39.956-37.608c-7.883-7.418-22.641-19.258-31.582-25.337l-80.384-54.63h-120.334c-20.339 0-30.882-5.978-39.224-16.402l-52.374-65.427c-8.471-10.581-21.95-28.166-30.047-39.202l-35.488-48.393c-6.907-9.42-9.734-20.967-7.956-32.512s7.94-21.707 17.359-28.614c7.556-5.539 16.487-8.467 25.83-8.467 13.894 0 27.089 6.682 35.294 17.87l35.49 48.393c0.189 0.257 0.395 0.537 0.59 0.802l-7.502-83.827-61.382-291.522c-2.537-12.049-0.231-24.368 6.496-34.682 6.728-10.316 17.072-17.395 29.117-19.93 3.139-0.664 6.351-1.001 9.546-1.001 21.651 0 40.608 15.4 45.074 36.617l57.446 272.816h14.959l8.204-92.086c0.985-11.058 1.482-30.497 1.063-41.601l-4.835-127.887c-0.465-12.307 3.887-24.057 12.261-33.088s19.762-14.261 32.075-14.728c0.59-0.022 1.179-0.036 1.763-0.036 24.881 0 45.106 19.489 46.045 44.368l4.835 127.881c0.566 14.953-0.030 38.354-1.36 53.276l-12.269 137.693c-0.034 0.371-0.112 0.732-0.152 1.103l13.342 149.066 105.676 71.819c12.622 8.577 31.229 23.502 42.361 33.978l39.956 37.608c17.558 16.529 18.398 44.258 1.873 61.814-8.226 8.748-19.836 13.763-31.848 13.763zM787.758 655.316c56.978 0 103.338 46.358 103.338 103.34 0 56.98-46.358 103.338-103.338 103.338-56.964 0-103.306-46.356-103.306-103.338s46.344-103.34 103.306-103.34zM944.996 416.575c8.208-11.188 21.402-17.87 35.294-17.87 9.345 0 18.274 2.928 25.83 8.467 9.418 6.907 15.582 17.070 17.359 28.614s-1.049 23.091-7.956 32.512l-35.492 48.393c-8.086 11.022-21.562 28.608-30.043 39.2l-52.378 65.429c-8.345 10.426-17.668 16.404-34.165 16.404-0.413 0-129.874 0-129.874 0l-80.382 54.632c-9.61 6.526-22.146 16.447-26.933 20.957l-12.658 11.914c-8.142 7.665-18.783 11.886-29.963 11.886-12.013 0-23.624-5.014-31.854-13.757-8.006-8.507-12.219-19.621-11.866-31.295 0.355-11.676 5.234-22.513 13.739-30.519l12.654-11.908c8.639-8.136 24.853-20.865 37.714-29.61l105.674-71.815 13.342-149.058c-0.042-0.375-0.12-0.734-0.152-1.111l-12.269-137.691c-1.803-20.187 2.457-48.459 10.131-67.224l36.653-89.675c7.119-17.419 23.879-28.674 42.694-28.674 5.986 0 11.848 1.157 17.427 3.441 11.401 4.657 20.303 13.477 25.070 24.835 4.767 11.355 4.825 23.889 0.166 35.284l-36.657 89.685c-2.13 5.214-4.137 18.526-3.636 24.143l8.206 92.086h14.957l21.865-103.825c4.045-19.2 15.999-35.548 32.789-44.85 9.682-5.367 20.728-8.204 31.941-8.204 8 0 15.897 1.408 23.474 4.187l48.271 17.69c23.871 8.75 36.176 35.284 27.428 59.154-6.63 18.097-24.027 30.256-43.291 30.256-5.407 0-10.747-0.951-15.865-2.828l-20.59-7.546-19.727 93.656-8.114 90.686c2.092-2.782 4.035-5.391 5.691-7.651l35.496-48.399zM563.666 801.292c1.233-0.313 2.469-0.463 3.688-0.463 6.682 0 12.771 4.512 14.489 11.287 4.805 18.951 16.874 47.729 27.037 52.472 7.486 3.493 10.723 12.394 7.228 19.882-3.491 7.486-12.392 10.727-19.882 7.228-27.063-12.63-40.887-62.383-43.382-72.23-2.034-8.010 2.812-16.148 10.823-18.177zM494.627 840.564c-7.484 3.493-16.388 0.257-19.884-7.23-3.493-7.488-0.255-16.39 7.23-19.884 10.111-4.717 22.2-33.509 27.041-52.48 1.721-6.772 7.807-11.277 14.487-11.277 1.217 0 2.453 0.15 3.688 0.463 8.010 2.030 12.855 10.168 10.825 18.175-2.497 9.849-16.32 59.602-43.386 72.234z" />
<glyph unicode="&#xe925;" glyph-name="photo-camera" d="M512 550.4c-84.838 0-153.6-68.792-153.6-153.6 0-84.838 68.762-153.6 153.6-153.6 84.818 0 153.6 68.762 153.6 153.6 0 84.808-68.782 153.6-153.6 153.6zM921.6 704h-122.88c-16.896 0-35.103 13.107-40.438 29.143l-31.764 95.324c-5.356 16.026-23.542 29.133-40.438 29.133h-348.16c-16.896 0-35.103-13.107-40.438-29.143l-31.764-95.324c-5.356-16.026-23.542-29.133-40.438-29.133h-122.88c-56.32 0-102.4-46.080-102.4-102.4v-460.8c0-56.32 46.080-102.4 102.4-102.4h819.2c56.32 0 102.4 46.080 102.4 102.4v460.8c0 56.32-46.080 102.4-102.4 102.4zM512 140.8c-141.384 0-256 114.616-256 256 0 141.373 114.616 256 256 256 141.363 0 256-114.627 256-256 0-141.384-114.637-256-256-256zM885.76 529.992c-19.784 0-35.84 16.036-35.84 35.84 0 19.784 16.056 35.84 35.84 35.84 19.804 0 35.84-16.056 35.84-35.84 0-19.804-16.046-35.84-35.84-35.84z" />
<glyph unicode="&#xe926;" glyph-name="php" d="M825.874 556.846c-15.007 0-25.201-1.393-30.583-2.976v-96.435c6.395-1.393 14.12-1.9 24.758-1.9 39.321 0 63.573 19.819 63.573 53.315-0.063 30.013-20.895 47.996-57.747 47.996zM958.654 960h-893.246c-36.092 0-65.409-29.254-65.409-65.346v-893.309c0-35.965 29.254-65.282 65.409-65.282h893.246c36.092 0 65.346 29.317 65.346 65.282v893.309c0 36.092-29.254 65.346-65.346 65.346zM310.518 433.183c-25.201-23.745-62.559-34.382-106.186-34.382-9.688 0-18.426 0.507-25.201 1.456v-116.887h-73.197v322.422c22.795 3.862 54.771 6.775 99.918 6.775 45.527 0 78.073-8.801 99.855-26.214 20.895-16.526 34.952-43.627 34.952-75.603s-10.701-59.14-30.14-77.566zM657.381 283.37h-73.704v136.77h-121.636v-136.77h-74.21v326.728h74.21v-125.562h121.636v125.562h73.704c0 0 0-326.728 0-326.728zM926.678 433.183c-25.138-23.745-62.496-34.382-106.186-34.382-9.625 0-18.426 0.507-25.201 1.456v-116.887h-73.134v322.422c22.732 3.862 54.708 6.775 99.855 6.775 45.59 0 78.009-8.801 99.855-26.214 20.895-16.526 34.952-43.627 34.952-75.603-0.063-31.976-10.701-59.14-30.14-77.566zM209.714 556.846c-15.070 0-25.201-1.393-30.583-2.976v-96.435c6.332-1.393 14.057-1.9 24.758-1.9 39.258 0 63.509 19.819 63.509 53.315 0 30.013-20.832 47.996-57.684 47.996z" />
<glyph unicode="&#xe927;" glyph-name="pl" d="M628.881 856.566l-45.511-32.065-49.648 26.893-50.683-36.202-48.614 13.446h-61.026l-28.962 21.721-14.481-14.481-41.374-2.069-62.061-57.923-38.271-18.618-61.026 4.137-35.168 22.756-18.618-14.481-28.962-27.927-24.824 9.309-19.653-46.545 54.82-40.339 7.24-41.374 51.717-46.545-10.343-55.855 47.58-22.756 6.206-35.168 65.164-53.786-23.79-116.881 39.305-103.434 93.091-3.103 62.061-20.687 11.378-50.683 55.855-10.343 52.752 1.034 55.855-43.442 16.549-4.137 48.614-15.515 49.648-1.034 9.309 36.202-16.549 28.962 13.446 41.374 53.786 53.786 39.305 14.481 39.305 22.756 34.133 4.137 32.065 1.034-14.481 22.756 8.275 39.305 19.653 24.824 14.481-15.515 36.202-8.275 28.962 29.996 8.275 28.962-17.584 32.065 48.614-1.034-9.309 19.653 12.412 19.653-22.756 20.687 9.309 16.549-7.24 10.343-11.378-11.378-28.962-2.069-33.099 42.408v41.374l-35.168-7.24-11.378 20.687-45.511 7.24-8.275 31.030-17.584 14.481 34.133 33.099-9.309 17.584 7.24 22.756-21.721 2.069-45.511-23.79-75.507-8.275 11.378 54.82-41.374 32.065 4.137 34.133-32.065 23.79z" />
<glyph unicode="&#xe928;" glyph-name="plus" d="M1024 374.857h-438.857v-438.857h-146.286v438.857h-438.857v146.286h438.857v438.857h146.286v-438.857h438.857v-146.286z" />
<glyph unicode="&#xe929;" glyph-name="register" d="M992.969 432.386l-149.745 149.745c-19.347 19.35-50.721 19.35-70.071 0l-29.927-29.927v358.248c0 27.364-22.184 49.548-49.548 49.548h-627.613c-27.364 0-49.548-22.184-49.548-49.548v-792.781c0-27.364 22.184-49.548 49.548-49.548h280.774v-82.574c0-27.364 22.184-49.548 49.548-49.548h149.745c13.144 0 25.745 5.222 35.037 14.514l411.803 411.803c19.35 19.35 19.35 50.718-0.003 70.068zM115.613 860.903h528.516v-407.796l-282.776-282.773c-0.998-0.994-1.919-2.045-2.821-3.112h-242.919v693.681zM525.609 35.097h-79.674v79.677l362.255 362.252 79.674-79.674-362.255-362.255z" />
<glyph unicode="&#xe92a;" glyph-name="right" d="M334.45 98.819c13.95-14.438 37.168-14.438 51.606 0 13.95 13.95 13.95 37.168 0 51.086l-261.674 261.674h863.49c20.129 0.033 36.128 16.032 36.128 36.16s-15.999 36.648-36.128 36.648h-863.49l261.674 261.187c13.95 14.438 13.95 37.689 0 51.606-14.438 14.438-37.689 14.438-51.606 0l-323.622-323.622c-14.438-13.95-14.438-37.168 0-51.086l323.622-323.654z" />
<glyph unicode="&#xe92b;" glyph-name="smartphone" d="M740.264 960h-456.528c-38.034 0-69.164-31.1-69.164-69.164v-885.643c0-38.064 31.13-69.193 69.164-69.193h456.528c38.034 0 69.164 31.071 69.164 69.164v885.672c0 38.064-31.13 69.164-69.164 69.164zM438.974 910.146h146.052c4.623 0 8.368-3.745 8.368-8.397 0-4.623-3.745-8.368-8.368-8.368h-146.052c-4.623 0-8.368 3.745-8.368 8.368 0 4.652 3.745 8.397 8.368 8.397zM512-29.418c-19.105 0-34.582 15.477-34.582 34.611s15.477 34.582 34.582 34.582 34.582-15.448 34.582-34.582-15.477-34.611-34.582-34.611zM761.3 64h-498.6v786.315h498.6v-786.315z" />
<glyph unicode="&#xe92c;" glyph-name="speech-chat" d="M953.064 892.571h-882.129c-39.084 0-70.936-31.815-70.936-70.936v-489.061c0-39.084 31.815-70.936 70.936-70.936h87.519l111.444-108.157 3.58-3.032c13.369-9.972 27.797-15.268 41.75-15.268 26.774 0 55.594 20.053 55.521 64.068v62.425h101.107c-39.705-61-63.594-137.926-63.594-221.683v-36.527h586.077v36.527c0 83.757-23.925 160.683-63.63 221.683h22.355c39.084 0 70.936 31.815 70.936 70.936v489.024c0 39.084-31.815 70.936-70.936 70.936zM483.071 76.52c7.452 74.698 37.55 140.191 80.907 185.156 37.696 39.084 85.327 62.68 137.269 62.68s99.609-23.596 137.305-62.68c43.358-44.965 73.456-110.458 80.907-185.156h-436.389zM587.684 525.072c0 62.644 50.955 113.599 113.599 113.599 62.607 0 113.599-50.992 113.599-113.599s-50.955-113.599-113.599-113.599c-62.644 0-113.599 50.955-113.599 113.599zM866.714 334.73c-18.154 15.195-37.806 27.761-58.589 37.732 48.106 33.788 79.812 89.491 79.812 152.61 0 102.933-83.72 186.653-186.653 186.653s-186.653-83.757-186.653-186.653c0-63.155 31.706-118.823 79.812-152.61-20.747-9.972-40.435-22.537-58.589-37.732h-238.083l-0.11-106.294-109.545 106.294h-14.793l-100.194-2.119-2.119 486.942 880.010 2.119 2.119-486.942h-86.423zM139.46 761.95h399.862v-52.161h-399.862v52.161zM444.754 606.053h-305.293v52.161h305.293v-52.161zM444.754 502.316h-305.293v52.161h305.293v-52.161zM139.46 450.776h328.378v-52.161h-328.378c0 0 0 52.161 0 52.161z" />
<glyph unicode="&#xe92d;" glyph-name="startup" d="M993.28 494.080c-56.32 148.48-204.8 225.28-368.64 194.56-158.72 158.72-378.88 266.24-599.040 271.36-15.36 0-25.6-10.24-25.6-25.6 5.12-220.16 112.64-440.32 266.24-599.040-25.6-158.72 46.080-312.32 194.56-368.64-25.6 66.56-30.72 143.36-10.24 220.16 25.6-15.36 51.2-30.72 76.8-40.96 10.24-5.12 20.48-5.12 30.72 5.12l256 256c5.12 5.12 5.12 15.36 0 25.6-10.24 25.6-25.6 51.2-40.96 71.68 76.8 20.48 153.6 15.36 220.16-10.24zM430.080 529.92c-40.96-40.96-102.4-40.96-143.36 0s-40.96 102.4 0 143.36c40.96 40.96 102.4 40.96 143.36 0s40.96-102.4 0-143.36zM1008.64 222.72l-107.52 107.52c-20.48 20.48-51.2 20.48-71.68 0s-20.48-51.2 0-71.68l107.52-107.52c20.48-20.48 51.2-20.48 71.68 0s20.48 51.2 0 71.68zM808.96 23.040l-107.52 107.52c-20.48 20.48-51.2 20.48-71.68 0s-20.48-51.2 0-71.68l107.52-107.52c20.48-20.48 51.2-20.48 71.68 0s20.48 51.2 0 71.68zM947.2 79.36l-148.48 148.48c-20.48 20.48-51.2 20.48-71.68 0s-20.48-51.2 0-71.68l148.48-148.48c20.48-20.48 51.2-20.48 71.68 0s20.48 51.2 0 71.68z" />
<glyph unicode="&#xe92e;" glyph-name="study" d="M512 960c-99.258 0-180-82.742-180-182s80.742-180 180-180c99.258 0 180 80.742 180 180s-80.742 182-180 182zM572 598h-120c-42.316 0-83.206-10.938-120.38-29.546 63.138-17.036 122.586-41.572 180.38-74.744 57.796 33.172 117.242 57.708 180.38 74.744-37.174 18.608-78.064 29.546-120.38 29.546zM964 418c-33.138 0-60-26.862-60-60v-120c0-33.134 26.862-60 60-60s60 26.866 60 60v120c0 33.138-26.862 60-60 60zM60 418c-33.138 0-60-26.862-60-60v-120c0-33.134 26.862-60 60-60s60 26.866 60 60v120c0 33.138-26.862 60-60 60zM90 538c-16.582 0-30-13.418-30-30v-30c66.182 0 120-53.818 120-120v-120c0-66.182-53.818-120-120-120v-30c0-16.582 13.418-30 30-30 153.802 0 276.78-48.572 392-122v504.812c-115.74 66.36-240.194 97.188-392 97.188zM964 478v30c0 16.582-13.418 30-30 30-151.806 0-276.26-30.828-392-97.188v-504.812c115.22 73.428 238.198 122 392 122 16.582 0 30 13.418 30 30v30c-66.182 0-120 53.818-120 120v120c0 66.182 53.818 120 120 120z" />
<glyph unicode="&#xe92f;" glyph-name="tag" d="M517.859 254.717c-12.355-12.355-12.355-32.667 0-45.022s32.667-12.355 45.022 0 12.355 32.667 0 45.022c-12.355 12.564-32.667 12.564-45.022 0zM360.176 384.34c-12.355 12.355-32.667 12.355-45.022 0s-12.355-32.667 0-45.022 32.667-12.355 45.022 0 12.355 32.458 0 45.022zM867.988 895.084c-9.842 23.872-39.997 64.079-131.717 64.916-1.047 0-1.885 0-2.932 0-56.33 0-123.341-14.868-189.304-42.091-12.146-5.026-23.872-10.261-35.18-15.915l-0.628 0.628c-37.693 36.646-97.793 36.646-135.486 0l-184.697-179.462c-24.501-23.663-38.321-56.33-38.321-90.464v-607.908c0-49.001 39.787-88.789 88.789-88.789h404.155c49.001 0 88.789 39.787 88.789 88.789v607.908c0 17.381-3.56 34.552-10.47 50.048 39.159 21.988 73.292 47.117 99.468 73.502 64.079 65.126 57.378 114.964 47.535 138.837zM260.707 361.724c0 42.3 34.552 76.852 76.852 76.852s76.852-34.552 76.852-76.852-34.552-76.852-76.852-76.852c-42.3 0-76.643 34.343-76.852 76.852zM326.042 160.694c-7.957 6.701-9.004 18.428-2.513 26.385l201.868 243.121c6.701 7.957 18.428 9.004 26.385 2.513 7.957-6.701 9.004-18.428 2.513-26.385l-201.868-243.121c-6.701-7.957-18.428-9.004-26.385-2.513zM540.475 155.249c-42.3 0-76.852 34.552-76.852 76.852s34.552 76.852 76.852 76.852c42.3 0 76.852-34.552 76.852-76.852s-34.552-76.852-76.852-76.852zM625.704 719.81c-38.531-15.915-78.109-27.223-114.127-32.667 0-1.675 0.209-3.141 0.209-4.816 0-40.625-32.877-73.502-73.502-73.502s-73.502 32.877-73.502 73.502 32.877 73.502 73.502 73.502c24.291 0 45.651-11.727 59.053-29.736 34.133 5.863 70.989 16.543 107.216 31.411 12.774 5.235 24.71 10.68 36.018 16.334l-74.13 72.245c2.094 0.838 4.188 1.675 6.282 2.722 56.33 23.244 114.755 36.437 160.825 36.437 0.628 0 1.466 0 2.094 0 44.185-0.419 60.728-12.355 63.241-18.637 7.748-19.265-41.463-92.558-173.18-146.794z" />
<glyph unicode="&#xe930;" glyph-name="telegram" d="M18.087 466.278l235.95-88.064 91.327-293.707c5.844-18.811 28.846-25.764 44.114-13.281l131.523 107.22c13.786 11.233 33.423 11.793 47.831 1.335l237.22-172.227c16.333-11.872 39.472-2.922 43.568 16.814l173.776 835.895c4.471 21.559-16.712 39.543-37.239 31.604l-968.346-373.559c-23.897-9.216-23.689-43.049 0.276-52.029zM330.646 425.093l461.135 284.013c8.288 5.089 16.814-6.117 9.697-12.718l-380.57-353.758c-13.377-12.452-22.006-29.116-24.45-47.203l-12.964-96.072c-1.717-12.827-19.736-14.1-23.276-1.686l-49.859 175.189c-5.711 19.982 2.611 41.325 20.285 52.234z" />
<glyph unicode="&#xe931;" glyph-name="top" d="M162.819 625.55c-14.438-13.95-14.438-37.168 0-51.606 13.95-13.95 37.168-13.95 51.086 0l261.674 261.674v-863.49c0.033-20.129 16.032-36.128 36.16-36.128s36.648 15.999 36.648 36.128v863.49l261.187-261.674c14.438-13.95 37.689-13.95 51.606 0 14.438 14.438 14.438 37.689 0 51.606l-323.622 323.622c-13.95 14.438-37.168 14.438-51.086 0l-323.654-323.622z" />
<glyph unicode="&#xe932;" glyph-name="user" d="M512 459.197c113.851 0 206.155 112.108 206.155 250.4 0 138.296-30.305 250.403-206.155 250.403s-206.16-112.108-206.16-250.403c0-138.293 92.303-250.4 206.16-250.4zM122.614 76.864c-0.035 8.432-0.070 2.376 0 0v0zM901.369 70.279c0.111 2.308 0.038 16.015 0 0v0zM900.93 86.976c-3.818 240.909-35.281 309.555-276.047 353.008 0 0-33.891-43.186-112.886-43.186s-112.892 43.186-112.892 43.186c-238.139-42.979-271.515-110.607-275.904-345.182-0.36-19.155-0.527-20.161-0.591-17.938 0.015-4.166 0.032-11.873 0.032-25.31 0 0 57.321-115.554 389.354-115.554 332.028 0 389.354 115.554 389.354 115.554 0 8.634 0.006 14.637 0.015 18.722-0.064-1.375-0.193 1.29-0.436 16.7z" />
<glyph unicode="&#xe933;" glyph-name="user-profile" d="M943.172-64h-103.759c0 175.042-146.819 317.4-327.412 317.4s-327.36-142.41-327.36-317.4h-103.759c0 232.317 193.459 421.159 431.172 421.159 237.661 0 431.12-188.842 431.12-421.159zM512.052 390.881c-156.832 0-284.508 127.728-284.508 284.56-0.052 156.884 127.624 284.56 284.508 284.56 156.936 0 284.612-127.624 284.612-284.56s-127.676-284.56-284.612-284.56zM512.052 856.241c-99.713 0-180.8-81.088-180.8-180.8s81.088-180.8 180.8-180.8c99.765 0 180.852 81.088 180.852 180.8s-81.192 180.8-180.852 180.8z" />
<glyph unicode="&#xe934;" glyph-name="users" d="M593.304 224.28c-30.184 15.096-80.32 40.16-92.512 51.656 50.984 62.592 80.512 133.312 80.512 195.184 0 42 0 94.28-23.504 140.888-21.192 41.96-68.536 91.992-173.816 91.992-105.264 0-152.6-50.032-173.792-91.984-23.536-46.608-23.536-98.888-23.536-140.888 0-61.904 29.52-132.592 80.496-195.184-12.168-11.528-62.32-36.592-92.48-51.656-59.76-29.904-97.712-49.688-120.392-72.344-50.224-50.248-54.008-134.56-54.272-150.936-0.28-17.16 6.36-33.688 18.376-45.872 12.016-12.232 28.456-19.136 45.616-19.136h639.976c17.168 0 33.536 6.904 45.6 19.128 12.032 12.184 18.688 28.72 18.376 45.872-0.248 16.376-4.032 100.688-54.256 150.936-22.688 22.656-60.632 42.44-120.392 72.344zM63.984-0.064c0.44 26.872 8.424 79.592 35.552 106.752 15.704 15.688 52.912 34.904 103.736 60.344 60.152 30.032 91.64 47.032 107.856 62.408l43.16 40.816-37.488 46.056c-42.032 51.624-66.152 108.064-66.152 154.816 0 37.064 0 79.048 16.656 112.032 19.32 38.248 57.496 56.84 116.68 56.84 59.192 0 97.376-18.592 116.688-56.832 16.664-33 16.664-74.984 16.664-112.048 0-46.752-24.096-103.16-66.168-154.816l-37.52-46.096 43.208-40.816c16.184-15.312 47.664-32.28 107.832-62.344 50.824-25.472 88.072-44.688 103.768-60.376 27.184-27.216 35.128-79.872 35.528-106.688l-640-0.048zM969.704 407.936c-22.664 22.656-60.6 42.44-120.392 72.344-30.168 15.096-80.328 40.144-92.488 51.64 50.944 62.608 80.512 133.312 80.512 195.2 0 42 0 94.28-23.536 140.888-21.184 41.96-68.536 91.992-173.8 91.992s-152.616-50.032-173.808-91.984c-21.92-43.424-23.408-91.64-23.504-132.016h64.040c0.128 34.8 1.248 72.736 16.592 103.16 19.288 38.248 57.488 56.84 116.68 56.84s97.36-18.592 116.672-56.832c16.656-33 16.656-75 16.656-112.048 0-46.736-24.128-103.16-66.136-154.8l-37.528-46.112 43.216-40.816c16.168-15.312 47.632-32.28 107.768-62.344 50.88-25.472 88.112-44.688 103.768-60.376 27.224-27.216 35.168-79.872 35.568-106.688h-287.976l95.976-64h192c17.16 0 33.56 6.904 45.624 19.128 12.008 12.184 18.664 28.72 18.384 45.872-0.248 16.392-4.064 100.704-54.288 150.952z" />
<glyph unicode="&#xe935;" glyph-name="vk" d="M979.48 282.29c-22.295 26.763-47.632 50.749-72.134 73.946-8.712 8.25-17.721 16.779-26.405 25.26-24.931 24.375-25.838 33.533-6.099 61.22 13.656 19.085 28.135 38.195 42.138 56.676 12.701 16.768 25.835 34.108 38.423 51.504l2.585 3.577c24.060 33.29 48.942 67.714 62.184 109.24 3.439 10.956 7.049 27.078-1.206 40.56-8.25 13.47-24.254 17.58-35.576 19.499-5.601 0.95-11.162 1.080-16.323 1.080l-158.865 0.124c-23.823 0-39.878-11.226-49.077-34.325-8.783-22.070-18.431-45.571-29.44-67.917-21.909-44.497-49.734-95.748-89.998-138.492l-1.702-1.818c-4.755-5.11-10.141-10.897-14.079-10.897-0.603 0-1.26 0.116-2.004 0.35-8.34 3.25-13.938 23.439-13.684 32.831 0.003 0.13 0.006 0.259 0.006 0.389l-0.11 182.11c0 0.631-0.045 1.257-0.127 1.883-4.008 29.604-12.887 48.032-46.434 54.602-0.891 0.178-1.801 0.265-2.709 0.265h-163.834c-26.692 0-41.4-10.849-55.225-27.087-3.732-4.341-11.5-13.377-7.65-24.339 3.907-11.125 16.587-13.504 20.717-14.276 20.497-3.901 32.050-16.438 35.323-38.344 5.713-38.040 6.415-78.642 2.21-127.778-1.173-13.656-3.492-24.203-7.314-33.214-0.888-2.103-4.036-8.966-7.247-8.969-1.020 0-3.971 0.4-9.346 4.104-12.709 8.707-22.008 21.131-32.848 36.478-36.879 52.119-67.83 109.534-94.634 175.565-9.941 24.308-28.507 37.916-52.302 38.316-26.145 0.397-49.85 0.589-72.458 0.589-24.702 0-47.603-0.228-69.966-0.693-19.144-0.338-32.386-6.077-39.353-17.069-6.979-11.001-6.525-25.452 1.35-42.944 63.041-140.149 120.199-242.050 185.337-330.419 45.642-61.834 91.421-104.635 144.056-134.684 55.453-31.723 117.598-47.147 189.979-47.147 8.205 0 16.689 0.2 25.243 0.6 42.059 2.049 57.663 17.272 59.636 58.224 0.939 20.928 3.227 42.877 13.515 61.595 6.494 11.793 12.548 11.793 14.538 11.793 3.833 0 8.585-1.764 13.69-5.071 9.155-5.975 17.005-13.98 23.439-20.973 6.057-6.643 12.047-13.355 18.042-20.068 12.937-14.49 26.314-29.471 40.289-43.68 30.587-31.12 64.284-44.807 102.986-41.836h144.459c0.307 0 0.617 0.011 0.925 0.031 14.395 0.95 26.861 8.935 34.204 21.906 9.096 16.069 8.912 36.569-0.49 54.85-10.668 20.672-24.508 38.333-36.633 52.874z" />
<glyph unicode="&#xe936;" glyph-name="wallet" d="M809.998 445.997c-66.168 0-120-53.832-120-120s53.832-120 120-120h170c0.678 0 1.34 0.068 2.010 0.102 0.664-0.032 1.318-0.1 1.99-0.1 22.092 0 40 17.908 40 40v313.999c0 53.252-26.174 100.482-66.31 129.58l-136.080 223.24c-5.548 9.104-14.502 15.616-24.874 18.088-10.372 2.476-21.3 0.706-30.362-4.914l-100.354-62.232-45.256 76.588c-5.442 9.208-14.342 15.852-24.716 18.452-10.372 2.6-21.358 0.934-30.496-4.618l-385.333-234.184h-60.218c-21.722 0-39.456 17.404-39.988 39 0.532 21.596 18.266 39 39.988 39h74c22.092 0 40 17.908 40 40s-17.908 40-40 40h-74c-56.596 0-104.162-39.388-116.74-92.19-2.092-4.852-3.26-10.192-3.26-15.81v-673.999c0-88.224 71.776-160 160-160h703.999c68.98 0 129.986 43.942 151.802 109.342 6.992 20.956-4.33 43.612-25.286 50.602-20.954 6.99-43.612-4.33-50.602-25.286-10.906-32.692-41.412-54.658-75.914-54.658h-703.999c-44.112 0-80 35.888-80 80v550.861c12.518-4.44 25.98-6.862 40-6.862h743.999c44.112 0 80-35.888 80-80v-114.002h-134zM943.998 285.999h-134c-22.056-0.002-40 17.942-40 40 0 22.056 17.944 40 40 40h134v-80zM334.255 719.996l238.238 144.786 42.594-72.082c0.818-1.97 1.758-3.912 2.918-5.784 0.87-1.402 1.834-2.708 2.84-3.964l37.2-62.956h-323.789zM750.969 719.998l-44.242 74.872 67.552 41.89 71.176-116.762h-94.486z" />
<glyph unicode="&#xe937;" glyph-name="youtube" d="M342.447 726.882v-180.18c0-3.318 2.685-6.003 6.003-6.003h40.020c3.318 0 6.003 2.685 6.003 6.003v180.18l85.558 224.982c0.7 1.845 0.452 3.918-0.668 5.543-1.121 1.621-2.965 2.593-4.942 2.593h-42.813c-2.489 0-4.726-1.541-5.611-3.87l-57.536-151.29-57.536 151.29c-0.884 2.329-3.118 3.87-5.607 3.87h-42.817c-1.973 0-3.822-0.972-4.942-2.593-1.121-1.625-1.369-3.698-0.668-5.543l85.558-224.982zM438.226 731.292v-120.191c0-43.765 35.605-79.371 79.371-79.371s79.375 35.605 79.375 79.371v120.191c0 43.765-35.605 79.371-79.375 79.371-43.765 0-79.371-35.605-79.371-79.371zM544.946 611.102c0-15.079-12.266-27.345-27.349-27.345-15.079 0-27.345 12.266-27.345 27.345v120.191c0 15.079 12.266 27.345 27.345 27.345s27.349-12.266 27.349-27.345v-120.191zM697.957 547.034c9.621 0 18.805 1.809 27.349 4.958v-5.291c0-3.318 2.685-6.003 6.003-6.003h40.020c3.318 0 6.003 2.685 6.003 6.003v243.915c0 3.318-2.685 6.003-6.003 6.003h-40.020c-3.318 0-6.003-2.685-6.003-6.003v-164.212c0-15.079-12.266-27.345-27.349-27.345-15.079 0-27.345 12.266-27.345 27.345v164.212c0 3.318-2.685 6.003-6.003 6.003h-40.020c-3.318 0-6.003-2.685-6.003-6.003v-164.212c-0.004-43.765 35.605-79.371 79.371-79.371zM601.594 242.278c-15.079 0-27.345-12.266-27.345-27.345v-100.181c0-15.079 12.266-27.345 27.345-27.345s27.349 12.266 27.349 27.345v100.181c0 15.079-12.27 27.345-27.349 27.345zM774.778 244.279c-15.079 0-27.345-12.266-27.345-27.345v-18.277h54.695v18.277c-0.004 15.079-12.27 27.345-27.349 27.345zM792.139 496.274h-560.274c-117.285 0-212.704-95.419-212.704-212.7v-134.866c0-117.285 95.419-212.704 212.704-212.704h560.274c117.285 0 212.704 95.419 212.704 212.704v134.866c0 117.281-95.419 212.7-212.704 212.7zM306.918 61.061c0-3.318-2.685-6.003-6.003-6.003h-40.020c-3.318 0-6.003 2.685-6.003 6.003v284.139h-59.029c-3.318 0-6.003 2.685-6.003 6.003v40.020c0 3.318 2.685 6.003 6.003 6.003h170.083c3.318 0 6.003-2.685 6.003-6.003v-40.020c0-3.318-2.685-6.003-6.003-6.003h-59.029v-284.139zM498.679 159.109v-119.418c0-3.318-2.685-6.003-6.003-6.003h-40.020c-3.318 0-6.003 2.685-6.003 6.003v4.054c-8.54-3.15-17.725-4.958-27.349-4.958-43.765 0-79.371 30.195-79.371 79.371v133.661c0 3.318 2.685 6.003 6.003 6.003h40.020c3.318 0 6.003-2.685 6.003-6.003v-133.661c0-15.079 12.266-27.345 27.345-27.345s27.349 12.266 27.349 27.345v133.665c0 3.318 2.685 6.003 6.003 6.003h40.020c3.318 0 6.003-2.685 6.003-6.003v-92.713zM680.969 114.751c0-43.765-35.605-79.371-79.371-79.371-9.621 0-18.805 1.809-27.345 4.958v-4.386c0-3.318-2.685-6.003-6.003-6.003h-40.020c-3.318 0-6.003 2.685-6.003 6.003v347.266c0 3.318 2.685 6.003 6.003 6.003h40.020c3.318 0 6.003-2.685 6.003-6.003v-93.87c8.54 3.15 17.725 4.958 27.345 4.958 43.765 0 79.371-35.605 79.371-79.371v-100.185zM854.149 152.634c0-3.318-2.685-6.003-6.003-6.003h-100.717v-31.88c0-15.079 12.266-27.345 27.345-27.345s27.349 12.266 27.349 27.345c0 3.318 2.685 6.003 6.003 6.003h40.020c3.318 0 6.003-2.685 6.003-6.003 0-43.765-35.609-79.371-79.375-79.371s-79.371 35.605-79.371 79.371v102.182c0 43.765 35.609 79.371 79.371 79.371 43.765 0 79.375-35.605 79.375-79.371v-64.299z" />
</font></defs></svg>